decision-cycle,state,dir,prediction,outcome,next-state,predict-yes-rulecount,predict-no-rulecount,total-rulecount,template-count,template-depth
1,State-A,U,1,0,State-A,1,1,2,2,0
2,State-A,U,0,0,State-A,1,1,2,2,0
3,State-A,R,1,1,State-B,2,2,4,2,0
4,State-B,L,1,1,State-A,3,3,6,2,0
5,State-A,R,1,1,State-B,3,3,6,2,0
6,State-B,R,1,0,State-B,3,3,6,2,0
7,State-B,U,0,0,State-B,3,3,6,2,0
8,State-B,L,1,1,State-A,3,3,6,2,0
9,State-A,R,1,1,State-B,3,3,6,2,0
10,State-B,R,1,0,State-B,3,3,6,2,0
11,State-B,U,0,0,State-B,3,3,6,2,0
12,State-B,R,0,0,State-B,3,3,6,2,0
13,State-B,L,0,1,State-A,3,3,6,2,0
14,State-A,U,0,0,State-A,3,3,6,2,0
15,State-A,R,1,1,State-B,3,3,6,2,0
16,State-B,L,1,1,State-A,3,3,6,2,0
17,State-A,U,0,0,State-A,3,3,6,2,0
18,State-A,U,0,0,State-A,3,3,6,2,0
19,State-A,U,0,0,State-A,3,3,6,2,0
20,State-A,U,0,0,State-A,3,3,6,2,0
21,State-A,L,1,0,State-A,3,3,6,2,0
22,State-A,U,0,0,State-A,3,3,6,2,0
23,State-A,U,0,0,State-A,3,3,6,2,0
24,State-A,U,0,0,State-A,3,3,6,2,0
25,State-A,R,0,1,State-B,3,3,6,2,0
26,State-B,L,1,1,State-A,3,3,6,2,0
27,State-A,R,1,1,State-B,3,3,6,2,0
28,State-B,R,1,0,State-B,3,3,6,2,0
29,State-B,U,1,0,State-B,3,3,6,2,0
30,State-B,U,0,0,State-B,3,3,6,2,0
31,State-B,R,1,0,State-B,3,3,6,2,0
32,State-B,U,0,0,State-B,3,3,6,2,0
33,State-B,L,1,1,State-A,3,3,6,2,0
34,State-A,U,0,0,State-A,3,3,6,2,0
35,State-A,R,1,1,State-B,3,3,6,2,0
36,State-B,L,1,1,State-A,3,3,6,2,0
37,State-A,U,0,0,State-A,3,3,6,2,0
38,State-A,R,1,1,State-B,3,3,6,2,0
39,State-B,U,1,0,State-B,3,3,6,2,0
40,State-B,U,0,0,State-B,3,3,6,2,0
41,State-B,L,1,1,State-A,3,3,6,2,0
42,State-A,R,1,1,State-B,3,3,6,2,0
43,State-B,U,0,0,State-B,3,3,6,2,0
44,State-B,L,1,1,State-A,3,3,6,2,0
45,State-A,L,1,0,State-A,3,3,6,2,0
46,State-A,U,0,0,State-A,3,3,6,2,0
47,State-A,L,1,0,State-A,3,3,6,2,0
48,State-A,R,0,1,State-B,3,3,6,2,0
49,State-B,L,1,1,State-A,3,3,6,2,0
50,State-A,U,0,0,State-A,3,3,6,2,0
51,State-A,U,0,0,State-A,3,3,6,2,0
52,State-A,R,0,1,State-B,3,3,6,2,0
53,State-B,L,0,1,State-A,3,3,6,2,0
54,State-A,L,1,0,State-A,3,3,6,2,0
55,State-A,R,1,1,State-B,3,3,6,2,0
56,State-B,U,0,0,State-B,3,3,6,2,0
57,State-B,L,0,1,State-A,3,3,6,2,0
58,State-A,R,1,1,State-B,3,3,6,2,0
59,State-B,U,0,0,State-B,3,3,6,2,0
60,State-B,R,1,0,State-B,3,3,6,2,0
61,State-B,U,0,0,State-B,3,3,6,2,0
62,State-B,R,1,0,State-B,3,3,6,2,0
63,State-B,U,0,0,State-B,3,3,6,2,0
64,State-B,R,1,0,State-B,3,3,6,2,0
65,State-B,R,1,0,State-B,3,3,6,2,0
66,State-B,R,1,0,State-B,3,3,6,2,0
67,State-B,R,1,0,State-B,3,3,6,2,0
68,State-B,R,1,0,State-B,3,3,6,2,0
69,State-B,R,1,0,State-B,3,3,6,2,0
70,State-B,L,1,1,State-A,3,3,6,2,0
71,State-A,L,1,0,State-A,3,3,6,2,0
72,State-A,L,1,0,State-A,3,3,6,2,0
73,State-A,R,0,1,State-B,3,3,6,2,0
74,State-B,R,0,0,State-B,3,3,6,2,0
75,State-B,R,0,0,State-B,3,3,6,2,0
76,State-B,L,1,1,State-A,3,3,6,2,0
77,State-A,U,0,0,State-A,3,3,6,2,0
78,State-A,U,0,0,State-A,3,3,6,2,0
79,State-A,U,0,0,State-A,3,3,6,2,0
80,State-A,U,0,0,State-A,3,3,6,2,0
81,State-A,U,0,0,State-A,3,3,6,2,0
82,State-A,U,0,0,State-A,3,3,6,2,0
83,State-A,R,0,1,State-B,3,3,6,2,0
84,State-B,R,0,0,State-B,3,3,6,2,0
85,State-B,U,1,0,State-B,3,3,6,2,0
86,State-B,L,0,1,State-A,3,3,6,2,0
87,State-A,U,0,0,State-A,3,3,6,2,0
88,State-A,U,0,0,State-A,3,3,6,2,0
89,State-A,U,0,0,State-A,3,3,6,2,0
90,State-A,R,0,1,State-B,3,3,6,2,0
91,State-B,U,0,0,State-B,3,3,6,2,0
92,State-B,R,0,0,State-B,3,3,6,2,0
93,State-B,R,0,0,State-B,3,3,6,2,0
94,State-B,R,0,0,State-B,3,3,6,2,0
95,State-B,U,1,0,State-B,3,3,6,2,0
96,State-B,U,1,0,State-B,3,3,6,2,0
97,State-B,U,0,0,State-B,3,3,6,2,0
98,State-B,L,1,1,State-A,3,3,6,2,0
99,State-A,R,1,1,State-B,3,3,6,2,0
100,State-B,R,1,0,State-B,3,3,6,2,0
101,State-B,R,0,0,State-B,3,3,6,2,0
102,State-B,U,0,0,State-B,3,3,6,2,0
103,State-B,L,1,1,State-A,3,3,6,2,0
104,State-A,U,0,0,State-A,3,3,6,2,0
105,State-A,L,1,0,State-A,3,3,6,2,0
106,State-A,L,1,0,State-A,3,3,6,2,0
107,State-A,U,0,0,State-A,3,3,6,2,0
108,State-A,L,0,0,State-A,3,3,6,2,0
109,State-A,U,0,0,State-A,3,3,6,2,0
110,State-A,L,1,0,State-A,3,3,6,2,0
111,State-A,L,1,0,State-A,3,3,6,2,0
112,State-A,U,0,0,State-A,3,3,6,2,0
113,State-A,L,0,0,State-A,3,3,6,2,0
114,State-A,R,1,1,State-B,3,3,6,2,0
115,State-B,U,0,0,State-B,3,3,6,2,0
116,State-B,R,0,0,State-B,3,3,6,2,0
117,State-B,U,0,0,State-B,3,3,6,2,0
118,State-B,L,0,1,State-A,3,3,6,2,0
119,State-A,R,0,1,State-B,3,3,6,2,0
120,State-B,R,0,0,State-B,3,3,6,2,0
121,State-B,R,1,0,State-B,3,3,6,2,0
122,State-B,R,0,0,State-B,3,3,6,2,0
123,State-B,R,0,0,State-B,3,3,6,2,0
124,State-B,U,1,0,State-B,3,3,6,2,0
125,State-B,L,0,1,State-A,3,3,6,2,0
126,State-A,L,0,0,State-A,3,3,6,2,0
127,State-A,U,0,0,State-A,3,3,6,2,0
128,State-A,L,0,0,State-A,3,3,6,2,0
129,State-A,L,1,0,State-A,3,3,6,2,0
130,State-A,L,0,0,State-A,3,3,6,2,0
131,State-A,U,0,0,State-A,3,3,6,2,0
132,State-A,U,0,0,State-A,3,3,6,2,0
133,State-A,L,0,0,State-A,3,3,6,2,0
134,State-A,R,0,1,State-B,3,3,6,2,0
135,State-B,L,0,1,State-A,3,3,6,2,0
136,State-A,L,0,0,State-A,3,3,6,2,0
137,State-A,L,0,0,State-A,3,3,6,2,0
138,State-A,R,0,1,State-B,3,3,6,2,0
139,State-B,R,0,0,State-B,3,3,6,2,0
140,State-B,L,0,1,State-A,3,3,6,2,0
141,State-A,R,0,1,State-B,3,3,6,2,0
142,State-B,L,0,1,State-A,3,3,6,2,0
143,State-A,L,1,0,State-A,3,3,6,2,0
144,State-A,U,0,0,State-A,3,3,6,2,0
145,State-A,L,0,0,State-A,3,3,6,2,0
146,State-A,R,0,1,State-B,3,3,6,2,0
147,State-B,U,0,0,State-B,3,3,6,2,0
148,State-B,U,0,0,State-B,3,3,6,2,0
149,State-B,U,0,0,State-B,3,3,6,2,0
150,State-B,L,0,1,State-A,3,3,6,2,0
151,State-A,U,0,0,State-A,3,3,6,2,0
152,State-A,U,0,0,State-A,3,3,6,2,0
153,State-A,L,0,0,State-A,3,3,6,2,0
154,State-A,U,0,0,State-A,3,3,6,2,0
155,State-A,U,0,0,State-A,3,3,6,2,0
156,State-A,R,0,1,State-B,3,3,6,2,0
157,State-B,L,0,1,State-A,3,3,6,2,0
158,State-A,R,1,1,State-B,3,3,6,2,0
159,State-B,R,1,0,State-B,3,3,6,2,0
160,State-B,L,0,1,State-A,3,3,6,2,0
161,State-A,R,1,1,State-B,3,3,6,2,0
162,State-B,R,1,0,State-B,3,3,6,2,0
163,State-B,R,1,0,State-B,3,3,6,2,0
164,State-B,R,1,0,State-B,3,3,6,2,0
165,State-B,L,0,1,State-A,3,3,6,2,0
166,State-A,R,0,1,State-B,3,3,6,2,0
167,State-B,U,0,0,State-B,3,3,6,2,0
168,State-B,L,0,1,State-A,3,3,6,2,0
169,State-A,R,1,1,State-B,3,3,6,2,0
170,State-B,L,0,1,State-A,3,3,6,2,0
171,State-A,U,0,0,State-A,3,3,6,2,0
172,State-A,R,1,1,State-B,3,3,6,2,0
173,State-B,L,0,1,State-A,3,3,6,2,0
174,State-A,L,0,0,State-A,3,3,6,2,0
175,State-A,L,1,0,State-A,3,3,6,2,0
176,State-A,U,0,0,State-A,3,3,6,2,0
177,State-A,R,1,1,State-B,3,3,6,2,0
178,State-B,L,0,1,State-A,3,3,6,2,0
179,State-A,R,1,1,State-B,3,3,6,2,0
180,State-B,U,0,0,State-B,3,3,6,2,0
181,State-B,R,1,0,State-B,3,3,6,2,0
182,State-B,R,0,0,State-B,3,3,6,2,0
183,State-B,U,0,0,State-B,3,3,6,2,0
184,State-B,R,1,0,State-B,3,3,6,2,0
185,State-B,R,1,0,State-B,3,3,6,2,0
186,State-B,R,0,0,State-B,3,3,6,2,0
187,State-B,L,0,1,State-A,3,3,6,2,0
188,State-A,L,0,0,State-A,3,3,6,2,0
189,State-A,R,0,1,State-B,3,3,6,2,0
190,State-B,L,0,1,State-A,3,3,6,2,0
191,State-A,R,0,1,State-B,3,3,6,2,0
192,State-B,R,0,0,State-B,3,3,6,2,0
193,State-B,U,0,0,State-B,3,3,6,2,0
194,State-B,R,0,0,State-B,3,3,6,2,0
195,State-B,R,0,0,State-B,3,3,6,2,0
196,State-B,R,0,0,State-B,3,3,6,2,0
197,State-B,U,0,0,State-B,3,3,6,2,0
198,State-B,R,0,0,State-B,3,3,6,2,0
199,State-B,R,0,0,State-B,3,3,6,2,0
200,State-B,L,0,1,State-A,3,3,6,2,0
201,State-A,R,0,1,State-B,4,4,8,6,1
202,State-B,L,0,1,State-A,5,5,10,6,1
203,State-A,L,0,0,State-A,6,6,12,6,1
204,State-A,R,0,1,State-B,7,7,14,6,1
205,State-B,R,0,0,State-B,8,8,16,6,1
206,State-B,R,0,0,State-B,9,9,18,6,1
207,State-B,U,0,0,State-B,9,9,18,6,1
208,State-B,U,0,0,State-B,9,9,18,6,1
209,State-B,R,0,0,State-B,9,9,18,6,1
210,State-B,L,0,1,State-A,10,10,20,6,1
211,State-A,R,0,1,State-B,10,10,20,6,1
212,State-B,U,0,0,State-B,10,10,20,6,1
213,State-B,U,0,0,State-B,10,10,20,6,1
214,State-B,U,0,0,State-B,10,10,20,6,1
215,State-B,L,0,1,State-A,10,10,20,6,1
216,State-A,U,0,0,State-A,10,10,20,6,1
217,State-A,R,0,1,State-B,10,10,20,6,1
218,State-B,L,0,1,State-A,10,10,20,6,1
219,State-A,U,1,0,State-A,10,10,20,6,1
220,State-A,U,0,0,State-A,10,10,20,6,1
221,State-A,R,1,1,State-B,10,10,20,6,1
222,State-B,U,0,0,State-B,10,10,20,6,1
223,State-B,L,0,1,State-A,10,10,20,6,1
224,State-A,L,0,0,State-A,10,10,20,6,1
225,State-A,U,0,0,State-A,10,10,20,6,1
226,State-A,L,0,0,State-A,11,11,22,6,1
227,State-A,U,0,0,State-A,11,11,22,6,1
228,State-A,R,0,1,State-B,11,11,22,6,1
229,State-B,L,0,1,State-A,11,11,22,6,1
230,State-A,L,0,0,State-A,11,11,22,6,1
231,State-A,R,1,1,State-B,11,11,22,6,1
232,State-B,U,0,0,State-B,11,11,22,6,1
233,State-B,L,0,1,State-A,11,11,22,6,1
234,State-A,U,0,0,State-A,11,11,22,6,1
235,State-A,L,0,0,State-A,11,11,22,6,1
236,State-A,U,0,0,State-A,11,11,22,6,1
237,State-A,R,1,1,State-B,11,11,22,6,1
238,State-B,L,0,1,State-A,11,11,22,6,1
239,State-A,L,0,0,State-A,11,11,22,6,1
240,State-A,R,1,1,State-B,11,11,22,6,1
241,State-B,U,0,0,State-B,11,11,22,6,1
242,State-B,U,1,0,State-B,11,11,22,6,1
243,State-B,L,0,1,State-A,11,11,22,6,1
244,State-A,R,1,1,State-B,11,11,22,6,1
245,State-B,R,0,0,State-B,11,11,22,6,1
246,State-B,R,0,0,State-B,11,11,22,6,1
247,State-B,U,0,0,State-B,11,11,22,6,1
248,State-B,L,0,1,State-A,11,11,22,6,1
249,State-A,L,0,0,State-A,11,11,22,6,1
250,State-A,L,0,0,State-A,11,11,22,6,1
251,State-A,U,0,0,State-A,11,11,22,6,1
252,State-A,R,1,1,State-B,11,11,22,6,1
253,State-B,U,0,0,State-B,11,11,22,6,1
254,State-B,U,0,0,State-B,11,11,22,6,1
255,State-B,U,1,0,State-B,11,11,22,6,1
256,State-B,L,0,1,State-A,11,11,22,6,1
257,State-A,U,0,0,State-A,11,11,22,6,1
258,State-A,U,0,0,State-A,11,11,22,6,1
259,State-A,R,1,1,State-B,11,11,22,6,1
260,State-B,U,0,0,State-B,11,11,22,6,1
261,State-B,U,1,0,State-B,11,11,22,6,1
262,State-B,R,1,0,State-B,11,11,22,6,1
263,State-B,R,0,0,State-B,11,11,22,6,1
264,State-B,R,0,0,State-B,11,11,22,6,1
265,State-B,L,0,1,State-A,11,11,22,6,1
266,State-A,R,1,1,State-B,11,11,22,6,1
267,State-B,L,1,1,State-A,11,11,22,6,1
268,State-A,L,0,0,State-A,11,11,22,6,1
269,State-A,R,0,1,State-B,11,11,22,6,1
270,State-B,U,0,0,State-B,11,11,22,6,1
271,State-B,U,0,0,State-B,11,11,22,6,1
272,State-B,R,0,0,State-B,11,11,22,6,1
273,State-B,R,0,0,State-B,11,11,22,6,1
274,State-B,L,1,1,State-A,11,11,22,6,1
275,State-A,L,0,0,State-A,11,11,22,6,1
276,State-A,U,0,0,State-A,11,11,22,6,1
277,State-A,L,0,0,State-A,11,11,22,6,1
278,State-A,R,1,1,State-B,11,11,22,6,1
279,State-B,R,0,0,State-B,11,11,22,6,1
280,State-B,L,1,1,State-A,11,11,22,6,1
281,State-A,R,1,1,State-B,11,11,22,6,1
282,State-B,L,1,1,State-A,11,11,22,6,1
283,State-A,L,1,0,State-A,11,11,22,6,1
284,State-A,L,0,0,State-A,11,11,22,6,1
285,State-A,R,1,1,State-B,11,11,22,6,1
286,State-B,L,0,1,State-A,11,11,22,6,1
287,State-A,R,1,1,State-B,11,11,22,6,1
288,State-B,L,1,1,State-A,11,11,22,6,1
289,State-A,R,1,1,State-B,11,11,22,6,1
290,State-B,L,1,1,State-A,11,11,22,6,1
291,State-A,U,0,0,State-A,11,11,22,6,1
292,State-A,R,1,1,State-B,11,11,22,6,1
293,State-B,U,0,0,State-B,11,11,22,6,1
294,State-B,U,0,0,State-B,11,11,22,6,1
295,State-B,R,0,0,State-B,11,11,22,6,1
296,State-B,R,0,0,State-B,11,11,22,6,1
297,State-B,U,1,0,State-B,11,11,22,6,1
298,State-B,R,0,0,State-B,11,11,22,6,1
299,State-B,L,1,1,State-A,11,11,22,6,1
300,State-A,U,0,0,State-A,11,11,22,6,1
301,State-A,U,0,0,State-A,11,11,22,6,1
302,State-A,U,0,0,State-A,11,11,22,6,1
303,State-A,R,1,1,State-B,11,11,22,6,1
304,State-B,R,0,0,State-B,11,11,22,6,1
305,State-B,U,0,0,State-B,11,11,22,6,1
306,State-B,R,0,0,State-B,11,11,22,6,1
307,State-B,L,1,1,State-A,11,11,22,6,1
308,State-A,L,0,0,State-A,11,11,22,6,1
309,State-A,U,0,0,State-A,11,11,22,6,1
310,State-A,L,0,0,State-A,11,11,22,6,1
311,State-A,L,0,0,State-A,11,11,22,6,1
312,State-A,R,1,1,State-B,11,11,22,6,1
313,State-B,R,0,0,State-B,11,11,22,6,1
314,State-B,R,0,0,State-B,11,11,22,6,1
315,State-B,R,0,0,State-B,11,11,22,6,1
316,State-B,R,0,0,State-B,11,11,22,6,1
317,State-B,U,0,0,State-B,11,11,22,6,1
318,State-B,R,0,0,State-B,11,11,22,6,1
319,State-B,R,0,0,State-B,11,11,22,6,1
320,State-B,U,0,0,State-B,11,11,22,6,1
321,State-B,L,1,1,State-A,11,11,22,6,1
322,State-A,U,0,0,State-A,11,11,22,6,1
323,State-A,R,1,1,State-B,11,11,22,6,1
324,State-B,R,0,0,State-B,11,11,22,6,1
325,State-B,L,1,1,State-A,11,11,22,6,1
326,State-A,U,0,0,State-A,11,11,22,6,1
327,State-A,U,0,0,State-A,11,11,22,6,1
328,State-A,U,0,0,State-A,11,11,22,6,1
329,State-A,R,1,1,State-B,11,11,22,6,1
330,State-B,U,0,0,State-B,11,11,22,6,1
331,State-B,L,1,1,State-A,11,11,22,6,1
332,State-A,R,1,1,State-B,11,11,22,6,1
333,State-B,L,0,1,State-A,11,11,22,6,1
334,State-A,L,0,0,State-A,11,11,22,6,1
335,State-A,U,0,0,State-A,11,11,22,6,1
336,State-A,L,0,0,State-A,11,11,22,6,1
337,State-A,L,0,0,State-A,11,11,22,6,1
338,State-A,L,0,0,State-A,11,11,22,6,1
339,State-A,R,1,1,State-B,11,11,22,6,1
340,State-B,R,0,0,State-B,11,11,22,6,1
341,State-B,L,1,1,State-A,11,11,22,6,1
342,State-A,U,0,0,State-A,11,11,22,6,1
343,State-A,U,0,0,State-A,11,11,22,6,1
344,State-A,L,1,0,State-A,11,11,22,6,1
345,State-A,R,1,1,State-B,11,11,22,6,1
346,State-B,U,0,0,State-B,11,11,22,6,1
347,State-B,U,0,0,State-B,11,11,22,6,1
348,State-B,R,0,0,State-B,11,11,22,6,1
349,State-B,U,0,0,State-B,11,11,22,6,1
350,State-B,L,1,1,State-A,11,11,22,6,1
351,State-A,R,1,1,State-B,11,11,22,6,1
352,State-B,R,0,0,State-B,11,11,22,6,1
353,State-B,U,0,0,State-B,11,11,22,6,1
354,State-B,L,1,1,State-A,11,11,22,6,1
355,State-A,R,1,1,State-B,11,11,22,6,1
356,State-B,L,1,1,State-A,11,11,22,6,1
357,State-A,R,1,1,State-B,11,11,22,6,1
358,State-B,U,0,0,State-B,11,11,22,6,1
359,State-B,U,0,0,State-B,11,11,22,6,1
360,State-B,U,0,0,State-B,11,11,22,6,1
361,State-B,L,0,1,State-A,11,11,22,6,1
362,State-A,L,0,0,State-A,11,11,22,6,1
363,State-A,L,0,0,State-A,11,11,22,6,1
364,State-A,U,0,0,State-A,11,11,22,6,1
365,State-A,U,0,0,State-A,11,11,22,6,1
366,State-A,R,1,1,State-B,11,11,22,6,1
367,State-B,U,0,0,State-B,11,11,22,6,1
368,State-B,U,0,0,State-B,11,11,22,6,1
369,State-B,L,1,1,State-A,11,11,22,6,1
370,State-A,L,0,0,State-A,11,11,22,6,1
371,State-A,U,0,0,State-A,11,11,22,6,1
372,State-A,L,0,0,State-A,11,11,22,6,1
373,State-A,L,1,0,State-A,11,11,22,6,1
374,State-A,L,0,0,State-A,11,11,22,6,1
375,State-A,L,0,0,State-A,11,11,22,6,1
376,State-A,U,0,0,State-A,11,11,22,6,1
377,State-A,L,0,0,State-A,11,11,22,6,1
378,State-A,L,0,0,State-A,11,11,22,6,1
379,State-A,L,0,0,State-A,11,11,22,6,1
380,State-A,R,1,1,State-B,11,11,22,6,1
381,State-B,U,0,0,State-B,11,11,22,6,1
382,State-B,R,0,0,State-B,11,11,22,6,1
383,State-B,U,0,0,State-B,11,11,22,6,1
384,State-B,R,0,0,State-B,11,11,22,6,1
385,State-B,R,0,0,State-B,11,11,22,6,1
386,State-B,U,0,0,State-B,11,11,22,6,1
387,State-B,U,0,0,State-B,11,11,22,6,1
388,State-B,U,0,0,State-B,11,11,22,6,1
389,State-B,U,0,0,State-B,11,11,22,6,1
390,State-B,U,0,0,State-B,11,11,22,6,1
391,State-B,U,0,0,State-B,11,11,22,6,1
392,State-B,L,1,1,State-A,11,11,22,6,1
393,State-A,R,1,1,State-B,11,11,22,6,1
394,State-B,R,0,0,State-B,11,11,22,6,1
395,State-B,U,0,0,State-B,11,11,22,6,1
396,State-B,R,0,0,State-B,11,11,22,6,1
397,State-B,U,0,0,State-B,11,11,22,6,1
398,State-B,R,0,0,State-B,11,11,22,6,1
399,State-B,R,0,0,State-B,11,11,22,6,1
400,State-B,U,0,0,State-B,11,11,22,6,1
401,State-B,U,0,0,State-B,11,11,22,6,1
402,State-B,R,0,0,State-B,11,11,22,6,1
403,State-B,L,1,1,State-A,11,11,22,6,1
404,State-A,L,0,0,State-A,11,11,22,6,1
405,State-A,R,1,1,State-B,11,11,22,6,1
406,State-B,L,1,1,State-A,11,11,22,6,1
407,State-A,L,0,0,State-A,11,11,22,6,1
408,State-A,U,0,0,State-A,11,11,22,6,1
409,State-A,U,0,0,State-A,11,11,22,6,1
410,State-A,L,0,0,State-A,11,11,22,6,1
411,State-A,R,1,1,State-B,11,11,22,6,1
412,State-B,U,0,0,State-B,11,11,22,6,1
413,State-B,L,1,1,State-A,11,11,22,6,1
414,State-A,R,1,1,State-B,11,11,22,6,1
415,State-B,L,1,1,State-A,11,11,22,6,1
416,State-A,L,0,0,State-A,11,11,22,6,1
417,State-A,U,0,0,State-A,11,11,22,6,1
418,State-A,L,0,0,State-A,11,11,22,6,1
419,State-A,L,0,0,State-A,11,11,22,6,1
420,State-A,R,1,1,State-B,11,11,22,6,1
421,State-B,R,0,0,State-B,11,11,22,6,1
422,State-B,U,0,0,State-B,11,11,22,6,1
423,State-B,U,0,0,State-B,11,11,22,6,1
424,State-B,U,0,0,State-B,11,11,22,6,1
425,State-B,L,1,1,State-A,11,11,22,6,1
426,State-A,U,0,0,State-A,11,11,22,6,1
427,State-A,R,1,1,State-B,11,11,22,6,1
428,State-B,R,0,0,State-B,11,11,22,6,1
429,State-B,R,0,0,State-B,11,11,22,6,1
430,State-B,L,1,1,State-A,11,11,22,6,1
431,State-A,R,1,1,State-B,11,11,22,6,1
432,State-B,L,1,1,State-A,11,11,22,6,1
433,State-A,L,0,0,State-A,11,11,22,6,1
434,State-A,R,1,1,State-B,11,11,22,6,1
435,State-B,R,0,0,State-B,11,11,22,6,1
436,State-B,L,1,1,State-A,11,11,22,6,1
437,State-A,R,1,1,State-B,11,11,22,6,1
438,State-B,R,0,0,State-B,11,11,22,6,1
439,State-B,R,0,0,State-B,11,11,22,6,1
440,State-B,U,0,0,State-B,11,11,22,6,1
441,State-B,R,0,0,State-B,11,11,22,6,1
442,State-B,U,0,0,State-B,11,11,22,6,1
443,State-B,R,0,0,State-B,11,11,22,6,1
444,State-B,R,0,0,State-B,11,11,22,6,1
445,State-B,R,0,0,State-B,11,11,22,6,1
446,State-B,R,0,0,State-B,11,11,22,6,1
447,State-B,L,1,1,State-A,11,11,22,6,1
448,State-A,U,0,0,State-A,11,11,22,6,1
449,State-A,R,1,1,State-B,11,11,22,6,1
450,State-B,U,0,0,State-B,11,11,22,6,1
451,State-B,L,1,1,State-A,11,11,22,6,1
452,State-A,U,0,0,State-A,11,11,22,6,1
453,State-A,U,0,0,State-A,11,11,22,6,1
454,State-A,U,0,0,State-A,11,11,22,6,1
455,State-A,U,0,0,State-A,11,11,22,6,1
456,State-A,U,0,0,State-A,11,11,22,6,1
457,State-A,U,0,0,State-A,11,11,22,6,1
458,State-A,R,1,1,State-B,11,11,22,6,1
459,State-B,U,0,0,State-B,11,11,22,6,1
460,State-B,L,1,1,State-A,11,11,22,6,1
461,State-A,U,0,0,State-A,11,11,22,6,1
462,State-A,R,1,1,State-B,11,11,22,6,1
463,State-B,U,0,0,State-B,11,11,22,6,1
464,State-B,R,0,0,State-B,11,11,22,6,1
465,State-B,U,0,0,State-B,11,11,22,6,1
466,State-B,L,1,1,State-A,11,11,22,6,1
467,State-A,L,0,0,State-A,11,11,22,6,1
468,State-A,U,0,0,State-A,11,11,22,6,1
469,State-A,R,1,1,State-B,11,11,22,6,1
470,State-B,U,0,0,State-B,11,11,22,6,1
471,State-B,U,0,0,State-B,11,11,22,6,1
472,State-B,R,0,0,State-B,11,11,22,6,1
473,State-B,R,0,0,State-B,11,11,22,6,1
474,State-B,L,1,1,State-A,11,11,22,6,1
475,State-A,L,0,0,State-A,11,11,22,6,1
476,State-A,U,0,0,State-A,11,11,22,6,1
477,State-A,U,0,0,State-A,11,11,22,6,1
478,State-A,U,0,0,State-A,11,11,22,6,1
479,State-A,U,0,0,State-A,11,11,22,6,1
480,State-A,R,1,1,State-B,11,11,22,6,1
481,State-B,L,1,1,State-A,11,11,22,6,1
482,State-A,L,0,0,State-A,11,11,22,6,1
483,State-A,R,1,1,State-B,11,11,22,6,1
484,State-B,R,0,0,State-B,11,11,22,6,1
485,State-B,U,0,0,State-B,11,11,22,6,1
486,State-B,U,0,0,State-B,11,11,22,6,1
487,State-B,R,0,0,State-B,11,11,22,6,1
488,State-B,L,1,1,State-A,11,11,22,6,1
489,State-A,U,0,0,State-A,11,11,22,6,1
490,State-A,U,0,0,State-A,11,11,22,6,1
491,State-A,L,0,0,State-A,11,11,22,6,1
492,State-A,R,1,1,State-B,11,11,22,6,1
493,State-B,U,0,0,State-B,11,11,22,6,1
494,State-B,L,1,1,State-A,11,11,22,6,1
495,State-A,U,0,0,State-A,11,11,22,6,1
496,State-A,U,0,0,State-A,11,11,22,6,1
497,State-A,U,0,0,State-A,11,11,22,6,1
498,State-A,L,0,0,State-A,11,11,22,6,1
499,State-A,L,0,0,State-A,11,11,22,6,1
500,State-A,R,1,1,State-B,11,11,22,6,1
501,State-B,L,1,1,State-A,11,11,22,6,1
502,State-A,R,1,1,State-B,11,11,22,6,1
503,State-B,L,1,1,State-A,11,11,22,6,1
504,State-A,U,0,0,State-A,11,11,22,6,1
505,State-A,U,0,0,State-A,11,11,22,6,1
506,State-A,L,0,0,State-A,11,11,22,6,1
507,State-A,U,0,0,State-A,11,11,22,6,1
508,State-A,L,0,0,State-A,11,11,22,6,1
509,State-A,L,0,0,State-A,11,11,22,6,1
510,State-A,U,0,0,State-A,11,11,22,6,1
511,State-A,U,0,0,State-A,11,11,22,6,1
512,State-A,L,0,0,State-A,11,11,22,6,1
513,State-A,L,0,0,State-A,11,11,22,6,1
514,State-A,R,1,1,State-B,11,11,22,6,1
515,State-B,L,1,1,State-A,11,11,22,6,1
516,State-A,R,1,1,State-B,11,11,22,6,1
517,State-B,U,0,0,State-B,11,11,22,6,1
518,State-B,L,1,1,State-A,11,11,22,6,1
519,State-A,L,0,0,State-A,11,11,22,6,1
520,State-A,R,1,1,State-B,11,11,22,6,1
521,State-B,U,0,0,State-B,11,11,22,6,1
522,State-B,L,1,1,State-A,11,11,22,6,1
523,State-A,U,0,0,State-A,11,11,22,6,1
524,State-A,R,1,1,State-B,11,11,22,6,1
525,State-B,R,0,0,State-B,11,11,22,6,1
526,State-B,L,1,1,State-A,11,11,22,6,1
527,State-A,U,0,0,State-A,11,11,22,6,1
528,State-A,U,0,0,State-A,11,11,22,6,1
529,State-A,R,1,1,State-B,11,11,22,6,1
530,State-B,L,1,1,State-A,11,11,22,6,1
531,State-A,U,0,0,State-A,11,11,22,6,1
532,State-A,L,0,0,State-A,11,11,22,6,1
533,State-A,R,1,1,State-B,11,11,22,6,1
534,State-B,L,1,1,State-A,11,11,22,6,1
535,State-A,U,0,0,State-A,11,11,22,6,1
536,State-A,U,0,0,State-A,11,11,22,6,1
537,State-A,U,0,0,State-A,11,11,22,6,1
538,State-A,L,0,0,State-A,11,11,22,6,1
539,State-A,L,0,0,State-A,11,11,22,6,1
540,State-A,U,0,0,State-A,11,11,22,6,1
541,State-A,L,0,0,State-A,11,11,22,6,1
542,State-A,R,1,1,State-B,11,11,22,6,1
543,State-B,L,1,1,State-A,11,11,22,6,1
544,State-A,L,0,0,State-A,11,11,22,6,1
545,State-A,L,0,0,State-A,11,11,22,6,1
546,State-A,L,0,0,State-A,11,11,22,6,1
547,State-A,L,0,0,State-A,11,11,22,6,1
548,State-A,R,1,1,State-B,11,11,22,6,1
549,State-B,R,0,0,State-B,11,11,22,6,1
550,State-B,U,0,0,State-B,11,11,22,6,1
551,State-B,L,1,1,State-A,11,11,22,6,1
552,State-A,R,1,1,State-B,11,11,22,6,1
553,State-B,R,0,0,State-B,11,11,22,6,1
554,State-B,L,1,1,State-A,11,11,22,6,1
555,State-A,R,1,1,State-B,11,11,22,6,1
556,State-B,R,0,0,State-B,11,11,22,6,1
557,State-B,U,0,0,State-B,11,11,22,6,1
558,State-B,L,1,1,State-A,11,11,22,6,1
559,State-A,R,1,1,State-B,11,11,22,6,1
560,State-B,R,0,0,State-B,11,11,22,6,1
561,State-B,U,0,0,State-B,11,11,22,6,1
562,State-B,L,1,1,State-A,11,11,22,6,1
563,State-A,L,0,0,State-A,11,11,22,6,1
564,State-A,L,0,0,State-A,11,11,22,6,1
565,State-A,R,1,1,State-B,11,11,22,6,1
566,State-B,U,0,0,State-B,11,11,22,6,1
567,State-B,U,0,0,State-B,11,11,22,6,1
568,State-B,L,1,1,State-A,11,11,22,6,1
569,State-A,R,1,1,State-B,11,11,22,6,1
570,State-B,U,0,0,State-B,11,11,22,6,1
571,State-B,U,0,0,State-B,11,11,22,6,1
572,State-B,R,0,0,State-B,11,11,22,6,1
573,State-B,R,0,0,State-B,11,11,22,6,1
574,State-B,U,0,0,State-B,11,11,22,6,1
575,State-B,R,0,0,State-B,11,11,22,6,1
576,State-B,L,1,1,State-A,11,11,22,6,1
577,State-A,R,1,1,State-B,11,11,22,6,1
578,State-B,U,0,0,State-B,11,11,22,6,1
579,State-B,L,1,1,State-A,11,11,22,6,1
580,State-A,R,1,1,State-B,11,11,22,6,1
581,State-B,R,0,0,State-B,11,11,22,6,1
582,State-B,R,0,0,State-B,11,11,22,6,1
583,State-B,L,1,1,State-A,11,11,22,6,1
584,State-A,L,0,0,State-A,11,11,22,6,1
585,State-A,U,0,0,State-A,11,11,22,6,1
586,State-A,R,1,1,State-B,11,11,22,6,1
587,State-B,L,1,1,State-A,11,11,22,6,1
588,State-A,L,0,0,State-A,11,11,22,6,1
589,State-A,U,0,0,State-A,11,11,22,6,1
590,State-A,R,1,1,State-B,11,11,22,6,1
591,State-B,R,0,0,State-B,11,11,22,6,1
592,State-B,L,1,1,State-A,11,11,22,6,1
593,State-A,U,0,0,State-A,11,11,22,6,1
594,State-A,R,1,1,State-B,11,11,22,6,1
595,State-B,U,0,0,State-B,11,11,22,6,1
596,State-B,U,0,0,State-B,11,11,22,6,1
597,State-B,L,1,1,State-A,11,11,22,6,1
598,State-A,U,0,0,State-A,11,11,22,6,1
599,State-A,L,0,0,State-A,11,11,22,6,1
600,State-A,U,0,0,State-A,11,11,22,6,1
601,State-A,L,0,0,State-A,11,11,22,6,1
602,State-A,U,0,0,State-A,11,11,22,6,1
603,State-A,L,0,0,State-A,11,11,22,6,1
604,State-A,L,0,0,State-A,11,11,22,6,1
605,State-A,R,1,1,State-B,11,11,22,6,1
606,State-B,R,0,0,State-B,11,11,22,6,1
607,State-B,R,0,0,State-B,11,11,22,6,1
608,State-B,L,1,1,State-A,11,11,22,6,1
609,State-A,L,0,0,State-A,11,11,22,6,1
610,State-A,L,0,0,State-A,11,11,22,6,1
611,State-A,U,0,0,State-A,11,11,22,6,1
612,State-A,U,0,0,State-A,11,11,22,6,1
613,State-A,R,1,1,State-B,11,11,22,6,1
614,State-B,L,1,1,State-A,11,11,22,6,1
615,State-A,U,0,0,State-A,11,11,22,6,1
616,State-A,L,0,0,State-A,11,11,22,6,1
617,State-A,R,1,1,State-B,11,11,22,6,1
618,State-B,R,0,0,State-B,11,11,22,6,1
619,State-B,L,1,1,State-A,11,11,22,6,1
620,State-A,U,0,0,State-A,11,11,22,6,1
621,State-A,L,0,0,State-A,11,11,22,6,1
622,State-A,R,1,1,State-B,11,11,22,6,1
623,State-B,L,1,1,State-A,11,11,22,6,1
624,State-A,R,1,1,State-B,11,11,22,6,1
625,State-B,R,0,0,State-B,11,11,22,6,1
626,State-B,R,0,0,State-B,11,11,22,6,1
627,State-B,R,0,0,State-B,11,11,22,6,1
628,State-B,R,0,0,State-B,11,11,22,6,1
629,State-B,R,0,0,State-B,11,11,22,6,1
630,State-B,R,0,0,State-B,11,11,22,6,1
631,State-B,U,0,0,State-B,11,11,22,6,1
632,State-B,U,0,0,State-B,11,11,22,6,1
633,State-B,L,1,1,State-A,11,11,22,6,1
634,State-A,R,1,1,State-B,11,11,22,6,1
635,State-B,R,0,0,State-B,11,11,22,6,1
636,State-B,L,1,1,State-A,11,11,22,6,1
637,State-A,U,0,0,State-A,11,11,22,6,1
638,State-A,R,1,1,State-B,11,11,22,6,1
639,State-B,R,0,0,State-B,11,11,22,6,1
640,State-B,L,1,1,State-A,11,11,22,6,1
641,State-A,U,0,0,State-A,11,11,22,6,1
642,State-A,R,1,1,State-B,11,11,22,6,1
643,State-B,R,0,0,State-B,11,11,22,6,1
644,State-B,R,0,0,State-B,11,11,22,6,1
645,State-B,R,0,0,State-B,11,11,22,6,1
646,State-B,U,0,0,State-B,11,11,22,6,1
647,State-B,L,1,1,State-A,11,11,22,6,1
648,State-A,R,1,1,State-B,11,11,22,6,1
649,State-B,L,1,1,State-A,11,11,22,6,1
650,State-A,L,0,0,State-A,11,11,22,6,1
651,State-A,U,0,0,State-A,11,11,22,6,1
652,State-A,L,0,0,State-A,11,11,22,6,1
653,State-A,R,1,1,State-B,11,11,22,6,1
654,State-B,L,1,1,State-A,11,11,22,6,1
655,State-A,R,1,1,State-B,11,11,22,6,1
656,State-B,U,0,0,State-B,11,11,22,6,1
657,State-B,L,1,1,State-A,11,11,22,6,1
658,State-A,R,1,1,State-B,11,11,22,6,1
659,State-B,L,1,1,State-A,11,11,22,6,1
660,State-A,U,0,0,State-A,11,11,22,6,1
661,State-A,U,0,0,State-A,11,11,22,6,1
662,State-A,U,0,0,State-A,11,11,22,6,1
663,State-A,U,0,0,State-A,11,11,22,6,1
664,State-A,L,0,0,State-A,11,11,22,6,1
665,State-A,L,0,0,State-A,11,11,22,6,1
666,State-A,R,1,1,State-B,11,11,22,6,1
667,State-B,U,0,0,State-B,11,11,22,6,1
668,State-B,U,0,0,State-B,11,11,22,6,1
669,State-B,U,0,0,State-B,11,11,22,6,1
670,State-B,U,0,0,State-B,11,11,22,6,1
671,State-B,L,1,1,State-A,11,11,22,6,1
672,State-A,U,0,0,State-A,11,11,22,6,1
673,State-A,L,0,0,State-A,11,11,22,6,1
674,State-A,L,0,0,State-A,11,11,22,6,1
675,State-A,R,1,1,State-B,11,11,22,6,1
676,State-B,L,1,1,State-A,11,11,22,6,1
677,State-A,L,0,0,State-A,11,11,22,6,1
678,State-A,R,1,1,State-B,11,11,22,6,1
679,State-B,U,0,0,State-B,11,11,22,6,1
680,State-B,R,0,0,State-B,11,11,22,6,1
681,State-B,R,0,0,State-B,11,11,22,6,1
682,State-B,U,0,0,State-B,11,11,22,6,1
683,State-B,R,0,0,State-B,11,11,22,6,1
684,State-B,L,1,1,State-A,11,11,22,6,1
685,State-A,U,0,0,State-A,11,11,22,6,1
686,State-A,R,1,1,State-B,11,11,22,6,1
687,State-B,U,0,0,State-B,11,11,22,6,1
688,State-B,R,0,0,State-B,11,11,22,6,1
689,State-B,U,0,0,State-B,11,11,22,6,1
690,State-B,R,0,0,State-B,11,11,22,6,1
691,State-B,L,1,1,State-A,11,11,22,6,1
692,State-A,L,0,0,State-A,11,11,22,6,1
693,State-A,U,0,0,State-A,11,11,22,6,1
694,State-A,R,1,1,State-B,11,11,22,6,1
695,State-B,L,1,1,State-A,11,11,22,6,1
696,State-A,R,1,1,State-B,11,11,22,6,1
697,State-B,L,1,1,State-A,11,11,22,6,1
698,State-A,L,0,0,State-A,11,11,22,6,1
699,State-A,L,0,0,State-A,11,11,22,6,1
700,State-A,L,0,0,State-A,11,11,22,6,1
701,State-A,R,1,1,State-B,11,11,22,6,1
702,State-B,L,1,1,State-A,11,11,22,6,1
703,State-A,R,1,1,State-B,11,11,22,6,1
704,State-B,R,0,0,State-B,11,11,22,6,1
705,State-B,U,0,0,State-B,11,11,22,6,1
706,State-B,R,0,0,State-B,11,11,22,6,1
707,State-B,L,1,1,State-A,11,11,22,6,1
708,State-A,U,0,0,State-A,11,11,22,6,1
709,State-A,R,1,1,State-B,11,11,22,6,1
710,State-B,R,0,0,State-B,11,11,22,6,1
711,State-B,R,0,0,State-B,11,11,22,6,1
712,State-B,R,0,0,State-B,11,11,22,6,1
713,State-B,U,0,0,State-B,11,11,22,6,1
714,State-B,U,0,0,State-B,11,11,22,6,1
715,State-B,U,0,0,State-B,11,11,22,6,1
716,State-B,U,0,0,State-B,11,11,22,6,1
717,State-B,R,0,0,State-B,11,11,22,6,1
718,State-B,R,0,0,State-B,11,11,22,6,1
719,State-B,U,0,0,State-B,11,11,22,6,1
720,State-B,L,1,1,State-A,11,11,22,6,1
721,State-A,L,0,0,State-A,11,11,22,6,1
722,State-A,L,0,0,State-A,11,11,22,6,1
723,State-A,L,0,0,State-A,11,11,22,6,1
724,State-A,L,0,0,State-A,11,11,22,6,1
725,State-A,R,1,1,State-B,11,11,22,6,1
726,State-B,L,1,1,State-A,11,11,22,6,1
727,State-A,U,0,0,State-A,11,11,22,6,1
728,State-A,U,0,0,State-A,11,11,22,6,1
729,State-A,U,0,0,State-A,11,11,22,6,1
730,State-A,R,1,1,State-B,11,11,22,6,1
731,State-B,U,0,0,State-B,11,11,22,6,1
732,State-B,R,0,0,State-B,11,11,22,6,1
733,State-B,R,0,0,State-B,11,11,22,6,1
734,State-B,L,1,1,State-A,11,11,22,6,1
735,State-A,U,0,0,State-A,11,11,22,6,1
736,State-A,U,0,0,State-A,11,11,22,6,1
737,State-A,L,0,0,State-A,11,11,22,6,1
738,State-A,R,1,1,State-B,11,11,22,6,1
739,State-B,L,1,1,State-A,11,11,22,6,1
740,State-A,L,0,0,State-A,11,11,22,6,1
741,State-A,L,0,0,State-A,11,11,22,6,1
742,State-A,R,1,1,State-B,11,11,22,6,1
743,State-B,L,1,1,State-A,11,11,22,6,1
744,State-A,R,1,1,State-B,11,11,22,6,1
745,State-B,L,1,1,State-A,11,11,22,6,1
746,State-A,L,0,0,State-A,11,11,22,6,1
747,State-A,U,0,0,State-A,11,11,22,6,1
748,State-A,U,0,0,State-A,11,11,22,6,1
749,State-A,L,0,0,State-A,11,11,22,6,1
750,State-A,U,0,0,State-A,11,11,22,6,1
751,State-A,L,0,0,State-A,11,11,22,6,1
752,State-A,R,1,1,State-B,11,11,22,6,1
753,State-B,U,0,0,State-B,11,11,22,6,1
754,State-B,L,1,1,State-A,11,11,22,6,1
755,State-A,U,0,0,State-A,11,11,22,6,1
756,State-A,L,0,0,State-A,11,11,22,6,1
757,State-A,R,1,1,State-B,11,11,22,6,1
758,State-B,U,0,0,State-B,11,11,22,6,1
759,State-B,L,1,1,State-A,11,11,22,6,1
760,State-A,U,0,0,State-A,11,11,22,6,1
761,State-A,U,0,0,State-A,11,11,22,6,1
762,State-A,R,1,1,State-B,11,11,22,6,1
763,State-B,L,1,1,State-A,11,11,22,6,1
764,State-A,L,0,0,State-A,11,11,22,6,1
765,State-A,L,0,0,State-A,11,11,22,6,1
766,State-A,U,0,0,State-A,11,11,22,6,1
767,State-A,R,1,1,State-B,11,11,22,6,1
768,State-B,U,0,0,State-B,11,11,22,6,1
769,State-B,R,0,0,State-B,11,11,22,6,1
770,State-B,L,1,1,State-A,11,11,22,6,1
771,State-A,R,1,1,State-B,11,11,22,6,1
772,State-B,U,0,0,State-B,11,11,22,6,1
773,State-B,U,0,0,State-B,11,11,22,6,1
774,State-B,L,1,1,State-A,11,11,22,6,1
775,State-A,L,0,0,State-A,11,11,22,6,1
776,State-A,R,1,1,State-B,11,11,22,6,1
777,State-B,L,1,1,State-A,11,11,22,6,1
778,State-A,U,0,0,State-A,11,11,22,6,1
779,State-A,U,0,0,State-A,11,11,22,6,1
780,State-A,L,0,0,State-A,11,11,22,6,1
781,State-A,R,1,1,State-B,11,11,22,6,1
782,State-B,R,0,0,State-B,11,11,22,6,1
783,State-B,L,1,1,State-A,11,11,22,6,1
784,State-A,R,1,1,State-B,11,11,22,6,1
785,State-B,L,1,1,State-A,11,11,22,6,1
786,State-A,L,0,0,State-A,11,11,22,6,1
787,State-A,R,1,1,State-B,11,11,22,6,1
788,State-B,R,0,0,State-B,11,11,22,6,1
789,State-B,R,0,0,State-B,11,11,22,6,1
790,State-B,L,1,1,State-A,11,11,22,6,1
791,State-A,L,0,0,State-A,11,11,22,6,1
792,State-A,L,0,0,State-A,11,11,22,6,1
793,State-A,U,0,0,State-A,11,11,22,6,1
794,State-A,L,0,0,State-A,11,11,22,6,1
795,State-A,U,0,0,State-A,11,11,22,6,1
796,State-A,L,0,0,State-A,11,11,22,6,1
797,State-A,L,0,0,State-A,11,11,22,6,1
798,State-A,U,0,0,State-A,11,11,22,6,1
799,State-A,R,1,1,State-B,11,11,22,6,1
800,State-B,U,0,0,State-B,11,11,22,6,1
801,State-B,R,0,0,State-B,11,11,22,6,1
802,State-B,U,0,0,State-B,11,11,22,6,1
803,State-B,L,1,1,State-A,11,11,22,6,1
804,State-A,R,1,1,State-B,11,11,22,6,1
805,State-B,L,1,1,State-A,11,11,22,6,1
806,State-A,U,0,0,State-A,11,11,22,6,1
807,State-A,R,1,1,State-B,11,11,22,6,1
808,State-B,U,0,0,State-B,11,11,22,6,1
809,State-B,U,0,0,State-B,11,11,22,6,1
810,State-B,R,0,0,State-B,11,11,22,6,1
811,State-B,L,1,1,State-A,11,11,22,6,1
812,State-A,U,0,0,State-A,11,11,22,6,1
813,State-A,L,0,0,State-A,11,11,22,6,1
814,State-A,R,1,1,State-B,11,11,22,6,1
815,State-B,U,0,0,State-B,11,11,22,6,1
816,State-B,L,1,1,State-A,11,11,22,6,1
817,State-A,R,1,1,State-B,11,11,22,6,1
818,State-B,L,1,1,State-A,11,11,22,6,1
819,State-A,L,0,0,State-A,11,11,22,6,1
820,State-A,U,0,0,State-A,11,11,22,6,1
821,State-A,R,1,1,State-B,11,11,22,6,1
822,State-B,L,1,1,State-A,11,11,22,6,1
823,State-A,R,1,1,State-B,11,11,22,6,1
824,State-B,L,1,1,State-A,11,11,22,6,1
825,State-A,L,0,0,State-A,11,11,22,6,1
826,State-A,R,1,1,State-B,11,11,22,6,1
827,State-B,U,0,0,State-B,11,11,22,6,1
828,State-B,R,0,0,State-B,11,11,22,6,1
829,State-B,L,1,1,State-A,11,11,22,6,1
830,State-A,U,0,0,State-A,11,11,22,6,1
831,State-A,U,0,0,State-A,11,11,22,6,1
832,State-A,U,0,0,State-A,11,11,22,6,1
833,State-A,R,1,1,State-B,11,11,22,6,1
834,State-B,U,0,0,State-B,11,11,22,6,1
835,State-B,L,1,1,State-A,11,11,22,6,1
836,State-A,U,0,0,State-A,11,11,22,6,1
837,State-A,U,0,0,State-A,11,11,22,6,1
838,State-A,U,0,0,State-A,11,11,22,6,1
839,State-A,R,1,1,State-B,11,11,22,6,1
840,State-B,R,0,0,State-B,11,11,22,6,1
841,State-B,R,0,0,State-B,11,11,22,6,1
842,State-B,U,0,0,State-B,11,11,22,6,1
843,State-B,L,1,1,State-A,11,11,22,6,1
844,State-A,U,0,0,State-A,11,11,22,6,1
845,State-A,R,1,1,State-B,11,11,22,6,1
846,State-B,R,0,0,State-B,11,11,22,6,1
847,State-B,R,0,0,State-B,11,11,22,6,1
848,State-B,L,1,1,State-A,11,11,22,6,1
849,State-A,L,0,0,State-A,11,11,22,6,1
850,State-A,R,1,1,State-B,11,11,22,6,1
851,State-B,R,0,0,State-B,11,11,22,6,1
852,State-B,R,0,0,State-B,11,11,22,6,1
853,State-B,U,0,0,State-B,11,11,22,6,1
854,State-B,R,0,0,State-B,11,11,22,6,1
855,State-B,L,1,1,State-A,11,11,22,6,1
856,State-A,U,0,0,State-A,11,11,22,6,1
857,State-A,L,0,0,State-A,11,11,22,6,1
858,State-A,R,1,1,State-B,11,11,22,6,1
859,State-B,U,0,0,State-B,11,11,22,6,1
860,State-B,U,0,0,State-B,11,11,22,6,1
861,State-B,U,0,0,State-B,11,11,22,6,1
862,State-B,R,0,0,State-B,11,11,22,6,1
863,State-B,L,1,1,State-A,11,11,22,6,1
864,State-A,L,0,0,State-A,11,11,22,6,1
865,State-A,U,0,0,State-A,11,11,22,6,1
866,State-A,U,0,0,State-A,11,11,22,6,1
867,State-A,R,1,1,State-B,11,11,22,6,1
868,State-B,R,0,0,State-B,11,11,22,6,1
869,State-B,U,0,0,State-B,11,11,22,6,1
870,State-B,R,0,0,State-B,11,11,22,6,1
871,State-B,L,1,1,State-A,11,11,22,6,1
872,State-A,U,0,0,State-A,11,11,22,6,1
873,State-A,L,0,0,State-A,11,11,22,6,1
874,State-A,R,1,1,State-B,11,11,22,6,1
875,State-B,R,0,0,State-B,11,11,22,6,1
876,State-B,U,0,0,State-B,11,11,22,6,1
877,State-B,L,1,1,State-A,11,11,22,6,1
878,State-A,L,0,0,State-A,11,11,22,6,1
879,State-A,R,1,1,State-B,11,11,22,6,1
880,State-B,L,1,1,State-A,11,11,22,6,1
881,State-A,L,0,0,State-A,11,11,22,6,1
882,State-A,L,0,0,State-A,11,11,22,6,1
883,State-A,R,1,1,State-B,11,11,22,6,1
884,State-B,L,1,1,State-A,11,11,22,6,1
885,State-A,L,0,0,State-A,11,11,22,6,1
886,State-A,U,0,0,State-A,11,11,22,6,1
887,State-A,R,1,1,State-B,11,11,22,6,1
888,State-B,U,0,0,State-B,11,11,22,6,1
889,State-B,L,1,1,State-A,11,11,22,6,1
890,State-A,R,1,1,State-B,11,11,22,6,1
891,State-B,R,0,0,State-B,11,11,22,6,1
892,State-B,L,1,1,State-A,11,11,22,6,1
893,State-A,L,0,0,State-A,11,11,22,6,1
894,State-A,U,0,0,State-A,11,11,22,6,1
895,State-A,U,0,0,State-A,11,11,22,6,1
896,State-A,R,1,1,State-B,11,11,22,6,1
897,State-B,R,0,0,State-B,11,11,22,6,1
898,State-B,L,1,1,State-A,11,11,22,6,1
899,State-A,R,1,1,State-B,11,11,22,6,1
900,State-B,U,0,0,State-B,11,11,22,6,1
901,State-B,U,0,0,State-B,11,11,22,6,1
902,State-B,R,0,0,State-B,11,11,22,6,1
903,State-B,L,1,1,State-A,11,11,22,6,1
904,State-A,U,0,0,State-A,11,11,22,6,1
905,State-A,R,1,1,State-B,11,11,22,6,1
906,State-B,R,0,0,State-B,11,11,22,6,1
907,State-B,L,1,1,State-A,11,11,22,6,1
908,State-A,L,0,0,State-A,11,11,22,6,1
909,State-A,U,0,0,State-A,11,11,22,6,1
910,State-A,R,1,1,State-B,11,11,22,6,1
911,State-B,U,0,0,State-B,11,11,22,6,1
912,State-B,L,1,1,State-A,11,11,22,6,1
913,State-A,L,0,0,State-A,11,11,22,6,1
914,State-A,U,0,0,State-A,11,11,22,6,1
915,State-A,U,0,0,State-A,11,11,22,6,1
916,State-A,L,0,0,State-A,11,11,22,6,1
917,State-A,L,0,0,State-A,11,11,22,6,1
918,State-A,U,0,0,State-A,11,11,22,6,1
919,State-A,L,0,0,State-A,11,11,22,6,1
920,State-A,U,0,0,State-A,11,11,22,6,1
921,State-A,U,0,0,State-A,11,11,22,6,1
922,State-A,L,0,0,State-A,11,11,22,6,1
923,State-A,L,0,0,State-A,11,11,22,6,1
924,State-A,U,0,0,State-A,11,11,22,6,1
925,State-A,R,1,1,State-B,11,11,22,6,1
926,State-B,R,0,0,State-B,11,11,22,6,1
927,State-B,R,0,0,State-B,11,11,22,6,1
928,State-B,L,1,1,State-A,11,11,22,6,1
929,State-A,R,1,1,State-B,11,11,22,6,1
930,State-B,L,1,1,State-A,11,11,22,6,1
931,State-A,U,0,0,State-A,11,11,22,6,1
932,State-A,U,0,0,State-A,11,11,22,6,1
933,State-A,L,0,0,State-A,11,11,22,6,1
934,State-A,U,0,0,State-A,11,11,22,6,1
935,State-A,L,0,0,State-A,11,11,22,6,1
936,State-A,L,0,0,State-A,11,11,22,6,1
937,State-A,L,0,0,State-A,11,11,22,6,1
938,State-A,L,0,0,State-A,11,11,22,6,1
939,State-A,L,0,0,State-A,11,11,22,6,1
940,State-A,R,1,1,State-B,11,11,22,6,1
941,State-B,U,0,0,State-B,11,11,22,6,1
942,State-B,R,0,0,State-B,11,11,22,6,1
943,State-B,L,1,1,State-A,11,11,22,6,1
944,State-A,R,1,1,State-B,11,11,22,6,1
945,State-B,R,0,0,State-B,11,11,22,6,1
946,State-B,L,1,1,State-A,11,11,22,6,1
947,State-A,U,0,0,State-A,11,11,22,6,1
948,State-A,R,1,1,State-B,11,11,22,6,1
949,State-B,U,0,0,State-B,11,11,22,6,1
950,State-B,U,0,0,State-B,11,11,22,6,1
951,State-B,R,0,0,State-B,11,11,22,6,1
952,State-B,L,1,1,State-A,11,11,22,6,1
953,State-A,U,0,0,State-A,11,11,22,6,1
954,State-A,R,1,1,State-B,11,11,22,6,1
955,State-B,U,0,0,State-B,11,11,22,6,1
956,State-B,R,0,0,State-B,11,11,22,6,1
957,State-B,R,0,0,State-B,11,11,22,6,1
958,State-B,L,1,1,State-A,11,11,22,6,1
959,State-A,U,0,0,State-A,11,11,22,6,1
960,State-A,L,0,0,State-A,11,11,22,6,1
961,State-A,U,0,0,State-A,11,11,22,6,1
962,State-A,R,1,1,State-B,11,11,22,6,1
963,State-B,U,0,0,State-B,11,11,22,6,1
964,State-B,L,1,1,State-A,11,11,22,6,1
965,State-A,U,0,0,State-A,11,11,22,6,1
966,State-A,L,0,0,State-A,11,11,22,6,1
967,State-A,R,1,1,State-B,11,11,22,6,1
968,State-B,R,0,0,State-B,11,11,22,6,1
969,State-B,U,0,0,State-B,11,11,22,6,1
970,State-B,U,0,0,State-B,11,11,22,6,1
971,State-B,L,1,1,State-A,11,11,22,6,1
972,State-A,R,1,1,State-B,11,11,22,6,1
973,State-B,L,1,1,State-A,11,11,22,6,1
974,State-A,U,0,0,State-A,11,11,22,6,1
975,State-A,U,0,0,State-A,11,11,22,6,1
976,State-A,R,1,1,State-B,11,11,22,6,1
977,State-B,U,0,0,State-B,11,11,22,6,1
978,State-B,U,0,0,State-B,11,11,22,6,1
979,State-B,R,0,0,State-B,11,11,22,6,1
980,State-B,U,0,0,State-B,11,11,22,6,1
981,State-B,U,0,0,State-B,11,11,22,6,1
982,State-B,L,1,1,State-A,11,11,22,6,1
983,State-A,U,0,0,State-A,11,11,22,6,1
984,State-A,L,0,0,State-A,11,11,22,6,1
985,State-A,U,0,0,State-A,11,11,22,6,1
986,State-A,R,1,1,State-B,11,11,22,6,1
987,State-B,U,0,0,State-B,11,11,22,6,1
988,State-B,R,0,0,State-B,11,11,22,6,1
989,State-B,R,0,0,State-B,11,11,22,6,1
990,State-B,L,1,1,State-A,11,11,22,6,1
991,State-A,U,0,0,State-A,11,11,22,6,1
992,State-A,R,1,1,State-B,11,11,22,6,1
993,State-B,U,0,0,State-B,11,11,22,6,1
994,State-B,L,1,1,State-A,11,11,22,6,1
995,State-A,L,0,0,State-A,11,11,22,6,1
996,State-A,L,0,0,State-A,11,11,22,6,1
997,State-A,L,0,0,State-A,11,11,22,6,1
998,State-A,U,0,0,State-A,11,11,22,6,1
999,State-A,U,0,0,State-A,11,11,22,6,1
1000,State-A,R,1,1,State-B,11,11,22,6,1
1001,State-B,U,0,0,State-B,11,11,22,6,1
1002,State-B,U,0,0,State-B,11,11,22,6,1
1003,State-B,U,0,0,State-B,11,11,22,6,1
1004,State-B,U,0,0,State-B,11,11,22,6,1
1005,State-B,L,1,1,State-A,11,11,22,6,1
1006,State-A,R,1,1,State-B,11,11,22,6,1
1007,State-B,R,0,0,State-B,11,11,22,6,1
1008,State-B,U,0,0,State-B,11,11,22,6,1
1009,State-B,L,1,1,State-A,11,11,22,6,1
1010,State-A,L,0,0,State-A,11,11,22,6,1
1011,State-A,R,1,1,State-B,11,11,22,6,1
1012,State-B,L,1,1,State-A,11,11,22,6,1
1013,State-A,L,0,0,State-A,11,11,22,6,1
1014,State-A,R,1,1,State-B,11,11,22,6,1
1015,State-B,U,0,0,State-B,11,11,22,6,1
1016,State-B,R,0,0,State-B,11,11,22,6,1
1017,State-B,U,0,0,State-B,11,11,22,6,1
1018,State-B,L,1,1,State-A,11,11,22,6,1
1019,State-A,L,0,0,State-A,11,11,22,6,1
1020,State-A,R,1,1,State-B,11,11,22,6,1
1021,State-B,U,0,0,State-B,11,11,22,6,1
1022,State-B,U,0,0,State-B,11,11,22,6,1
1023,State-B,U,0,0,State-B,11,11,22,6,1
1024,State-B,R,0,0,State-B,11,11,22,6,1
1025,State-B,R,0,0,State-B,11,11,22,6,1
1026,State-B,U,0,0,State-B,11,11,22,6,1
1027,State-B,L,1,1,State-A,11,11,22,6,1
1028,State-A,U,0,0,State-A,11,11,22,6,1
1029,State-A,U,0,0,State-A,11,11,22,6,1
1030,State-A,U,0,0,State-A,11,11,22,6,1
1031,State-A,U,0,0,State-A,11,11,22,6,1
1032,State-A,L,0,0,State-A,11,11,22,6,1
1033,State-A,R,1,1,State-B,11,11,22,6,1
1034,State-B,U,0,0,State-B,11,11,22,6,1
1035,State-B,R,0,0,State-B,11,11,22,6,1
1036,State-B,R,0,0,State-B,11,11,22,6,1
1037,State-B,U,0,0,State-B,11,11,22,6,1
1038,State-B,R,0,0,State-B,11,11,22,6,1
1039,State-B,R,0,0,State-B,11,11,22,6,1
1040,State-B,R,0,0,State-B,11,11,22,6,1
1041,State-B,U,0,0,State-B,11,11,22,6,1
1042,State-B,L,1,1,State-A,11,11,22,6,1
1043,State-A,L,0,0,State-A,11,11,22,6,1
1044,State-A,R,1,1,State-B,11,11,22,6,1
1045,State-B,U,0,0,State-B,11,11,22,6,1
1046,State-B,U,0,0,State-B,11,11,22,6,1
1047,State-B,R,0,0,State-B,11,11,22,6,1
1048,State-B,R,0,0,State-B,11,11,22,6,1
1049,State-B,R,0,0,State-B,11,11,22,6,1
1050,State-B,U,0,0,State-B,11,11,22,6,1
1051,State-B,L,1,1,State-A,11,11,22,6,1
1052,State-A,U,0,0,State-A,11,11,22,6,1
1053,State-A,L,0,0,State-A,11,11,22,6,1
1054,State-A,U,0,0,State-A,11,11,22,6,1
1055,State-A,U,0,0,State-A,11,11,22,6,1
1056,State-A,L,0,0,State-A,11,11,22,6,1
1057,State-A,R,1,1,State-B,11,11,22,6,1
1058,State-B,U,0,0,State-B,11,11,22,6,1
1059,State-B,R,0,0,State-B,11,11,22,6,1
1060,State-B,R,0,0,State-B,11,11,22,6,1
1061,State-B,U,0,0,State-B,11,11,22,6,1
1062,State-B,U,0,0,State-B,11,11,22,6,1
1063,State-B,U,0,0,State-B,11,11,22,6,1
1064,State-B,L,1,1,State-A,11,11,22,6,1
1065,State-A,U,0,0,State-A,11,11,22,6,1
1066,State-A,U,0,0,State-A,11,11,22,6,1
1067,State-A,R,1,1,State-B,11,11,22,6,1
1068,State-B,U,0,0,State-B,11,11,22,6,1
1069,State-B,L,1,1,State-A,11,11,22,6,1
1070,State-A,U,0,0,State-A,11,11,22,6,1
1071,State-A,U,0,0,State-A,11,11,22,6,1
1072,State-A,R,1,1,State-B,11,11,22,6,1
1073,State-B,L,1,1,State-A,11,11,22,6,1
1074,State-A,L,0,0,State-A,11,11,22,6,1
1075,State-A,L,0,0,State-A,11,11,22,6,1
1076,State-A,L,0,0,State-A,11,11,22,6,1
1077,State-A,U,0,0,State-A,11,11,22,6,1
1078,State-A,R,1,1,State-B,11,11,22,6,1
1079,State-B,U,0,0,State-B,11,11,22,6,1
1080,State-B,R,0,0,State-B,11,11,22,6,1
1081,State-B,R,0,0,State-B,11,11,22,6,1
1082,State-B,U,0,0,State-B,11,11,22,6,1
1083,State-B,L,1,1,State-A,11,11,22,6,1
1084,State-A,R,1,1,State-B,11,11,22,6,1
1085,State-B,U,0,0,State-B,11,11,22,6,1
1086,State-B,L,1,1,State-A,11,11,22,6,1
1087,State-A,U,0,0,State-A,11,11,22,6,1
1088,State-A,L,0,0,State-A,11,11,22,6,1
1089,State-A,L,0,0,State-A,11,11,22,6,1
1090,State-A,R,1,1,State-B,11,11,22,6,1
1091,State-B,R,0,0,State-B,11,11,22,6,1
1092,State-B,L,1,1,State-A,11,11,22,6,1
1093,State-A,R,1,1,State-B,11,11,22,6,1
1094,State-B,R,0,0,State-B,11,11,22,6,1
1095,State-B,L,1,1,State-A,11,11,22,6,1
1096,State-A,L,0,0,State-A,11,11,22,6,1
1097,State-A,L,0,0,State-A,11,11,22,6,1
1098,State-A,R,1,1,State-B,11,11,22,6,1
1099,State-B,L,1,1,State-A,11,11,22,6,1
1100,State-A,U,0,0,State-A,11,11,22,6,1
1101,State-A,U,0,0,State-A,11,11,22,6,1
1102,State-A,U,0,0,State-A,11,11,22,6,1
1103,State-A,L,0,0,State-A,11,11,22,6,1
1104,State-A,U,0,0,State-A,11,11,22,6,1
1105,State-A,U,0,0,State-A,11,11,22,6,1
1106,State-A,U,0,0,State-A,11,11,22,6,1
1107,State-A,L,0,0,State-A,11,11,22,6,1
1108,State-A,U,0,0,State-A,11,11,22,6,1
1109,State-A,R,1,1,State-B,11,11,22,6,1
1110,State-B,R,0,0,State-B,11,11,22,6,1
1111,State-B,L,1,1,State-A,11,11,22,6,1
1112,State-A,L,0,0,State-A,11,11,22,6,1
1113,State-A,L,0,0,State-A,11,11,22,6,1
1114,State-A,L,0,0,State-A,11,11,22,6,1
1115,State-A,R,1,1,State-B,11,11,22,6,1
1116,State-B,R,0,0,State-B,11,11,22,6,1
1117,State-B,U,0,0,State-B,11,11,22,6,1
1118,State-B,L,1,1,State-A,11,11,22,6,1
1119,State-A,U,0,0,State-A,11,11,22,6,1
1120,State-A,L,0,0,State-A,11,11,22,6,1
1121,State-A,R,1,1,State-B,11,11,22,6,1
1122,State-B,U,0,0,State-B,11,11,22,6,1
1123,State-B,R,0,0,State-B,11,11,22,6,1
1124,State-B,U,0,0,State-B,11,11,22,6,1
1125,State-B,R,0,0,State-B,11,11,22,6,1
1126,State-B,R,0,0,State-B,11,11,22,6,1
1127,State-B,L,1,1,State-A,11,11,22,6,1
1128,State-A,R,1,1,State-B,11,11,22,6,1
1129,State-B,U,0,0,State-B,11,11,22,6,1
1130,State-B,L,1,1,State-A,11,11,22,6,1
1131,State-A,L,0,0,State-A,11,11,22,6,1
1132,State-A,U,0,0,State-A,11,11,22,6,1
1133,State-A,L,0,0,State-A,11,11,22,6,1
1134,State-A,L,0,0,State-A,11,11,22,6,1
1135,State-A,U,0,0,State-A,11,11,22,6,1
1136,State-A,U,0,0,State-A,11,11,22,6,1
1137,State-A,L,0,0,State-A,11,11,22,6,1
1138,State-A,U,0,0,State-A,11,11,22,6,1
1139,State-A,R,1,1,State-B,11,11,22,6,1
1140,State-B,L,1,1,State-A,11,11,22,6,1
1141,State-A,R,1,1,State-B,11,11,22,6,1
1142,State-B,R,0,0,State-B,11,11,22,6,1
1143,State-B,L,1,1,State-A,11,11,22,6,1
1144,State-A,U,0,0,State-A,11,11,22,6,1
1145,State-A,U,0,0,State-A,11,11,22,6,1
1146,State-A,L,0,0,State-A,11,11,22,6,1
1147,State-A,R,1,1,State-B,11,11,22,6,1
1148,State-B,R,0,0,State-B,11,11,22,6,1
1149,State-B,L,1,1,State-A,11,11,22,6,1
1150,State-A,R,1,1,State-B,11,11,22,6,1
1151,State-B,L,1,1,State-A,11,11,22,6,1
1152,State-A,R,1,1,State-B,11,11,22,6,1
1153,State-B,R,0,0,State-B,11,11,22,6,1
1154,State-B,R,0,0,State-B,11,11,22,6,1
1155,State-B,R,0,0,State-B,11,11,22,6,1
1156,State-B,R,0,0,State-B,11,11,22,6,1
1157,State-B,U,0,0,State-B,11,11,22,6,1
1158,State-B,R,0,0,State-B,11,11,22,6,1
1159,State-B,U,0,0,State-B,11,11,22,6,1
1160,State-B,L,1,1,State-A,11,11,22,6,1
1161,State-A,R,1,1,State-B,11,11,22,6,1
1162,State-B,R,0,0,State-B,11,11,22,6,1
1163,State-B,R,0,0,State-B,11,11,22,6,1
1164,State-B,U,0,0,State-B,11,11,22,6,1
1165,State-B,R,0,0,State-B,11,11,22,6,1
1166,State-B,U,0,0,State-B,11,11,22,6,1
1167,State-B,U,0,0,State-B,11,11,22,6,1
1168,State-B,L,1,1,State-A,11,11,22,6,1
1169,State-A,L,0,0,State-A,11,11,22,6,1
1170,State-A,L,0,0,State-A,11,11,22,6,1
1171,State-A,U,0,0,State-A,11,11,22,6,1
1172,State-A,L,0,0,State-A,11,11,22,6,1
1173,State-A,U,0,0,State-A,11,11,22,6,1
1174,State-A,L,0,0,State-A,11,11,22,6,1
1175,State-A,R,1,1,State-B,11,11,22,6,1
1176,State-B,L,1,1,State-A,11,11,22,6,1
1177,State-A,L,0,0,State-A,11,11,22,6,1
1178,State-A,R,1,1,State-B,11,11,22,6,1
1179,State-B,L,1,1,State-A,11,11,22,6,1
1180,State-A,U,0,0,State-A,11,11,22,6,1
1181,State-A,U,0,0,State-A,11,11,22,6,1
1182,State-A,R,1,1,State-B,11,11,22,6,1
1183,State-B,U,0,0,State-B,11,11,22,6,1
1184,State-B,L,1,1,State-A,11,11,22,6,1
1185,State-A,L,0,0,State-A,11,11,22,6,1
1186,State-A,R,1,1,State-B,11,11,22,6,1
1187,State-B,U,0,0,State-B,11,11,22,6,1
1188,State-B,U,0,0,State-B,11,11,22,6,1
1189,State-B,U,0,0,State-B,11,11,22,6,1
1190,State-B,R,0,0,State-B,11,11,22,6,1
1191,State-B,U,0,0,State-B,11,11,22,6,1
1192,State-B,R,0,0,State-B,11,11,22,6,1
1193,State-B,L,1,1,State-A,11,11,22,6,1
1194,State-A,U,0,0,State-A,11,11,22,6,1
1195,State-A,L,0,0,State-A,11,11,22,6,1
1196,State-A,R,1,1,State-B,11,11,22,6,1
1197,State-B,R,0,0,State-B,11,11,22,6,1
1198,State-B,L,1,1,State-A,11,11,22,6,1
1199,State-A,R,1,1,State-B,11,11,22,6,1
1200,State-B,L,1,1,State-A,11,11,22,6,1
1201,State-A,R,1,1,State-B,11,11,22,6,1
1202,State-B,R,0,0,State-B,11,11,22,6,1
1203,State-B,L,1,1,State-A,11,11,22,6,1
1204,State-A,R,1,1,State-B,11,11,22,6,1
1205,State-B,R,0,0,State-B,11,11,22,6,1
1206,State-B,U,0,0,State-B,11,11,22,6,1
1207,State-B,R,0,0,State-B,11,11,22,6,1
1208,State-B,L,1,1,State-A,11,11,22,6,1
1209,State-A,L,0,0,State-A,11,11,22,6,1
1210,State-A,U,0,0,State-A,11,11,22,6,1
1211,State-A,U,0,0,State-A,11,11,22,6,1
1212,State-A,U,0,0,State-A,11,11,22,6,1
1213,State-A,L,0,0,State-A,11,11,22,6,1
1214,State-A,R,1,1,State-B,11,11,22,6,1
1215,State-B,L,1,1,State-A,11,11,22,6,1
1216,State-A,U,0,0,State-A,11,11,22,6,1
1217,State-A,R,1,1,State-B,11,11,22,6,1
1218,State-B,U,0,0,State-B,11,11,22,6,1
1219,State-B,R,0,0,State-B,11,11,22,6,1
1220,State-B,L,1,1,State-A,11,11,22,6,1
1221,State-A,U,0,0,State-A,11,11,22,6,1
1222,State-A,R,1,1,State-B,11,11,22,6,1
1223,State-B,L,1,1,State-A,11,11,22,6,1
1224,State-A,L,0,0,State-A,11,11,22,6,1
1225,State-A,R,1,1,State-B,11,11,22,6,1
1226,State-B,L,1,1,State-A,11,11,22,6,1
1227,State-A,R,1,1,State-B,11,11,22,6,1
1228,State-B,L,1,1,State-A,11,11,22,6,1
1229,State-A,L,0,0,State-A,11,11,22,6,1
1230,State-A,U,0,0,State-A,11,11,22,6,1
1231,State-A,R,1,1,State-B,11,11,22,6,1
1232,State-B,L,1,1,State-A,11,11,22,6,1
1233,State-A,U,0,0,State-A,11,11,22,6,1
1234,State-A,R,1,1,State-B,11,11,22,6,1
1235,State-B,U,0,0,State-B,11,11,22,6,1
1236,State-B,R,0,0,State-B,11,11,22,6,1
1237,State-B,U,0,0,State-B,11,11,22,6,1
1238,State-B,U,0,0,State-B,11,11,22,6,1
1239,State-B,L,1,1,State-A,11,11,22,6,1
1240,State-A,L,0,0,State-A,11,11,22,6,1
1241,State-A,L,0,0,State-A,11,11,22,6,1
1242,State-A,L,0,0,State-A,11,11,22,6,1
1243,State-A,L,0,0,State-A,11,11,22,6,1
1244,State-A,L,0,0,State-A,11,11,22,6,1
1245,State-A,U,0,0,State-A,11,11,22,6,1
1246,State-A,R,1,1,State-B,11,11,22,6,1
1247,State-B,U,0,0,State-B,11,11,22,6,1
1248,State-B,L,1,1,State-A,11,11,22,6,1
1249,State-A,R,1,1,State-B,11,11,22,6,1
1250,State-B,L,1,1,State-A,11,11,22,6,1
1251,State-A,U,0,0,State-A,11,11,22,6,1
1252,State-A,L,0,0,State-A,11,11,22,6,1
1253,State-A,R,1,1,State-B,11,11,22,6,1
1254,State-B,U,0,0,State-B,11,11,22,6,1
1255,State-B,U,0,0,State-B,11,11,22,6,1
1256,State-B,L,1,1,State-A,11,11,22,6,1
1257,State-A,U,0,0,State-A,11,11,22,6,1
1258,State-A,R,1,1,State-B,11,11,22,6,1
1259,State-B,L,1,1,State-A,11,11,22,6,1
1260,State-A,U,0,0,State-A,11,11,22,6,1
1261,State-A,L,0,0,State-A,11,11,22,6,1
1262,State-A,R,1,1,State-B,11,11,22,6,1
1263,State-B,U,0,0,State-B,11,11,22,6,1
1264,State-B,U,0,0,State-B,11,11,22,6,1
1265,State-B,R,0,0,State-B,11,11,22,6,1
1266,State-B,L,1,1,State-A,11,11,22,6,1
1267,State-A,R,1,1,State-B,11,11,22,6,1
1268,State-B,U,0,0,State-B,11,11,22,6,1
1269,State-B,L,1,1,State-A,11,11,22,6,1
1270,State-A,L,0,0,State-A,11,11,22,6,1
1271,State-A,L,0,0,State-A,11,11,22,6,1
1272,State-A,R,1,1,State-B,11,11,22,6,1
1273,State-B,R,0,0,State-B,11,11,22,6,1
1274,State-B,L,1,1,State-A,11,11,22,6,1
1275,State-A,R,1,1,State-B,11,11,22,6,1
1276,State-B,R,0,0,State-B,11,11,22,6,1
1277,State-B,U,0,0,State-B,11,11,22,6,1
1278,State-B,R,0,0,State-B,11,11,22,6,1
1279,State-B,R,0,0,State-B,11,11,22,6,1
1280,State-B,R,0,0,State-B,11,11,22,6,1
1281,State-B,L,1,1,State-A,11,11,22,6,1
1282,State-A,R,1,1,State-B,11,11,22,6,1
1283,State-B,R,0,0,State-B,11,11,22,6,1
1284,State-B,R,0,0,State-B,11,11,22,6,1
1285,State-B,R,0,0,State-B,11,11,22,6,1
1286,State-B,U,0,0,State-B,11,11,22,6,1
1287,State-B,U,0,0,State-B,11,11,22,6,1
1288,State-B,U,0,0,State-B,11,11,22,6,1
1289,State-B,R,0,0,State-B,11,11,22,6,1
1290,State-B,L,1,1,State-A,11,11,22,6,1
1291,State-A,R,1,1,State-B,11,11,22,6,1
1292,State-B,R,0,0,State-B,11,11,22,6,1
1293,State-B,L,1,1,State-A,11,11,22,6,1
1294,State-A,L,0,0,State-A,11,11,22,6,1
1295,State-A,L,0,0,State-A,11,11,22,6,1
1296,State-A,U,0,0,State-A,11,11,22,6,1
1297,State-A,U,0,0,State-A,11,11,22,6,1
1298,State-A,L,0,0,State-A,11,11,22,6,1
1299,State-A,U,0,0,State-A,11,11,22,6,1
1300,State-A,L,0,0,State-A,11,11,22,6,1
1301,State-A,U,0,0,State-A,11,11,22,6,1
1302,State-A,L,0,0,State-A,11,11,22,6,1
1303,State-A,R,1,1,State-B,11,11,22,6,1
1304,State-B,U,0,0,State-B,11,11,22,6,1
1305,State-B,R,0,0,State-B,11,11,22,6,1
1306,State-B,U,0,0,State-B,11,11,22,6,1
1307,State-B,U,0,0,State-B,11,11,22,6,1
1308,State-B,R,0,0,State-B,11,11,22,6,1
1309,State-B,L,1,1,State-A,11,11,22,6,1
1310,State-A,R,1,1,State-B,11,11,22,6,1
1311,State-B,R,0,0,State-B,11,11,22,6,1
1312,State-B,R,0,0,State-B,11,11,22,6,1
1313,State-B,U,0,0,State-B,11,11,22,6,1
1314,State-B,L,1,1,State-A,11,11,22,6,1
1315,State-A,R,1,1,State-B,11,11,22,6,1
1316,State-B,U,0,0,State-B,11,11,22,6,1
1317,State-B,R,0,0,State-B,11,11,22,6,1
1318,State-B,R,0,0,State-B,11,11,22,6,1
1319,State-B,U,0,0,State-B,11,11,22,6,1
1320,State-B,R,0,0,State-B,11,11,22,6,1
1321,State-B,U,0,0,State-B,11,11,22,6,1
1322,State-B,L,1,1,State-A,11,11,22,6,1
1323,State-A,U,0,0,State-A,11,11,22,6,1
1324,State-A,L,0,0,State-A,11,11,22,6,1
1325,State-A,R,1,1,State-B,11,11,22,6,1
1326,State-B,L,1,1,State-A,11,11,22,6,1
1327,State-A,R,1,1,State-B,11,11,22,6,1
1328,State-B,L,1,1,State-A,11,11,22,6,1
1329,State-A,R,1,1,State-B,11,11,22,6,1
1330,State-B,U,0,0,State-B,11,11,22,6,1
1331,State-B,L,1,1,State-A,11,11,22,6,1
1332,State-A,U,0,0,State-A,11,11,22,6,1
1333,State-A,R,1,1,State-B,11,11,22,6,1
1334,State-B,L,1,1,State-A,11,11,22,6,1
1335,State-A,R,1,1,State-B,11,11,22,6,1
1336,State-B,L,1,1,State-A,11,11,22,6,1
1337,State-A,R,1,1,State-B,11,11,22,6,1
1338,State-B,R,0,0,State-B,11,11,22,6,1
1339,State-B,L,1,1,State-A,11,11,22,6,1
1340,State-A,U,0,0,State-A,11,11,22,6,1
1341,State-A,U,0,0,State-A,11,11,22,6,1
1342,State-A,U,0,0,State-A,11,11,22,6,1
1343,State-A,R,1,1,State-B,11,11,22,6,1
1344,State-B,R,0,0,State-B,11,11,22,6,1
1345,State-B,L,1,1,State-A,11,11,22,6,1
1346,State-A,L,0,0,State-A,11,11,22,6,1
1347,State-A,L,0,0,State-A,11,11,22,6,1
1348,State-A,R,1,1,State-B,11,11,22,6,1
1349,State-B,U,0,0,State-B,11,11,22,6,1
1350,State-B,R,0,0,State-B,11,11,22,6,1
1351,State-B,U,0,0,State-B,11,11,22,6,1
1352,State-B,U,0,0,State-B,11,11,22,6,1
1353,State-B,U,0,0,State-B,11,11,22,6,1
1354,State-B,R,0,0,State-B,11,11,22,6,1
1355,State-B,L,1,1,State-A,11,11,22,6,1
1356,State-A,U,0,0,State-A,11,11,22,6,1
1357,State-A,U,0,0,State-A,11,11,22,6,1
1358,State-A,R,1,1,State-B,11,11,22,6,1
1359,State-B,U,0,0,State-B,11,11,22,6,1
1360,State-B,U,0,0,State-B,11,11,22,6,1
1361,State-B,R,0,0,State-B,11,11,22,6,1
1362,State-B,R,0,0,State-B,11,11,22,6,1
1363,State-B,L,1,1,State-A,11,11,22,6,1
1364,State-A,U,0,0,State-A,11,11,22,6,1
1365,State-A,U,0,0,State-A,11,11,22,6,1
1366,State-A,U,0,0,State-A,11,11,22,6,1
1367,State-A,U,0,0,State-A,11,11,22,6,1
1368,State-A,L,0,0,State-A,11,11,22,6,1
1369,State-A,U,0,0,State-A,11,11,22,6,1
1370,State-A,U,0,0,State-A,11,11,22,6,1
1371,State-A,R,1,1,State-B,11,11,22,6,1
1372,State-B,U,0,0,State-B,11,11,22,6,1
1373,State-B,R,0,0,State-B,11,11,22,6,1
1374,State-B,U,0,0,State-B,11,11,22,6,1
1375,State-B,U,0,0,State-B,11,11,22,6,1
1376,State-B,U,0,0,State-B,11,11,22,6,1
1377,State-B,U,0,0,State-B,11,11,22,6,1
1378,State-B,L,1,1,State-A,11,11,22,6,1
1379,State-A,L,0,0,State-A,11,11,22,6,1
1380,State-A,R,1,1,State-B,11,11,22,6,1
1381,State-B,U,0,0,State-B,11,11,22,6,1
1382,State-B,U,0,0,State-B,11,11,22,6,1
1383,State-B,R,0,0,State-B,11,11,22,6,1
1384,State-B,U,0,0,State-B,11,11,22,6,1
1385,State-B,R,0,0,State-B,11,11,22,6,1
1386,State-B,L,1,1,State-A,11,11,22,6,1
1387,State-A,R,1,1,State-B,11,11,22,6,1
1388,State-B,U,0,0,State-B,11,11,22,6,1
1389,State-B,L,1,1,State-A,11,11,22,6,1
1390,State-A,U,0,0,State-A,11,11,22,6,1
1391,State-A,R,1,1,State-B,11,11,22,6,1
1392,State-B,R,0,0,State-B,11,11,22,6,1
1393,State-B,U,0,0,State-B,11,11,22,6,1
1394,State-B,L,1,1,State-A,11,11,22,6,1
1395,State-A,U,0,0,State-A,11,11,22,6,1
1396,State-A,U,0,0,State-A,11,11,22,6,1
1397,State-A,R,1,1,State-B,11,11,22,6,1
1398,State-B,L,1,1,State-A,11,11,22,6,1
1399,State-A,R,1,1,State-B,11,11,22,6,1
1400,State-B,R,0,0,State-B,11,11,22,6,1
1401,State-B,L,1,1,State-A,11,11,22,6,1
1402,State-A,R,1,1,State-B,11,11,22,6,1
1403,State-B,U,0,0,State-B,11,11,22,6,1
1404,State-B,U,0,0,State-B,11,11,22,6,1
1405,State-B,R,0,0,State-B,11,11,22,6,1
1406,State-B,U,0,0,State-B,11,11,22,6,1
1407,State-B,L,1,1,State-A,11,11,22,6,1
1408,State-A,U,0,0,State-A,11,11,22,6,1
1409,State-A,U,0,0,State-A,11,11,22,6,1
1410,State-A,L,0,0,State-A,11,11,22,6,1
1411,State-A,U,0,0,State-A,11,11,22,6,1
1412,State-A,U,0,0,State-A,11,11,22,6,1
1413,State-A,U,0,0,State-A,11,11,22,6,1
1414,State-A,R,1,1,State-B,11,11,22,6,1
1415,State-B,R,0,0,State-B,11,11,22,6,1
1416,State-B,L,1,1,State-A,11,11,22,6,1
1417,State-A,U,0,0,State-A,11,11,22,6,1
1418,State-A,R,1,1,State-B,11,11,22,6,1
1419,State-B,L,1,1,State-A,11,11,22,6,1
1420,State-A,L,0,0,State-A,11,11,22,6,1
1421,State-A,R,1,1,State-B,11,11,22,6,1
1422,State-B,U,0,0,State-B,11,11,22,6,1
1423,State-B,R,0,0,State-B,11,11,22,6,1
1424,State-B,U,0,0,State-B,11,11,22,6,1
1425,State-B,U,0,0,State-B,11,11,22,6,1
1426,State-B,L,1,1,State-A,11,11,22,6,1
1427,State-A,R,1,1,State-B,11,11,22,6,1
1428,State-B,R,0,0,State-B,11,11,22,6,1
1429,State-B,R,0,0,State-B,11,11,22,6,1
1430,State-B,R,0,0,State-B,11,11,22,6,1
1431,State-B,R,0,0,State-B,11,11,22,6,1
1432,State-B,L,1,1,State-A,11,11,22,6,1
1433,State-A,U,0,0,State-A,11,11,22,6,1
1434,State-A,R,1,1,State-B,11,11,22,6,1
1435,State-B,R,0,0,State-B,11,11,22,6,1
1436,State-B,R,0,0,State-B,11,11,22,6,1
1437,State-B,L,1,1,State-A,11,11,22,6,1
1438,State-A,R,1,1,State-B,11,11,22,6,1
1439,State-B,L,1,1,State-A,11,11,22,6,1
1440,State-A,U,0,0,State-A,11,11,22,6,1
1441,State-A,U,0,0,State-A,11,11,22,6,1
1442,State-A,L,0,0,State-A,11,11,22,6,1
1443,State-A,L,0,0,State-A,11,11,22,6,1
1444,State-A,L,0,0,State-A,11,11,22,6,1
1445,State-A,R,1,1,State-B,11,11,22,6,1
1446,State-B,U,0,0,State-B,11,11,22,6,1
1447,State-B,R,0,0,State-B,11,11,22,6,1
1448,State-B,L,1,1,State-A,11,11,22,6,1
1449,State-A,L,0,0,State-A,11,11,22,6,1
1450,State-A,L,0,0,State-A,11,11,22,6,1
1451,State-A,L,0,0,State-A,11,11,22,6,1
1452,State-A,U,0,0,State-A,11,11,22,6,1
1453,State-A,L,0,0,State-A,11,11,22,6,1
1454,State-A,U,0,0,State-A,11,11,22,6,1
1455,State-A,U,0,0,State-A,11,11,22,6,1
1456,State-A,L,0,0,State-A,11,11,22,6,1
1457,State-A,R,1,1,State-B,11,11,22,6,1
1458,State-B,L,1,1,State-A,11,11,22,6,1
1459,State-A,U,0,0,State-A,11,11,22,6,1
1460,State-A,R,1,1,State-B,11,11,22,6,1
1461,State-B,U,0,0,State-B,11,11,22,6,1
1462,State-B,R,0,0,State-B,11,11,22,6,1
1463,State-B,U,0,0,State-B,11,11,22,6,1
1464,State-B,U,0,0,State-B,11,11,22,6,1
1465,State-B,R,0,0,State-B,11,11,22,6,1
1466,State-B,U,0,0,State-B,11,11,22,6,1
1467,State-B,R,0,0,State-B,11,11,22,6,1
1468,State-B,L,1,1,State-A,11,11,22,6,1
1469,State-A,L,0,0,State-A,11,11,22,6,1
1470,State-A,L,0,0,State-A,11,11,22,6,1
1471,State-A,U,0,0,State-A,11,11,22,6,1
1472,State-A,L,0,0,State-A,11,11,22,6,1
1473,State-A,L,0,0,State-A,11,11,22,6,1
1474,State-A,R,1,1,State-B,11,11,22,6,1
1475,State-B,U,0,0,State-B,11,11,22,6,1
1476,State-B,R,0,0,State-B,11,11,22,6,1
1477,State-B,R,0,0,State-B,11,11,22,6,1
1478,State-B,L,1,1,State-A,11,11,22,6,1
1479,State-A,R,1,1,State-B,11,11,22,6,1
1480,State-B,L,1,1,State-A,11,11,22,6,1
1481,State-A,R,1,1,State-B,11,11,22,6,1
1482,State-B,R,0,0,State-B,11,11,22,6,1
1483,State-B,U,0,0,State-B,11,11,22,6,1
1484,State-B,L,1,1,State-A,11,11,22,6,1
1485,State-A,U,0,0,State-A,11,11,22,6,1
1486,State-A,U,0,0,State-A,11,11,22,6,1
1487,State-A,R,1,1,State-B,11,11,22,6,1
1488,State-B,U,0,0,State-B,11,11,22,6,1
1489,State-B,R,0,0,State-B,11,11,22,6,1
1490,State-B,R,0,0,State-B,11,11,22,6,1
1491,State-B,L,1,1,State-A,11,11,22,6,1
1492,State-A,U,0,0,State-A,11,11,22,6,1
1493,State-A,R,1,1,State-B,11,11,22,6,1
1494,State-B,R,0,0,State-B,11,11,22,6,1
1495,State-B,R,0,0,State-B,11,11,22,6,1
1496,State-B,R,0,0,State-B,11,11,22,6,1
1497,State-B,R,0,0,State-B,11,11,22,6,1
1498,State-B,U,0,0,State-B,11,11,22,6,1
1499,State-B,R,0,0,State-B,11,11,22,6,1
1500,State-B,R,0,0,State-B,11,11,22,6,1
1501,State-B,R,0,0,State-B,11,11,22,6,1
1502,State-B,U,0,0,State-B,11,11,22,6,1
1503,State-B,U,0,0,State-B,11,11,22,6,1
1504,State-B,U,0,0,State-B,11,11,22,6,1
1505,State-B,R,0,0,State-B,11,11,22,6,1
1506,State-B,L,1,1,State-A,11,11,22,6,1
1507,State-A,R,1,1,State-B,11,11,22,6,1
1508,State-B,R,0,0,State-B,11,11,22,6,1
1509,State-B,L,1,1,State-A,11,11,22,6,1
1510,State-A,L,0,0,State-A,11,11,22,6,1
1511,State-A,U,0,0,State-A,11,11,22,6,1
1512,State-A,R,1,1,State-B,11,11,22,6,1
1513,State-B,L,1,1,State-A,11,11,22,6,1
1514,State-A,R,1,1,State-B,11,11,22,6,1
1515,State-B,R,0,0,State-B,11,11,22,6,1
1516,State-B,R,0,0,State-B,11,11,22,6,1
1517,State-B,U,0,0,State-B,11,11,22,6,1
1518,State-B,U,0,0,State-B,11,11,22,6,1
1519,State-B,R,0,0,State-B,11,11,22,6,1
1520,State-B,R,0,0,State-B,11,11,22,6,1
1521,State-B,U,0,0,State-B,11,11,22,6,1
1522,State-B,R,0,0,State-B,11,11,22,6,1
1523,State-B,R,0,0,State-B,11,11,22,6,1
1524,State-B,L,1,1,State-A,11,11,22,6,1
1525,State-A,U,0,0,State-A,11,11,22,6,1
1526,State-A,L,0,0,State-A,11,11,22,6,1
1527,State-A,L,0,0,State-A,11,11,22,6,1
1528,State-A,U,0,0,State-A,11,11,22,6,1
1529,State-A,L,0,0,State-A,11,11,22,6,1
1530,State-A,U,0,0,State-A,11,11,22,6,1
1531,State-A,U,0,0,State-A,11,11,22,6,1
1532,State-A,R,1,1,State-B,11,11,22,6,1
1533,State-B,L,1,1,State-A,11,11,22,6,1
1534,State-A,L,0,0,State-A,11,11,22,6,1
1535,State-A,L,0,0,State-A,11,11,22,6,1
1536,State-A,L,0,0,State-A,11,11,22,6,1
1537,State-A,L,0,0,State-A,11,11,22,6,1
1538,State-A,U,0,0,State-A,11,11,22,6,1
1539,State-A,R,1,1,State-B,11,11,22,6,1
1540,State-B,L,1,1,State-A,11,11,22,6,1
1541,State-A,L,0,0,State-A,11,11,22,6,1
1542,State-A,R,1,1,State-B,11,11,22,6,1
1543,State-B,L,1,1,State-A,11,11,22,6,1
1544,State-A,L,0,0,State-A,11,11,22,6,1
1545,State-A,R,1,1,State-B,11,11,22,6,1
1546,State-B,U,0,0,State-B,11,11,22,6,1
1547,State-B,L,1,1,State-A,11,11,22,6,1
1548,State-A,U,0,0,State-A,11,11,22,6,1
1549,State-A,L,0,0,State-A,11,11,22,6,1
1550,State-A,L,0,0,State-A,11,11,22,6,1
1551,State-A,U,0,0,State-A,11,11,22,6,1
1552,State-A,U,0,0,State-A,11,11,22,6,1
1553,State-A,L,0,0,State-A,11,11,22,6,1
1554,State-A,L,0,0,State-A,11,11,22,6,1
1555,State-A,L,0,0,State-A,11,11,22,6,1
1556,State-A,U,0,0,State-A,11,11,22,6,1
1557,State-A,R,1,1,State-B,11,11,22,6,1
1558,State-B,U,0,0,State-B,11,11,22,6,1
1559,State-B,R,0,0,State-B,11,11,22,6,1
1560,State-B,R,0,0,State-B,11,11,22,6,1
1561,State-B,U,0,0,State-B,11,11,22,6,1
1562,State-B,R,0,0,State-B,11,11,22,6,1
1563,State-B,L,1,1,State-A,11,11,22,6,1
1564,State-A,R,1,1,State-B,11,11,22,6,1
1565,State-B,U,0,0,State-B,11,11,22,6,1
1566,State-B,U,0,0,State-B,11,11,22,6,1
1567,State-B,U,0,0,State-B,11,11,22,6,1
1568,State-B,R,0,0,State-B,11,11,22,6,1
1569,State-B,R,0,0,State-B,11,11,22,6,1
1570,State-B,L,1,1,State-A,11,11,22,6,1
1571,State-A,U,0,0,State-A,11,11,22,6,1
1572,State-A,U,0,0,State-A,11,11,22,6,1
1573,State-A,L,0,0,State-A,11,11,22,6,1
1574,State-A,U,0,0,State-A,11,11,22,6,1
1575,State-A,R,1,1,State-B,11,11,22,6,1
1576,State-B,R,0,0,State-B,11,11,22,6,1
1577,State-B,R,0,0,State-B,11,11,22,6,1
1578,State-B,R,0,0,State-B,11,11,22,6,1
1579,State-B,R,0,0,State-B,11,11,22,6,1
1580,State-B,L,1,1,State-A,11,11,22,6,1
1581,State-A,R,1,1,State-B,11,11,22,6,1
1582,State-B,L,1,1,State-A,11,11,22,6,1
1583,State-A,L,0,0,State-A,11,11,22,6,1
1584,State-A,U,0,0,State-A,11,11,22,6,1
1585,State-A,L,0,0,State-A,11,11,22,6,1
1586,State-A,U,0,0,State-A,11,11,22,6,1
1587,State-A,R,1,1,State-B,11,11,22,6,1
1588,State-B,R,0,0,State-B,11,11,22,6,1
1589,State-B,R,0,0,State-B,11,11,22,6,1
1590,State-B,R,0,0,State-B,11,11,22,6,1
1591,State-B,R,0,0,State-B,11,11,22,6,1
1592,State-B,R,0,0,State-B,11,11,22,6,1
1593,State-B,R,0,0,State-B,11,11,22,6,1
1594,State-B,U,0,0,State-B,11,11,22,6,1
1595,State-B,L,1,1,State-A,11,11,22,6,1
1596,State-A,L,0,0,State-A,11,11,22,6,1
1597,State-A,R,1,1,State-B,11,11,22,6,1
1598,State-B,U,0,0,State-B,11,11,22,6,1
1599,State-B,L,1,1,State-A,11,11,22,6,1
1600,State-A,U,0,0,State-A,11,11,22,6,1
1601,State-A,L,0,0,State-A,11,11,22,6,1
1602,State-A,R,1,1,State-B,11,11,22,6,1
1603,State-B,U,0,0,State-B,11,11,22,6,1
1604,State-B,R,0,0,State-B,11,11,22,6,1
1605,State-B,R,0,0,State-B,11,11,22,6,1
1606,State-B,L,1,1,State-A,11,11,22,6,1
1607,State-A,R,1,1,State-B,11,11,22,6,1
1608,State-B,L,1,1,State-A,11,11,22,6,1
1609,State-A,L,0,0,State-A,11,11,22,6,1
1610,State-A,R,1,1,State-B,11,11,22,6,1
1611,State-B,R,0,0,State-B,11,11,22,6,1
1612,State-B,U,0,0,State-B,11,11,22,6,1
1613,State-B,U,0,0,State-B,11,11,22,6,1
1614,State-B,R,0,0,State-B,11,11,22,6,1
1615,State-B,L,1,1,State-A,11,11,22,6,1
1616,State-A,L,0,0,State-A,11,11,22,6,1
1617,State-A,R,1,1,State-B,11,11,22,6,1
1618,State-B,U,0,0,State-B,11,11,22,6,1
1619,State-B,U,0,0,State-B,11,11,22,6,1
1620,State-B,L,1,1,State-A,11,11,22,6,1
1621,State-A,L,0,0,State-A,11,11,22,6,1
1622,State-A,U,0,0,State-A,11,11,22,6,1
1623,State-A,U,0,0,State-A,11,11,22,6,1
1624,State-A,U,0,0,State-A,11,11,22,6,1
1625,State-A,R,1,1,State-B,11,11,22,6,1
1626,State-B,U,0,0,State-B,11,11,22,6,1
1627,State-B,R,0,0,State-B,11,11,22,6,1
1628,State-B,L,1,1,State-A,11,11,22,6,1
1629,State-A,R,1,1,State-B,11,11,22,6,1
1630,State-B,U,0,0,State-B,11,11,22,6,1
1631,State-B,U,0,0,State-B,11,11,22,6,1
1632,State-B,U,0,0,State-B,11,11,22,6,1
1633,State-B,U,0,0,State-B,11,11,22,6,1
1634,State-B,U,0,0,State-B,11,11,22,6,1
1635,State-B,R,0,0,State-B,11,11,22,6,1
1636,State-B,U,0,0,State-B,11,11,22,6,1
1637,State-B,L,1,1,State-A,11,11,22,6,1
1638,State-A,U,0,0,State-A,11,11,22,6,1
1639,State-A,U,0,0,State-A,11,11,22,6,1
1640,State-A,R,1,1,State-B,11,11,22,6,1
1641,State-B,R,0,0,State-B,11,11,22,6,1
1642,State-B,R,0,0,State-B,11,11,22,6,1
1643,State-B,R,0,0,State-B,11,11,22,6,1
1644,State-B,U,0,0,State-B,11,11,22,6,1
1645,State-B,R,0,0,State-B,11,11,22,6,1
1646,State-B,L,1,1,State-A,11,11,22,6,1
1647,State-A,R,1,1,State-B,11,11,22,6,1
1648,State-B,L,1,1,State-A,11,11,22,6,1
1649,State-A,U,0,0,State-A,11,11,22,6,1
1650,State-A,U,0,0,State-A,11,11,22,6,1
1651,State-A,R,1,1,State-B,11,11,22,6,1
1652,State-B,L,1,1,State-A,11,11,22,6,1
1653,State-A,L,0,0,State-A,11,11,22,6,1
1654,State-A,L,0,0,State-A,11,11,22,6,1
1655,State-A,R,1,1,State-B,11,11,22,6,1
1656,State-B,U,0,0,State-B,11,11,22,6,1
1657,State-B,L,1,1,State-A,11,11,22,6,1
1658,State-A,U,0,0,State-A,11,11,22,6,1
1659,State-A,U,0,0,State-A,11,11,22,6,1
1660,State-A,U,0,0,State-A,11,11,22,6,1
1661,State-A,R,1,1,State-B,11,11,22,6,1
1662,State-B,R,0,0,State-B,11,11,22,6,1
1663,State-B,U,0,0,State-B,11,11,22,6,1
1664,State-B,U,0,0,State-B,11,11,22,6,1
1665,State-B,R,0,0,State-B,11,11,22,6,1
1666,State-B,U,0,0,State-B,11,11,22,6,1
1667,State-B,L,1,1,State-A,11,11,22,6,1
1668,State-A,R,1,1,State-B,11,11,22,6,1
1669,State-B,R,0,0,State-B,11,11,22,6,1
1670,State-B,R,0,0,State-B,11,11,22,6,1
1671,State-B,R,0,0,State-B,11,11,22,6,1
1672,State-B,R,0,0,State-B,11,11,22,6,1
1673,State-B,U,0,0,State-B,11,11,22,6,1
1674,State-B,R,0,0,State-B,11,11,22,6,1
1675,State-B,L,1,1,State-A,11,11,22,6,1
1676,State-A,U,0,0,State-A,11,11,22,6,1
1677,State-A,U,0,0,State-A,11,11,22,6,1
1678,State-A,U,0,0,State-A,11,11,22,6,1
1679,State-A,R,1,1,State-B,11,11,22,6,1
1680,State-B,R,0,0,State-B,11,11,22,6,1
1681,State-B,R,0,0,State-B,11,11,22,6,1
1682,State-B,U,0,0,State-B,11,11,22,6,1
1683,State-B,U,0,0,State-B,11,11,22,6,1
1684,State-B,L,1,1,State-A,11,11,22,6,1
1685,State-A,L,0,0,State-A,11,11,22,6,1
1686,State-A,U,0,0,State-A,11,11,22,6,1
1687,State-A,R,1,1,State-B,11,11,22,6,1
1688,State-B,U,0,0,State-B,11,11,22,6,1
1689,State-B,R,0,0,State-B,11,11,22,6,1
1690,State-B,L,1,1,State-A,11,11,22,6,1
1691,State-A,L,0,0,State-A,11,11,22,6,1
1692,State-A,U,0,0,State-A,11,11,22,6,1
1693,State-A,L,0,0,State-A,11,11,22,6,1
1694,State-A,R,1,1,State-B,11,11,22,6,1
1695,State-B,R,0,0,State-B,11,11,22,6,1
1696,State-B,R,0,0,State-B,11,11,22,6,1
1697,State-B,R,0,0,State-B,11,11,22,6,1
1698,State-B,L,1,1,State-A,11,11,22,6,1
1699,State-A,U,0,0,State-A,11,11,22,6,1
1700,State-A,R,1,1,State-B,11,11,22,6,1
1701,State-B,L,1,1,State-A,11,11,22,6,1
1702,State-A,R,1,1,State-B,11,11,22,6,1
1703,State-B,U,0,0,State-B,11,11,22,6,1
1704,State-B,L,1,1,State-A,11,11,22,6,1
1705,State-A,U,0,0,State-A,11,11,22,6,1
1706,State-A,U,0,0,State-A,11,11,22,6,1
1707,State-A,L,0,0,State-A,11,11,22,6,1
1708,State-A,U,0,0,State-A,11,11,22,6,1
1709,State-A,L,0,0,State-A,11,11,22,6,1
1710,State-A,U,0,0,State-A,11,11,22,6,1
1711,State-A,R,1,1,State-B,11,11,22,6,1
1712,State-B,L,1,1,State-A,11,11,22,6,1
1713,State-A,L,0,0,State-A,11,11,22,6,1
1714,State-A,R,1,1,State-B,11,11,22,6,1
1715,State-B,L,1,1,State-A,11,11,22,6,1
1716,State-A,U,0,0,State-A,11,11,22,6,1
1717,State-A,L,0,0,State-A,11,11,22,6,1
1718,State-A,R,1,1,State-B,11,11,22,6,1
1719,State-B,R,0,0,State-B,11,11,22,6,1
1720,State-B,R,0,0,State-B,11,11,22,6,1
1721,State-B,U,0,0,State-B,11,11,22,6,1
1722,State-B,L,1,1,State-A,11,11,22,6,1
1723,State-A,L,0,0,State-A,11,11,22,6,1
1724,State-A,L,0,0,State-A,11,11,22,6,1
1725,State-A,R,1,1,State-B,11,11,22,6,1
1726,State-B,R,0,0,State-B,11,11,22,6,1
1727,State-B,L,1,1,State-A,11,11,22,6,1
1728,State-A,U,0,0,State-A,11,11,22,6,1
1729,State-A,R,1,1,State-B,11,11,22,6,1
1730,State-B,L,1,1,State-A,11,11,22,6,1
1731,State-A,U,0,0,State-A,11,11,22,6,1
1732,State-A,L,0,0,State-A,11,11,22,6,1
1733,State-A,R,1,1,State-B,11,11,22,6,1
1734,State-B,R,0,0,State-B,11,11,22,6,1
1735,State-B,U,0,0,State-B,11,11,22,6,1
1736,State-B,U,0,0,State-B,11,11,22,6,1
1737,State-B,U,0,0,State-B,11,11,22,6,1
1738,State-B,L,1,1,State-A,11,11,22,6,1
1739,State-A,R,1,1,State-B,11,11,22,6,1
1740,State-B,L,1,1,State-A,11,11,22,6,1
1741,State-A,L,0,0,State-A,11,11,22,6,1
1742,State-A,R,1,1,State-B,11,11,22,6,1
1743,State-B,R,0,0,State-B,11,11,22,6,1
1744,State-B,R,0,0,State-B,11,11,22,6,1
1745,State-B,U,0,0,State-B,11,11,22,6,1
1746,State-B,L,1,1,State-A,11,11,22,6,1
1747,State-A,U,0,0,State-A,11,11,22,6,1
1748,State-A,R,1,1,State-B,11,11,22,6,1
1749,State-B,R,0,0,State-B,11,11,22,6,1
1750,State-B,R,0,0,State-B,11,11,22,6,1
1751,State-B,L,1,1,State-A,11,11,22,6,1
1752,State-A,R,1,1,State-B,11,11,22,6,1
1753,State-B,L,1,1,State-A,11,11,22,6,1
1754,State-A,U,0,0,State-A,11,11,22,6,1
1755,State-A,L,0,0,State-A,11,11,22,6,1
1756,State-A,R,1,1,State-B,11,11,22,6,1
1757,State-B,U,0,0,State-B,11,11,22,6,1
1758,State-B,R,0,0,State-B,11,11,22,6,1
1759,State-B,R,0,0,State-B,11,11,22,6,1
1760,State-B,U,0,0,State-B,11,11,22,6,1
1761,State-B,L,1,1,State-A,11,11,22,6,1
1762,State-A,R,1,1,State-B,11,11,22,6,1
1763,State-B,R,0,0,State-B,11,11,22,6,1
1764,State-B,U,0,0,State-B,11,11,22,6,1
1765,State-B,R,0,0,State-B,11,11,22,6,1
1766,State-B,R,0,0,State-B,11,11,22,6,1
1767,State-B,R,0,0,State-B,11,11,22,6,1
1768,State-B,U,0,0,State-B,11,11,22,6,1
1769,State-B,R,0,0,State-B,11,11,22,6,1
1770,State-B,R,0,0,State-B,11,11,22,6,1
1771,State-B,U,0,0,State-B,11,11,22,6,1
1772,State-B,U,0,0,State-B,11,11,22,6,1
1773,State-B,U,0,0,State-B,11,11,22,6,1
1774,State-B,U,0,0,State-B,11,11,22,6,1
1775,State-B,R,0,0,State-B,11,11,22,6,1
1776,State-B,R,0,0,State-B,11,11,22,6,1
1777,State-B,U,0,0,State-B,11,11,22,6,1
1778,State-B,R,0,0,State-B,11,11,22,6,1
1779,State-B,L,1,1,State-A,11,11,22,6,1
1780,State-A,U,0,0,State-A,11,11,22,6,1
1781,State-A,R,1,1,State-B,11,11,22,6,1
1782,State-B,U,0,0,State-B,11,11,22,6,1
1783,State-B,U,0,0,State-B,11,11,22,6,1
1784,State-B,L,1,1,State-A,11,11,22,6,1
1785,State-A,U,0,0,State-A,11,11,22,6,1
1786,State-A,U,0,0,State-A,11,11,22,6,1
1787,State-A,L,0,0,State-A,11,11,22,6,1
1788,State-A,R,1,1,State-B,11,11,22,6,1
1789,State-B,U,0,0,State-B,11,11,22,6,1
1790,State-B,L,1,1,State-A,11,11,22,6,1
1791,State-A,U,0,0,State-A,11,11,22,6,1
1792,State-A,L,0,0,State-A,11,11,22,6,1
1793,State-A,U,0,0,State-A,11,11,22,6,1
1794,State-A,U,0,0,State-A,11,11,22,6,1
1795,State-A,L,0,0,State-A,11,11,22,6,1
1796,State-A,R,1,1,State-B,11,11,22,6,1
1797,State-B,L,1,1,State-A,11,11,22,6,1
1798,State-A,L,0,0,State-A,11,11,22,6,1
1799,State-A,U,0,0,State-A,11,11,22,6,1
1800,State-A,U,0,0,State-A,11,11,22,6,1
1801,State-A,R,1,1,State-B,11,11,22,6,1
1802,State-B,R,0,0,State-B,11,11,22,6,1
1803,State-B,R,0,0,State-B,11,11,22,6,1
1804,State-B,R,0,0,State-B,11,11,22,6,1
1805,State-B,R,0,0,State-B,11,11,22,6,1
1806,State-B,R,0,0,State-B,11,11,22,6,1
1807,State-B,L,1,1,State-A,11,11,22,6,1
1808,State-A,U,0,0,State-A,11,11,22,6,1
1809,State-A,U,0,0,State-A,11,11,22,6,1
1810,State-A,L,0,0,State-A,11,11,22,6,1
1811,State-A,L,0,0,State-A,11,11,22,6,1
1812,State-A,R,1,1,State-B,11,11,22,6,1
1813,State-B,U,0,0,State-B,11,11,22,6,1
1814,State-B,L,1,1,State-A,11,11,22,6,1
1815,State-A,U,0,0,State-A,11,11,22,6,1
1816,State-A,R,1,1,State-B,11,11,22,6,1
1817,State-B,L,1,1,State-A,11,11,22,6,1
1818,State-A,U,0,0,State-A,11,11,22,6,1
1819,State-A,R,1,1,State-B,11,11,22,6,1
1820,State-B,L,1,1,State-A,11,11,22,6,1
1821,State-A,R,1,1,State-B,11,11,22,6,1
1822,State-B,U,0,0,State-B,11,11,22,6,1
1823,State-B,L,1,1,State-A,11,11,22,6,1
1824,State-A,U,0,0,State-A,11,11,22,6,1
1825,State-A,U,0,0,State-A,11,11,22,6,1
1826,State-A,U,0,0,State-A,11,11,22,6,1
1827,State-A,L,0,0,State-A,11,11,22,6,1
1828,State-A,R,1,1,State-B,11,11,22,6,1
1829,State-B,U,0,0,State-B,11,11,22,6,1
1830,State-B,R,0,0,State-B,11,11,22,6,1
1831,State-B,R,0,0,State-B,11,11,22,6,1
1832,State-B,L,1,1,State-A,11,11,22,6,1
1833,State-A,L,0,0,State-A,11,11,22,6,1
1834,State-A,U,0,0,State-A,11,11,22,6,1
1835,State-A,R,1,1,State-B,11,11,22,6,1
1836,State-B,R,0,0,State-B,11,11,22,6,1
1837,State-B,L,1,1,State-A,11,11,22,6,1
1838,State-A,R,1,1,State-B,11,11,22,6,1
1839,State-B,R,0,0,State-B,11,11,22,6,1
1840,State-B,L,1,1,State-A,11,11,22,6,1
1841,State-A,U,0,0,State-A,11,11,22,6,1
1842,State-A,R,1,1,State-B,11,11,22,6,1
1843,State-B,L,1,1,State-A,11,11,22,6,1
1844,State-A,L,0,0,State-A,11,11,22,6,1
1845,State-A,U,0,0,State-A,11,11,22,6,1
1846,State-A,U,0,0,State-A,11,11,22,6,1
1847,State-A,U,0,0,State-A,11,11,22,6,1
1848,State-A,L,0,0,State-A,11,11,22,6,1
1849,State-A,U,0,0,State-A,11,11,22,6,1
1850,State-A,R,1,1,State-B,11,11,22,6,1
1851,State-B,L,1,1,State-A,11,11,22,6,1
1852,State-A,L,0,0,State-A,11,11,22,6,1
1853,State-A,L,0,0,State-A,11,11,22,6,1
1854,State-A,R,1,1,State-B,11,11,22,6,1
1855,State-B,R,0,0,State-B,11,11,22,6,1
1856,State-B,U,0,0,State-B,11,11,22,6,1
1857,State-B,L,1,1,State-A,11,11,22,6,1
1858,State-A,U,0,0,State-A,11,11,22,6,1
1859,State-A,U,0,0,State-A,11,11,22,6,1
1860,State-A,R,1,1,State-B,11,11,22,6,1
1861,State-B,L,1,1,State-A,11,11,22,6,1
1862,State-A,L,0,0,State-A,11,11,22,6,1
1863,State-A,L,0,0,State-A,11,11,22,6,1
1864,State-A,L,0,0,State-A,11,11,22,6,1
1865,State-A,R,1,1,State-B,11,11,22,6,1
1866,State-B,L,1,1,State-A,11,11,22,6,1
1867,State-A,L,0,0,State-A,11,11,22,6,1
1868,State-A,L,0,0,State-A,11,11,22,6,1
1869,State-A,U,0,0,State-A,11,11,22,6,1
1870,State-A,R,1,1,State-B,11,11,22,6,1
1871,State-B,U,0,0,State-B,11,11,22,6,1
1872,State-B,U,0,0,State-B,11,11,22,6,1
1873,State-B,L,1,1,State-A,11,11,22,6,1
1874,State-A,R,1,1,State-B,11,11,22,6,1
1875,State-B,U,0,0,State-B,11,11,22,6,1
1876,State-B,R,0,0,State-B,11,11,22,6,1
1877,State-B,L,1,1,State-A,11,11,22,6,1
1878,State-A,L,0,0,State-A,11,11,22,6,1
1879,State-A,U,0,0,State-A,11,11,22,6,1
1880,State-A,L,0,0,State-A,11,11,22,6,1
1881,State-A,U,0,0,State-A,11,11,22,6,1
1882,State-A,U,0,0,State-A,11,11,22,6,1
1883,State-A,U,0,0,State-A,11,11,22,6,1
1884,State-A,U,0,0,State-A,11,11,22,6,1
1885,State-A,U,0,0,State-A,11,11,22,6,1
1886,State-A,U,0,0,State-A,11,11,22,6,1
1887,State-A,L,0,0,State-A,11,11,22,6,1
1888,State-A,L,0,0,State-A,11,11,22,6,1
1889,State-A,R,1,1,State-B,11,11,22,6,1
1890,State-B,L,1,1,State-A,11,11,22,6,1
1891,State-A,R,1,1,State-B,11,11,22,6,1
1892,State-B,R,0,0,State-B,11,11,22,6,1
1893,State-B,L,1,1,State-A,11,11,22,6,1
1894,State-A,L,0,0,State-A,11,11,22,6,1
1895,State-A,L,0,0,State-A,11,11,22,6,1
1896,State-A,U,0,0,State-A,11,11,22,6,1
1897,State-A,L,0,0,State-A,11,11,22,6,1
1898,State-A,U,0,0,State-A,11,11,22,6,1
1899,State-A,U,0,0,State-A,11,11,22,6,1
1900,State-A,U,0,0,State-A,11,11,22,6,1
1901,State-A,R,1,1,State-B,11,11,22,6,1
1902,State-B,L,1,1,State-A,11,11,22,6,1
1903,State-A,R,1,1,State-B,11,11,22,6,1
1904,State-B,R,0,0,State-B,11,11,22,6,1
1905,State-B,R,0,0,State-B,11,11,22,6,1
1906,State-B,U,0,0,State-B,11,11,22,6,1
1907,State-B,U,0,0,State-B,11,11,22,6,1
1908,State-B,L,1,1,State-A,11,11,22,6,1
1909,State-A,L,0,0,State-A,11,11,22,6,1
1910,State-A,L,0,0,State-A,11,11,22,6,1
1911,State-A,L,0,0,State-A,11,11,22,6,1
1912,State-A,U,0,0,State-A,11,11,22,6,1
1913,State-A,R,1,1,State-B,11,11,22,6,1
1914,State-B,L,1,1,State-A,11,11,22,6,1
1915,State-A,R,1,1,State-B,11,11,22,6,1
1916,State-B,R,0,0,State-B,11,11,22,6,1
1917,State-B,U,0,0,State-B,11,11,22,6,1
1918,State-B,U,0,0,State-B,11,11,22,6,1
1919,State-B,L,1,1,State-A,11,11,22,6,1
1920,State-A,R,1,1,State-B,11,11,22,6,1
1921,State-B,R,0,0,State-B,11,11,22,6,1
1922,State-B,L,1,1,State-A,11,11,22,6,1
1923,State-A,L,0,0,State-A,11,11,22,6,1
1924,State-A,U,0,0,State-A,11,11,22,6,1
1925,State-A,R,1,1,State-B,11,11,22,6,1
1926,State-B,U,0,0,State-B,11,11,22,6,1
1927,State-B,R,0,0,State-B,11,11,22,6,1
1928,State-B,U,0,0,State-B,11,11,22,6,1
1929,State-B,L,1,1,State-A,11,11,22,6,1
1930,State-A,R,1,1,State-B,11,11,22,6,1
1931,State-B,U,0,0,State-B,11,11,22,6,1
1932,State-B,U,0,0,State-B,11,11,22,6,1
1933,State-B,L,1,1,State-A,11,11,22,6,1
1934,State-A,R,1,1,State-B,11,11,22,6,1
1935,State-B,R,0,0,State-B,11,11,22,6,1
1936,State-B,R,0,0,State-B,11,11,22,6,1
1937,State-B,R,0,0,State-B,11,11,22,6,1
1938,State-B,L,1,1,State-A,11,11,22,6,1
1939,State-A,U,0,0,State-A,11,11,22,6,1
1940,State-A,U,0,0,State-A,11,11,22,6,1
1941,State-A,R,1,1,State-B,11,11,22,6,1
1942,State-B,R,0,0,State-B,11,11,22,6,1
1943,State-B,R,0,0,State-B,11,11,22,6,1
1944,State-B,R,0,0,State-B,11,11,22,6,1
1945,State-B,U,0,0,State-B,11,11,22,6,1
1946,State-B,R,0,0,State-B,11,11,22,6,1
1947,State-B,U,0,0,State-B,11,11,22,6,1
1948,State-B,U,0,0,State-B,11,11,22,6,1
1949,State-B,U,0,0,State-B,11,11,22,6,1
1950,State-B,L,1,1,State-A,11,11,22,6,1
1951,State-A,L,0,0,State-A,11,11,22,6,1
1952,State-A,R,1,1,State-B,11,11,22,6,1
1953,State-B,R,0,0,State-B,11,11,22,6,1
1954,State-B,U,0,0,State-B,11,11,22,6,1
1955,State-B,R,0,0,State-B,11,11,22,6,1
1956,State-B,U,0,0,State-B,11,11,22,6,1
1957,State-B,U,0,0,State-B,11,11,22,6,1
1958,State-B,R,0,0,State-B,11,11,22,6,1
1959,State-B,U,0,0,State-B,11,11,22,6,1
1960,State-B,R,0,0,State-B,11,11,22,6,1
1961,State-B,R,0,0,State-B,11,11,22,6,1
1962,State-B,R,0,0,State-B,11,11,22,6,1
1963,State-B,R,0,0,State-B,11,11,22,6,1
1964,State-B,R,0,0,State-B,11,11,22,6,1
1965,State-B,L,1,1,State-A,11,11,22,6,1
1966,State-A,U,0,0,State-A,11,11,22,6,1
1967,State-A,U,0,0,State-A,11,11,22,6,1
1968,State-A,R,1,1,State-B,11,11,22,6,1
1969,State-B,L,1,1,State-A,11,11,22,6,1
1970,State-A,L,0,0,State-A,11,11,22,6,1
1971,State-A,L,0,0,State-A,11,11,22,6,1
1972,State-A,L,0,0,State-A,11,11,22,6,1
1973,State-A,U,0,0,State-A,11,11,22,6,1
1974,State-A,L,0,0,State-A,11,11,22,6,1
1975,State-A,U,0,0,State-A,11,11,22,6,1
1976,State-A,U,0,0,State-A,11,11,22,6,1
1977,State-A,L,0,0,State-A,11,11,22,6,1
1978,State-A,L,0,0,State-A,11,11,22,6,1
1979,State-A,U,0,0,State-A,11,11,22,6,1
1980,State-A,R,1,1,State-B,11,11,22,6,1
1981,State-B,U,0,0,State-B,11,11,22,6,1
1982,State-B,L,1,1,State-A,11,11,22,6,1
1983,State-A,U,0,0,State-A,11,11,22,6,1
1984,State-A,L,0,0,State-A,11,11,22,6,1
1985,State-A,R,1,1,State-B,11,11,22,6,1
1986,State-B,U,0,0,State-B,11,11,22,6,1
1987,State-B,U,0,0,State-B,11,11,22,6,1
1988,State-B,L,1,1,State-A,11,11,22,6,1
1989,State-A,U,0,0,State-A,11,11,22,6,1
1990,State-A,R,1,1,State-B,11,11,22,6,1
1991,State-B,R,0,0,State-B,11,11,22,6,1
1992,State-B,R,0,0,State-B,11,11,22,6,1
1993,State-B,R,0,0,State-B,11,11,22,6,1
1994,State-B,R,0,0,State-B,11,11,22,6,1
1995,State-B,U,0,0,State-B,11,11,22,6,1
1996,State-B,U,0,0,State-B,11,11,22,6,1
1997,State-B,U,0,0,State-B,11,11,22,6,1
1998,State-B,L,1,1,State-A,11,11,22,6,1
1999,State-A,R,1,1,State-B,11,11,22,6,1
2000,State-B,R,0,0,State-B,11,11,22,6,1
2001,State-B,L,1,1,State-A,11,11,22,6,1
2002,State-A,U,0,0,State-A,11,11,22,6,1
2003,State-A,L,0,0,State-A,11,11,22,6,1
2004,State-A,L,0,0,State-A,11,11,22,6,1
2005,State-A,L,0,0,State-A,11,11,22,6,1
2006,State-A,R,1,1,State-B,11,11,22,6,1
2007,State-B,R,0,0,State-B,11,11,22,6,1
2008,State-B,R,0,0,State-B,11,11,22,6,1
2009,State-B,R,0,0,State-B,11,11,22,6,1
2010,State-B,U,0,0,State-B,11,11,22,6,1
2011,State-B,U,0,0,State-B,11,11,22,6,1
2012,State-B,U,0,0,State-B,11,11,22,6,1
2013,State-B,L,1,1,State-A,11,11,22,6,1
2014,State-A,U,0,0,State-A,11,11,22,6,1
2015,State-A,L,0,0,State-A,11,11,22,6,1
2016,State-A,R,1,1,State-B,11,11,22,6,1
2017,State-B,U,0,0,State-B,11,11,22,6,1
2018,State-B,R,0,0,State-B,11,11,22,6,1
2019,State-B,R,0,0,State-B,11,11,22,6,1
2020,State-B,L,1,1,State-A,11,11,22,6,1
2021,State-A,U,0,0,State-A,11,11,22,6,1
2022,State-A,U,0,0,State-A,11,11,22,6,1
2023,State-A,R,1,1,State-B,11,11,22,6,1
2024,State-B,U,0,0,State-B,11,11,22,6,1
2025,State-B,R,0,0,State-B,11,11,22,6,1
2026,State-B,L,1,1,State-A,11,11,22,6,1
2027,State-A,U,0,0,State-A,11,11,22,6,1
2028,State-A,R,1,1,State-B,11,11,22,6,1
2029,State-B,L,1,1,State-A,11,11,22,6,1
2030,State-A,U,0,0,State-A,11,11,22,6,1
2031,State-A,R,1,1,State-B,11,11,22,6,1
2032,State-B,L,1,1,State-A,11,11,22,6,1
2033,State-A,U,0,0,State-A,11,11,22,6,1
2034,State-A,L,0,0,State-A,11,11,22,6,1
2035,State-A,U,0,0,State-A,11,11,22,6,1
2036,State-A,L,0,0,State-A,11,11,22,6,1
2037,State-A,L,0,0,State-A,11,11,22,6,1
2038,State-A,L,0,0,State-A,11,11,22,6,1
2039,State-A,U,0,0,State-A,11,11,22,6,1
2040,State-A,R,1,1,State-B,11,11,22,6,1
2041,State-B,R,0,0,State-B,11,11,22,6,1
2042,State-B,L,1,1,State-A,11,11,22,6,1
2043,State-A,U,0,0,State-A,11,11,22,6,1
2044,State-A,U,0,0,State-A,11,11,22,6,1
2045,State-A,U,0,0,State-A,11,11,22,6,1
2046,State-A,U,0,0,State-A,11,11,22,6,1
2047,State-A,U,0,0,State-A,11,11,22,6,1
2048,State-A,L,0,0,State-A,11,11,22,6,1
2049,State-A,U,0,0,State-A,11,11,22,6,1
2050,State-A,U,0,0,State-A,11,11,22,6,1
2051,State-A,U,0,0,State-A,11,11,22,6,1
2052,State-A,R,1,1,State-B,11,11,22,6,1
2053,State-B,U,0,0,State-B,11,11,22,6,1
2054,State-B,L,1,1,State-A,11,11,22,6,1
2055,State-A,U,0,0,State-A,11,11,22,6,1
2056,State-A,L,0,0,State-A,11,11,22,6,1
2057,State-A,U,0,0,State-A,11,11,22,6,1
2058,State-A,R,1,1,State-B,11,11,22,6,1
2059,State-B,R,0,0,State-B,11,11,22,6,1
2060,State-B,R,0,0,State-B,11,11,22,6,1
2061,State-B,L,1,1,State-A,11,11,22,6,1
2062,State-A,L,0,0,State-A,11,11,22,6,1
2063,State-A,L,0,0,State-A,11,11,22,6,1
2064,State-A,U,0,0,State-A,11,11,22,6,1
2065,State-A,L,0,0,State-A,11,11,22,6,1
2066,State-A,L,0,0,State-A,11,11,22,6,1
2067,State-A,R,1,1,State-B,11,11,22,6,1
2068,State-B,U,0,0,State-B,11,11,22,6,1
2069,State-B,U,0,0,State-B,11,11,22,6,1
2070,State-B,L,1,1,State-A,11,11,22,6,1
2071,State-A,U,0,0,State-A,11,11,22,6,1
2072,State-A,L,0,0,State-A,11,11,22,6,1
2073,State-A,R,1,1,State-B,11,11,22,6,1
2074,State-B,R,0,0,State-B,11,11,22,6,1
2075,State-B,U,0,0,State-B,11,11,22,6,1
2076,State-B,L,1,1,State-A,11,11,22,6,1
2077,State-A,R,1,1,State-B,11,11,22,6,1
2078,State-B,U,0,0,State-B,11,11,22,6,1
2079,State-B,L,1,1,State-A,11,11,22,6,1
2080,State-A,R,1,1,State-B,11,11,22,6,1
2081,State-B,R,0,0,State-B,11,11,22,6,1
2082,State-B,R,0,0,State-B,11,11,22,6,1
2083,State-B,U,0,0,State-B,11,11,22,6,1
2084,State-B,R,0,0,State-B,11,11,22,6,1
2085,State-B,U,0,0,State-B,11,11,22,6,1
2086,State-B,U,0,0,State-B,11,11,22,6,1
2087,State-B,U,0,0,State-B,11,11,22,6,1
2088,State-B,L,1,1,State-A,11,11,22,6,1
2089,State-A,U,0,0,State-A,11,11,22,6,1
2090,State-A,U,0,0,State-A,11,11,22,6,1
2091,State-A,L,0,0,State-A,11,11,22,6,1
2092,State-A,U,0,0,State-A,11,11,22,6,1
2093,State-A,L,0,0,State-A,11,11,22,6,1
2094,State-A,L,0,0,State-A,11,11,22,6,1
2095,State-A,U,0,0,State-A,11,11,22,6,1
2096,State-A,U,0,0,State-A,11,11,22,6,1
2097,State-A,R,1,1,State-B,11,11,22,6,1
2098,State-B,L,1,1,State-A,11,11,22,6,1
2099,State-A,L,0,0,State-A,11,11,22,6,1
2100,State-A,R,1,1,State-B,11,11,22,6,1
2101,State-B,L,1,1,State-A,11,11,22,6,1
2102,State-A,R,1,1,State-B,11,11,22,6,1
2103,State-B,L,1,1,State-A,11,11,22,6,1
2104,State-A,U,0,0,State-A,11,11,22,6,1
2105,State-A,L,0,0,State-A,11,11,22,6,1
2106,State-A,L,0,0,State-A,11,11,22,6,1
2107,State-A,L,0,0,State-A,11,11,22,6,1
2108,State-A,U,0,0,State-A,11,11,22,6,1
2109,State-A,U,0,0,State-A,11,11,22,6,1
2110,State-A,R,1,1,State-B,11,11,22,6,1
2111,State-B,U,0,0,State-B,11,11,22,6,1
2112,State-B,L,1,1,State-A,11,11,22,6,1
2113,State-A,L,0,0,State-A,11,11,22,6,1
2114,State-A,U,0,0,State-A,11,11,22,6,1
2115,State-A,L,0,0,State-A,11,11,22,6,1
2116,State-A,L,0,0,State-A,11,11,22,6,1
2117,State-A,R,1,1,State-B,11,11,22,6,1
2118,State-B,L,1,1,State-A,11,11,22,6,1
2119,State-A,R,1,1,State-B,11,11,22,6,1
2120,State-B,L,1,1,State-A,11,11,22,6,1
2121,State-A,L,0,0,State-A,11,11,22,6,1
2122,State-A,R,1,1,State-B,11,11,22,6,1
2123,State-B,R,0,0,State-B,11,11,22,6,1
2124,State-B,L,1,1,State-A,11,11,22,6,1
2125,State-A,L,0,0,State-A,11,11,22,6,1
2126,State-A,R,1,1,State-B,11,11,22,6,1
2127,State-B,R,0,0,State-B,11,11,22,6,1
2128,State-B,R,0,0,State-B,11,11,22,6,1
2129,State-B,R,0,0,State-B,11,11,22,6,1
2130,State-B,L,1,1,State-A,11,11,22,6,1
2131,State-A,L,0,0,State-A,11,11,22,6,1
2132,State-A,R,1,1,State-B,11,11,22,6,1
2133,State-B,U,0,0,State-B,11,11,22,6,1
2134,State-B,R,0,0,State-B,11,11,22,6,1
2135,State-B,L,1,1,State-A,11,11,22,6,1
2136,State-A,L,0,0,State-A,11,11,22,6,1
2137,State-A,L,0,0,State-A,11,11,22,6,1
2138,State-A,R,1,1,State-B,11,11,22,6,1
2139,State-B,R,0,0,State-B,11,11,22,6,1
2140,State-B,R,0,0,State-B,11,11,22,6,1
2141,State-B,R,0,0,State-B,11,11,22,6,1
2142,State-B,R,0,0,State-B,11,11,22,6,1
2143,State-B,R,0,0,State-B,11,11,22,6,1
2144,State-B,R,0,0,State-B,11,11,22,6,1
2145,State-B,U,0,0,State-B,11,11,22,6,1
2146,State-B,R,0,0,State-B,11,11,22,6,1
2147,State-B,U,0,0,State-B,11,11,22,6,1
2148,State-B,U,0,0,State-B,11,11,22,6,1
2149,State-B,U,0,0,State-B,11,11,22,6,1
2150,State-B,R,0,0,State-B,11,11,22,6,1
2151,State-B,R,0,0,State-B,11,11,22,6,1
2152,State-B,U,0,0,State-B,11,11,22,6,1
2153,State-B,L,1,1,State-A,11,11,22,6,1
2154,State-A,R,1,1,State-B,11,11,22,6,1
2155,State-B,U,0,0,State-B,11,11,22,6,1
2156,State-B,R,0,0,State-B,11,11,22,6,1
2157,State-B,R,0,0,State-B,11,11,22,6,1
2158,State-B,L,1,1,State-A,11,11,22,6,1
2159,State-A,L,0,0,State-A,11,11,22,6,1
2160,State-A,L,0,0,State-A,11,11,22,6,1
2161,State-A,R,1,1,State-B,11,11,22,6,1
2162,State-B,R,0,0,State-B,11,11,22,6,1
2163,State-B,R,0,0,State-B,11,11,22,6,1
2164,State-B,R,0,0,State-B,11,11,22,6,1
2165,State-B,L,1,1,State-A,11,11,22,6,1
2166,State-A,L,0,0,State-A,11,11,22,6,1
2167,State-A,R,1,1,State-B,11,11,22,6,1
2168,State-B,U,0,0,State-B,11,11,22,6,1
2169,State-B,L,1,1,State-A,11,11,22,6,1
2170,State-A,L,0,0,State-A,11,11,22,6,1
2171,State-A,R,1,1,State-B,11,11,22,6,1
2172,State-B,U,0,0,State-B,11,11,22,6,1
2173,State-B,U,0,0,State-B,11,11,22,6,1
2174,State-B,L,1,1,State-A,11,11,22,6,1
2175,State-A,R,1,1,State-B,11,11,22,6,1
2176,State-B,L,1,1,State-A,11,11,22,6,1
2177,State-A,R,1,1,State-B,11,11,22,6,1
2178,State-B,U,0,0,State-B,11,11,22,6,1
2179,State-B,U,0,0,State-B,11,11,22,6,1
2180,State-B,U,0,0,State-B,11,11,22,6,1
2181,State-B,U,0,0,State-B,11,11,22,6,1
2182,State-B,U,0,0,State-B,11,11,22,6,1
2183,State-B,L,1,1,State-A,11,11,22,6,1
2184,State-A,L,0,0,State-A,11,11,22,6,1
2185,State-A,U,0,0,State-A,11,11,22,6,1
2186,State-A,R,1,1,State-B,11,11,22,6,1
2187,State-B,U,0,0,State-B,11,11,22,6,1
2188,State-B,L,1,1,State-A,11,11,22,6,1
2189,State-A,R,1,1,State-B,11,11,22,6,1
2190,State-B,L,1,1,State-A,11,11,22,6,1
2191,State-A,U,0,0,State-A,11,11,22,6,1
2192,State-A,R,1,1,State-B,11,11,22,6,1
2193,State-B,U,0,0,State-B,11,11,22,6,1
2194,State-B,U,0,0,State-B,11,11,22,6,1
2195,State-B,U,0,0,State-B,11,11,22,6,1
2196,State-B,R,0,0,State-B,11,11,22,6,1
2197,State-B,U,0,0,State-B,11,11,22,6,1
2198,State-B,L,1,1,State-A,11,11,22,6,1
2199,State-A,R,1,1,State-B,11,11,22,6,1
2200,State-B,R,0,0,State-B,11,11,22,6,1
2201,State-B,U,0,0,State-B,11,11,22,6,1
2202,State-B,R,0,0,State-B,11,11,22,6,1
2203,State-B,U,0,0,State-B,11,11,22,6,1
2204,State-B,R,0,0,State-B,11,11,22,6,1
2205,State-B,R,0,0,State-B,11,11,22,6,1
2206,State-B,R,0,0,State-B,11,11,22,6,1
2207,State-B,R,0,0,State-B,11,11,22,6,1
2208,State-B,L,1,1,State-A,11,11,22,6,1
2209,State-A,L,0,0,State-A,11,11,22,6,1
2210,State-A,U,0,0,State-A,11,11,22,6,1
2211,State-A,R,1,1,State-B,11,11,22,6,1
2212,State-B,U,0,0,State-B,11,11,22,6,1
2213,State-B,U,0,0,State-B,11,11,22,6,1
2214,State-B,U,0,0,State-B,11,11,22,6,1
2215,State-B,L,1,1,State-A,11,11,22,6,1
2216,State-A,R,1,1,State-B,11,11,22,6,1
2217,State-B,R,0,0,State-B,11,11,22,6,1
2218,State-B,L,1,1,State-A,11,11,22,6,1
2219,State-A,L,0,0,State-A,11,11,22,6,1
2220,State-A,U,0,0,State-A,11,11,22,6,1
2221,State-A,R,1,1,State-B,11,11,22,6,1
2222,State-B,R,0,0,State-B,11,11,22,6,1
2223,State-B,U,0,0,State-B,11,11,22,6,1
2224,State-B,L,1,1,State-A,11,11,22,6,1
2225,State-A,U,0,0,State-A,11,11,22,6,1
2226,State-A,R,1,1,State-B,11,11,22,6,1
2227,State-B,U,0,0,State-B,11,11,22,6,1
2228,State-B,R,0,0,State-B,11,11,22,6,1
2229,State-B,R,0,0,State-B,11,11,22,6,1
2230,State-B,U,0,0,State-B,11,11,22,6,1
2231,State-B,L,1,1,State-A,11,11,22,6,1
2232,State-A,R,1,1,State-B,11,11,22,6,1
2233,State-B,L,1,1,State-A,11,11,22,6,1
2234,State-A,R,1,1,State-B,11,11,22,6,1
2235,State-B,R,0,0,State-B,11,11,22,6,1
2236,State-B,R,0,0,State-B,11,11,22,6,1
2237,State-B,R,0,0,State-B,11,11,22,6,1
2238,State-B,U,0,0,State-B,11,11,22,6,1
2239,State-B,L,1,1,State-A,11,11,22,6,1
2240,State-A,U,0,0,State-A,11,11,22,6,1
2241,State-A,R,1,1,State-B,11,11,22,6,1
2242,State-B,L,1,1,State-A,11,11,22,6,1
2243,State-A,R,1,1,State-B,11,11,22,6,1
2244,State-B,L,1,1,State-A,11,11,22,6,1
2245,State-A,R,1,1,State-B,11,11,22,6,1
2246,State-B,U,0,0,State-B,11,11,22,6,1
2247,State-B,R,0,0,State-B,11,11,22,6,1
2248,State-B,L,1,1,State-A,11,11,22,6,1
2249,State-A,U,0,0,State-A,11,11,22,6,1
2250,State-A,U,0,0,State-A,11,11,22,6,1
2251,State-A,U,0,0,State-A,11,11,22,6,1
2252,State-A,R,1,1,State-B,11,11,22,6,1
2253,State-B,U,0,0,State-B,11,11,22,6,1
2254,State-B,L,1,1,State-A,11,11,22,6,1
2255,State-A,L,0,0,State-A,11,11,22,6,1
2256,State-A,U,0,0,State-A,11,11,22,6,1
2257,State-A,U,0,0,State-A,11,11,22,6,1
2258,State-A,R,1,1,State-B,11,11,22,6,1
2259,State-B,R,0,0,State-B,11,11,22,6,1
2260,State-B,L,1,1,State-A,11,11,22,6,1
2261,State-A,U,0,0,State-A,11,11,22,6,1
2262,State-A,U,0,0,State-A,11,11,22,6,1
2263,State-A,R,1,1,State-B,11,11,22,6,1
2264,State-B,L,1,1,State-A,11,11,22,6,1
2265,State-A,U,0,0,State-A,11,11,22,6,1
2266,State-A,U,0,0,State-A,11,11,22,6,1
2267,State-A,U,0,0,State-A,11,11,22,6,1
2268,State-A,U,0,0,State-A,11,11,22,6,1
2269,State-A,L,0,0,State-A,11,11,22,6,1
2270,State-A,U,0,0,State-A,11,11,22,6,1
2271,State-A,U,0,0,State-A,11,11,22,6,1
2272,State-A,R,1,1,State-B,11,11,22,6,1
2273,State-B,L,1,1,State-A,11,11,22,6,1
2274,State-A,U,0,0,State-A,11,11,22,6,1
2275,State-A,R,1,1,State-B,11,11,22,6,1
2276,State-B,L,1,1,State-A,11,11,22,6,1
2277,State-A,R,1,1,State-B,11,11,22,6,1
2278,State-B,L,1,1,State-A,11,11,22,6,1
2279,State-A,U,0,0,State-A,11,11,22,6,1
2280,State-A,U,0,0,State-A,11,11,22,6,1
2281,State-A,U,0,0,State-A,11,11,22,6,1
2282,State-A,L,0,0,State-A,11,11,22,6,1
2283,State-A,R,1,1,State-B,11,11,22,6,1
2284,State-B,R,0,0,State-B,11,11,22,6,1
2285,State-B,L,1,1,State-A,11,11,22,6,1
2286,State-A,U,0,0,State-A,11,11,22,6,1
2287,State-A,U,0,0,State-A,11,11,22,6,1
2288,State-A,U,0,0,State-A,11,11,22,6,1
2289,State-A,R,1,1,State-B,11,11,22,6,1
2290,State-B,U,0,0,State-B,11,11,22,6,1
2291,State-B,L,1,1,State-A,11,11,22,6,1
2292,State-A,L,0,0,State-A,11,11,22,6,1
2293,State-A,U,0,0,State-A,11,11,22,6,1
2294,State-A,R,1,1,State-B,11,11,22,6,1
2295,State-B,L,1,1,State-A,11,11,22,6,1
2296,State-A,L,0,0,State-A,11,11,22,6,1
2297,State-A,L,0,0,State-A,11,11,22,6,1
2298,State-A,R,1,1,State-B,11,11,22,6,1
2299,State-B,L,1,1,State-A,11,11,22,6,1
2300,State-A,U,0,0,State-A,11,11,22,6,1
2301,State-A,L,0,0,State-A,11,11,22,6,1
2302,State-A,L,0,0,State-A,11,11,22,6,1
2303,State-A,U,0,0,State-A,11,11,22,6,1
2304,State-A,R,1,1,State-B,11,11,22,6,1
2305,State-B,U,0,0,State-B,11,11,22,6,1
2306,State-B,L,1,1,State-A,11,11,22,6,1
2307,State-A,U,0,0,State-A,11,11,22,6,1
2308,State-A,L,0,0,State-A,11,11,22,6,1
2309,State-A,R,1,1,State-B,11,11,22,6,1
2310,State-B,R,0,0,State-B,11,11,22,6,1
2311,State-B,L,1,1,State-A,11,11,22,6,1
2312,State-A,U,0,0,State-A,11,11,22,6,1
2313,State-A,L,0,0,State-A,11,11,22,6,1
2314,State-A,U,0,0,State-A,11,11,22,6,1
2315,State-A,U,0,0,State-A,11,11,22,6,1
2316,State-A,U,0,0,State-A,11,11,22,6,1
2317,State-A,U,0,0,State-A,11,11,22,6,1
2318,State-A,U,0,0,State-A,11,11,22,6,1
2319,State-A,U,0,0,State-A,11,11,22,6,1
2320,State-A,L,0,0,State-A,11,11,22,6,1
2321,State-A,L,0,0,State-A,11,11,22,6,1
2322,State-A,L,0,0,State-A,11,11,22,6,1
2323,State-A,R,1,1,State-B,11,11,22,6,1
2324,State-B,L,1,1,State-A,11,11,22,6,1
2325,State-A,L,0,0,State-A,11,11,22,6,1
2326,State-A,R,1,1,State-B,11,11,22,6,1
2327,State-B,L,1,1,State-A,11,11,22,6,1
2328,State-A,L,0,0,State-A,11,11,22,6,1
2329,State-A,L,0,0,State-A,11,11,22,6,1
2330,State-A,L,0,0,State-A,11,11,22,6,1
2331,State-A,L,0,0,State-A,11,11,22,6,1
2332,State-A,U,0,0,State-A,11,11,22,6,1
2333,State-A,L,0,0,State-A,11,11,22,6,1
2334,State-A,R,1,1,State-B,11,11,22,6,1
2335,State-B,U,0,0,State-B,11,11,22,6,1
2336,State-B,U,0,0,State-B,11,11,22,6,1
2337,State-B,L,1,1,State-A,11,11,22,6,1
2338,State-A,R,1,1,State-B,11,11,22,6,1
2339,State-B,L,1,1,State-A,11,11,22,6,1
2340,State-A,R,1,1,State-B,11,11,22,6,1
2341,State-B,U,0,0,State-B,11,11,22,6,1
2342,State-B,L,1,1,State-A,11,11,22,6,1
2343,State-A,R,1,1,State-B,11,11,22,6,1
2344,State-B,L,1,1,State-A,11,11,22,6,1
2345,State-A,R,1,1,State-B,11,11,22,6,1
2346,State-B,U,0,0,State-B,11,11,22,6,1
2347,State-B,U,0,0,State-B,11,11,22,6,1
2348,State-B,L,1,1,State-A,11,11,22,6,1
2349,State-A,U,0,0,State-A,11,11,22,6,1
2350,State-A,U,0,0,State-A,11,11,22,6,1
2351,State-A,U,0,0,State-A,11,11,22,6,1
2352,State-A,R,1,1,State-B,11,11,22,6,1
2353,State-B,R,0,0,State-B,11,11,22,6,1
2354,State-B,U,0,0,State-B,11,11,22,6,1
2355,State-B,R,0,0,State-B,11,11,22,6,1
2356,State-B,U,0,0,State-B,11,11,22,6,1
2357,State-B,L,1,1,State-A,11,11,22,6,1
2358,State-A,L,0,0,State-A,11,11,22,6,1
2359,State-A,R,1,1,State-B,11,11,22,6,1
2360,State-B,L,1,1,State-A,11,11,22,6,1
2361,State-A,R,1,1,State-B,11,11,22,6,1
2362,State-B,R,0,0,State-B,11,11,22,6,1
2363,State-B,U,0,0,State-B,11,11,22,6,1
2364,State-B,U,0,0,State-B,11,11,22,6,1
2365,State-B,R,0,0,State-B,11,11,22,6,1
2366,State-B,L,1,1,State-A,11,11,22,6,1
2367,State-A,U,0,0,State-A,11,11,22,6,1
2368,State-A,R,1,1,State-B,11,11,22,6,1
2369,State-B,L,1,1,State-A,11,11,22,6,1
2370,State-A,L,0,0,State-A,11,11,22,6,1
2371,State-A,R,1,1,State-B,11,11,22,6,1
2372,State-B,R,0,0,State-B,11,11,22,6,1
2373,State-B,R,0,0,State-B,11,11,22,6,1
2374,State-B,R,0,0,State-B,11,11,22,6,1
2375,State-B,R,0,0,State-B,11,11,22,6,1
2376,State-B,R,0,0,State-B,11,11,22,6,1
2377,State-B,L,1,1,State-A,11,11,22,6,1
2378,State-A,R,1,1,State-B,11,11,22,6,1
2379,State-B,L,1,1,State-A,11,11,22,6,1
2380,State-A,U,0,0,State-A,11,11,22,6,1
2381,State-A,U,0,0,State-A,11,11,22,6,1
2382,State-A,L,0,0,State-A,11,11,22,6,1
2383,State-A,L,0,0,State-A,11,11,22,6,1
2384,State-A,L,0,0,State-A,11,11,22,6,1
2385,State-A,R,1,1,State-B,11,11,22,6,1
2386,State-B,R,0,0,State-B,11,11,22,6,1
2387,State-B,U,0,0,State-B,11,11,22,6,1
2388,State-B,R,0,0,State-B,11,11,22,6,1
2389,State-B,R,0,0,State-B,11,11,22,6,1
2390,State-B,L,1,1,State-A,11,11,22,6,1
2391,State-A,L,0,0,State-A,11,11,22,6,1
2392,State-A,U,0,0,State-A,11,11,22,6,1
2393,State-A,L,0,0,State-A,11,11,22,6,1
2394,State-A,L,0,0,State-A,11,11,22,6,1
2395,State-A,L,0,0,State-A,11,11,22,6,1
2396,State-A,R,1,1,State-B,11,11,22,6,1
2397,State-B,R,0,0,State-B,11,11,22,6,1
2398,State-B,R,0,0,State-B,11,11,22,6,1
2399,State-B,R,0,0,State-B,11,11,22,6,1
2400,State-B,R,0,0,State-B,11,11,22,6,1
2401,State-B,L,1,1,State-A,11,11,22,6,1
2402,State-A,U,0,0,State-A,11,11,22,6,1
2403,State-A,R,1,1,State-B,11,11,22,6,1
2404,State-B,R,0,0,State-B,11,11,22,6,1
2405,State-B,L,1,1,State-A,11,11,22,6,1
2406,State-A,R,1,1,State-B,11,11,22,6,1
2407,State-B,U,0,0,State-B,11,11,22,6,1
2408,State-B,L,1,1,State-A,11,11,22,6,1
2409,State-A,R,1,1,State-B,11,11,22,6,1
2410,State-B,U,0,0,State-B,11,11,22,6,1
2411,State-B,R,0,0,State-B,11,11,22,6,1
2412,State-B,R,0,0,State-B,11,11,22,6,1
2413,State-B,L,1,1,State-A,11,11,22,6,1
2414,State-A,L,0,0,State-A,11,11,22,6,1
2415,State-A,L,0,0,State-A,11,11,22,6,1
2416,State-A,R,1,1,State-B,11,11,22,6,1
2417,State-B,R,0,0,State-B,11,11,22,6,1
2418,State-B,U,0,0,State-B,11,11,22,6,1
2419,State-B,L,1,1,State-A,11,11,22,6,1
2420,State-A,L,0,0,State-A,11,11,22,6,1
2421,State-A,U,0,0,State-A,11,11,22,6,1
2422,State-A,R,1,1,State-B,11,11,22,6,1
2423,State-B,U,0,0,State-B,11,11,22,6,1
2424,State-B,U,0,0,State-B,11,11,22,6,1
2425,State-B,L,1,1,State-A,11,11,22,6,1
2426,State-A,L,0,0,State-A,11,11,22,6,1
2427,State-A,R,1,1,State-B,11,11,22,6,1
2428,State-B,R,0,0,State-B,11,11,22,6,1
2429,State-B,R,0,0,State-B,11,11,22,6,1
2430,State-B,L,1,1,State-A,11,11,22,6,1
2431,State-A,L,0,0,State-A,11,11,22,6,1
2432,State-A,U,0,0,State-A,11,11,22,6,1
2433,State-A,L,0,0,State-A,11,11,22,6,1
2434,State-A,L,0,0,State-A,11,11,22,6,1
2435,State-A,L,0,0,State-A,11,11,22,6,1
2436,State-A,R,1,1,State-B,11,11,22,6,1
2437,State-B,R,0,0,State-B,11,11,22,6,1
2438,State-B,U,0,0,State-B,11,11,22,6,1
2439,State-B,L,1,1,State-A,11,11,22,6,1
2440,State-A,R,1,1,State-B,11,11,22,6,1
2441,State-B,L,1,1,State-A,11,11,22,6,1
2442,State-A,U,0,0,State-A,11,11,22,6,1
2443,State-A,R,1,1,State-B,11,11,22,6,1
2444,State-B,U,0,0,State-B,11,11,22,6,1
2445,State-B,L,1,1,State-A,11,11,22,6,1
2446,State-A,U,0,0,State-A,11,11,22,6,1
2447,State-A,R,1,1,State-B,11,11,22,6,1
2448,State-B,R,0,0,State-B,11,11,22,6,1
2449,State-B,U,0,0,State-B,11,11,22,6,1
2450,State-B,R,0,0,State-B,11,11,22,6,1
2451,State-B,L,1,1,State-A,11,11,22,6,1
2452,State-A,R,1,1,State-B,11,11,22,6,1
2453,State-B,L,1,1,State-A,11,11,22,6,1
2454,State-A,R,1,1,State-B,11,11,22,6,1
2455,State-B,R,0,0,State-B,11,11,22,6,1
2456,State-B,U,0,0,State-B,11,11,22,6,1
2457,State-B,R,0,0,State-B,11,11,22,6,1
2458,State-B,L,1,1,State-A,11,11,22,6,1
2459,State-A,L,0,0,State-A,11,11,22,6,1
2460,State-A,R,1,1,State-B,11,11,22,6,1
2461,State-B,L,1,1,State-A,11,11,22,6,1
2462,State-A,L,0,0,State-A,11,11,22,6,1
2463,State-A,U,0,0,State-A,11,11,22,6,1
2464,State-A,L,0,0,State-A,11,11,22,6,1
2465,State-A,U,0,0,State-A,11,11,22,6,1
2466,State-A,R,1,1,State-B,11,11,22,6,1
2467,State-B,U,0,0,State-B,11,11,22,6,1
2468,State-B,U,0,0,State-B,11,11,22,6,1
2469,State-B,L,1,1,State-A,11,11,22,6,1
2470,State-A,R,1,1,State-B,11,11,22,6,1
2471,State-B,L,1,1,State-A,11,11,22,6,1
2472,State-A,R,1,1,State-B,11,11,22,6,1
2473,State-B,U,0,0,State-B,11,11,22,6,1
2474,State-B,L,1,1,State-A,11,11,22,6,1
2475,State-A,L,0,0,State-A,11,11,22,6,1
2476,State-A,L,0,0,State-A,11,11,22,6,1
2477,State-A,U,0,0,State-A,11,11,22,6,1
2478,State-A,U,0,0,State-A,11,11,22,6,1
2479,State-A,R,1,1,State-B,11,11,22,6,1
2480,State-B,R,0,0,State-B,11,11,22,6,1
2481,State-B,L,1,1,State-A,11,11,22,6,1
2482,State-A,R,1,1,State-B,11,11,22,6,1
2483,State-B,U,0,0,State-B,11,11,22,6,1
2484,State-B,U,0,0,State-B,11,11,22,6,1
2485,State-B,L,1,1,State-A,11,11,22,6,1
2486,State-A,R,1,1,State-B,11,11,22,6,1
2487,State-B,U,0,0,State-B,11,11,22,6,1
2488,State-B,R,0,0,State-B,11,11,22,6,1
2489,State-B,U,0,0,State-B,11,11,22,6,1
2490,State-B,R,0,0,State-B,11,11,22,6,1
2491,State-B,U,0,0,State-B,11,11,22,6,1
2492,State-B,R,0,0,State-B,11,11,22,6,1
2493,State-B,R,0,0,State-B,11,11,22,6,1
2494,State-B,L,1,1,State-A,11,11,22,6,1
2495,State-A,L,0,0,State-A,11,11,22,6,1
2496,State-A,R,1,1,State-B,11,11,22,6,1
2497,State-B,U,0,0,State-B,11,11,22,6,1
2498,State-B,L,1,1,State-A,11,11,22,6,1
2499,State-A,R,1,1,State-B,11,11,22,6,1
2500,State-B,L,1,1,State-A,11,11,22,6,1
