decision-cycle,state,dir,prediction,outcome,next-state,predict-yes-rulecount,predict-no-rulecount,total-rulecount,template-count,template-depth
1,0,2,1,0,0,1,1,2,2,0
2,0,2,0,0,0,1,1,2,2,0
3,0,1,1,1,1,2,2,4,2,0
4,1,0,1,1,0,3,3,6,2,0
5,0,1,1,1,1,3,3,6,2,0
6,1,1,1,0,1,3,3,6,2,0
7,1,2,0,0,1,3,3,6,2,0
8,1,0,1,1,0,3,3,6,2,0
9,0,1,1,1,1,3,3,6,2,0
10,1,1,1,0,1,3,3,6,2,0
11,1,2,0,0,1,3,3,6,2,0
12,1,1,0,0,1,3,3,6,2,0
13,1,0,0,1,0,3,3,6,2,0
14,0,2,0,0,0,3,3,6,2,0
15,0,1,0,1,1,3,3,6,2,0
16,1,0,1,1,0,3,3,6,2,0
17,0,2,0,0,0,3,3,6,2,0
18,0,2,0,0,0,3,3,6,2,0
19,0,2,0,0,0,3,3,6,2,0
20,0,2,0,0,0,3,3,6,2,0
21,0,0,1,0,0,3,3,6,2,0
22,0,2,0,0,0,3,3,6,2,0
23,0,2,0,0,0,3,3,6,2,0
24,0,2,0,0,0,3,3,6,2,0
25,0,1,0,1,1,3,3,6,2,0
26,1,0,1,1,0,3,3,6,2,0
27,0,1,1,1,1,3,3,6,2,0
28,1,1,1,0,1,3,3,6,2,0
29,1,2,1,0,1,3,3,6,2,0
30,1,2,0,0,1,3,3,6,2,0
31,1,1,1,0,1,3,3,6,2,0
32,1,2,0,0,1,3,3,6,2,0
33,1,0,1,1,0,3,3,6,2,0
34,0,2,0,0,0,3,3,6,2,0
35,0,1,1,1,1,3,3,6,2,0
36,1,0,1,1,0,3,3,6,2,0
37,0,2,0,0,0,3,3,6,2,0
38,0,1,1,1,1,3,3,6,2,0
39,1,2,1,0,1,3,3,6,2,0
40,1,2,0,0,1,3,3,6,2,0
41,1,0,1,1,0,3,3,6,2,0
42,0,1,1,1,1,3,3,6,2,0
43,1,2,0,0,1,3,3,6,2,0
44,1,0,1,1,0,3,3,6,2,0
45,0,0,1,0,0,3,3,6,2,0
46,0,2,0,0,0,3,3,6,2,0
47,0,0,1,0,0,3,3,6,2,0
48,0,1,0,1,1,3,3,6,2,0
49,1,0,1,1,0,3,3,6,2,0
50,0,2,0,0,0,3,3,6,2,0
51,0,2,0,0,0,3,3,6,5,1
52,0,1,0,1,1,4,4,8,5,1
53,1,0,0,1,0,5,4,9,5,1
54,0,0,1,0,0,6,4,10,5,1
55,0,1,1,1,1,7,5,12,5,1
56,1,2,0,0,1,7,5,12,5,1
57,1,0,0,1,0,8,5,13,5,1
58,0,1,1,1,1,9,6,15,5,1
59,1,2,0,0,1,9,6,15,5,1
60,1,1,1,0,1,10,7,17,5,1
61,1,2,0,0,1,10,7,17,5,1
62,1,1,1,0,1,11,8,19,5,1
63,1,2,0,0,1,11,8,19,5,1
64,1,1,1,0,1,11,8,19,5,1
65,1,1,1,0,1,12,9,21,5,1
66,1,1,1,0,1,12,9,21,5,1
67,1,1,1,0,1,12,9,21,5,1
68,1,1,1,0,1,12,9,21,5,1
69,1,1,0,0,1,12,9,21,5,1
70,1,0,1,1,0,13,9,22,5,1
71,0,0,1,0,0,13,9,22,5,1
72,0,0,1,0,0,14,9,23,5,1
73,0,1,0,1,1,14,9,23,5,1
74,1,1,1,0,1,15,10,25,5,1
75,1,1,0,0,1,15,10,25,5,1
76,1,0,1,1,0,15,10,25,5,1
77,0,2,0,0,0,15,10,25,5,1
78,0,2,0,0,0,15,10,25,5,1
79,0,2,0,0,0,15,10,25,5,1
80,0,2,0,0,0,15,10,25,5,1
81,0,2,0,0,0,15,10,25,5,1
82,0,2,0,0,0,15,10,25,5,1
83,0,1,1,1,1,16,11,27,5,1
84,1,1,0,0,1,16,11,27,5,1
85,1,2,1,0,1,16,11,27,5,1
86,1,0,0,1,0,17,11,28,5,1
87,0,2,0,0,0,17,11,28,5,1
88,0,2,0,0,0,17,11,28,5,1
89,0,2,0,0,0,17,11,28,5,1
90,0,1,0,1,1,17,11,28,5,1
91,1,2,0,0,1,17,11,28,5,1
92,1,1,0,0,1,17,11,28,5,1
93,1,1,0,0,1,17,11,28,5,1
94,1,1,1,0,1,17,11,28,5,1
95,1,2,1,0,1,17,11,28,5,1
96,1,2,0,0,1,17,11,28,5,1
97,1,2,0,0,1,17,11,28,5,1
98,1,0,1,1,0,18,11,29,5,1
99,0,1,1,1,1,18,11,29,5,1
100,1,1,0,0,1,18,11,29,5,1
101,1,1,0,0,1,18,11,29,5,1
102,1,2,0,0,1,3,3,6,5,1
103,1,0,0,1,0,4,3,7,5,1
104,0,2,0,0,0,4,3,7,5,1
105,0,0,1,0,0,5,3,8,5,1
106,0,0,1,0,0,6,3,9,5,1
107,0,2,0,0,0,6,3,9,5,1
108,0,0,1,0,0,6,3,9,5,1
109,0,2,0,0,0,6,3,9,5,1
110,0,0,1,0,0,6,3,9,5,1
111,0,0,1,0,0,6,3,9,5,1
112,0,2,0,0,0,6,3,9,5,1
113,0,0,1,0,0,6,3,9,5,1
114,0,1,0,1,1,7,4,11,5,1
115,1,2,0,0,1,7,4,11,5,1
116,1,1,0,0,1,8,5,13,5,1
117,1,2,0,0,1,8,5,13,5,1
118,1,0,1,1,0,8,5,13,5,1
119,0,1,0,1,1,9,6,15,5,1
120,1,1,1,0,1,9,6,15,5,1
121,1,1,0,0,1,10,7,17,5,1
122,1,1,0,0,1,10,7,17,5,1
123,1,1,1,0,1,10,7,17,5,1
124,1,2,0,0,1,10,7,17,5,1
125,1,0,1,1,0,10,7,17,5,1
126,0,0,1,0,0,10,7,17,5,1
127,0,2,0,0,0,10,7,17,5,1
128,0,0,1,0,0,10,7,17,5,1
129,0,0,1,0,0,10,7,17,5,1
130,0,0,1,0,0,10,7,17,5,1
131,0,2,0,0,0,10,7,17,5,1
132,0,2,0,0,0,10,7,17,5,1
133,0,0,1,0,0,10,7,17,5,1
134,0,1,0,1,1,10,7,17,5,1
135,1,0,1,1,0,11,7,18,5,1
136,0,0,1,0,0,11,7,18,5,1
137,0,0,0,0,0,11,7,18,5,1
138,0,1,0,1,1,11,7,18,5,1
139,1,1,0,0,1,11,7,18,5,1
140,1,0,1,1,0,11,7,18,5,1
141,0,1,0,1,1,11,7,18,5,1
142,1,0,1,1,0,11,7,18,5,1
143,0,0,0,0,0,11,7,18,5,1
144,0,2,0,0,0,11,7,18,5,1
145,0,0,0,0,0,11,7,18,5,1
146,0,1,0,1,1,11,7,18,5,1
147,1,2,0,0,1,11,7,18,5,1
148,1,2,0,0,1,11,7,18,5,1
149,1,2,0,0,1,11,7,18,5,1
150,1,0,1,1,0,11,7,18,5,1
151,0,2,0,0,0,11,7,18,5,1
152,0,2,0,0,0,11,7,18,5,1
153,0,0,0,0,0,11,7,18,5,1
154,0,2,0,0,0,11,7,18,5,1
155,0,2,0,0,0,11,7,18,5,1
156,0,1,0,1,1,11,7,18,5,1
157,1,0,1,1,0,11,7,18,5,1
158,0,1,0,1,1,11,7,18,5,1
159,1,1,0,0,1,11,7,18,5,1
160,1,0,1,1,0,11,7,18,5,1
161,0,1,0,1,1,11,7,18,5,1
162,1,1,0,0,1,11,7,18,5,1
163,1,1,0,0,1,11,7,18,5,1
164,1,1,0,0,1,11,7,18,5,1
165,1,0,1,1,0,11,7,18,5,1
166,0,1,0,1,1,11,7,18,5,1
167,1,2,0,0,1,11,7,18,5,1
168,1,0,1,1,0,11,7,18,5,1
169,0,1,0,1,1,11,7,18,5,1
170,1,0,1,1,0,11,7,18,5,1
171,0,2,0,0,0,11,7,18,5,1
172,0,1,1,1,1,11,7,18,5,1
173,1,0,1,1,0,11,7,18,5,1
174,0,0,0,0,0,11,7,18,5,1
175,0,0,0,0,0,11,7,18,5,1
176,0,2,0,0,0,11,7,18,5,1
177,0,1,1,1,1,11,7,18,5,1
178,1,0,1,1,0,11,7,18,5,1
179,0,1,1,1,1,11,7,18,5,1
180,1,2,0,0,1,11,7,18,5,1
181,1,1,0,0,1,11,7,18,5,1
182,1,1,0,0,1,11,7,18,5,1
183,1,2,0,0,1,11,7,18,5,1
184,1,1,0,0,1,11,7,18,5,1
185,1,1,0,0,1,11,7,18,5,1
186,1,1,0,0,1,11,7,18,5,1
187,1,0,1,1,0,11,7,18,5,1
188,0,0,0,0,0,11,7,18,5,1
189,0,1,1,1,1,11,7,18,5,1
190,1,0,1,1,0,11,7,18,5,1
191,0,1,1,1,1,11,7,18,5,1
192,1,1,0,0,1,11,7,18,5,1
193,1,2,0,0,1,11,7,18,5,1
194,1,1,0,0,1,11,7,18,5,1
195,1,1,0,0,1,11,7,18,5,1
196,1,1,0,0,1,11,7,18,5,1
197,1,2,0,0,1,11,7,18,5,1
198,1,1,0,0,1,11,7,18,5,1
199,1,1,0,0,1,11,7,18,5,1
200,1,0,1,1,0,11,7,18,5,1
201,0,1,1,1,1,11,7,18,5,1
202,1,0,1,1,0,11,7,18,5,1
203,0,0,0,0,0,11,7,18,5,1
204,0,1,1,1,1,11,7,18,5,1
205,1,1,0,0,1,11,7,18,5,1
206,1,1,0,0,1,11,7,18,5,1
207,1,2,0,0,1,11,7,18,5,1
208,1,2,0,0,1,11,7,18,5,1
209,1,1,0,0,1,11,7,18,5,1
210,1,0,1,1,0,11,7,18,5,1
211,0,1,1,1,1,11,7,18,5,1
212,1,2,0,0,1,11,7,18,5,1
213,1,2,0,0,1,11,7,18,5,1
214,1,2,0,0,1,11,7,18,5,1
215,1,0,1,1,0,11,7,18,5,1
216,0,2,0,0,0,11,7,18,5,1
217,0,1,1,1,1,11,7,18,5,1
218,1,0,1,1,0,11,7,18,5,1
219,0,2,1,0,0,11,7,18,5,1
220,0,2,0,0,0,11,7,18,5,1
221,0,1,1,1,1,11,7,18,5,1
222,1,2,0,0,1,11,7,18,5,1
223,1,0,1,1,0,11,7,18,5,1
224,0,0,0,0,0,11,7,18,5,1
225,0,2,0,0,0,11,7,18,5,1
226,0,0,0,0,0,11,7,18,5,1
227,0,2,0,0,0,11,7,18,5,1
228,0,1,1,1,1,11,7,18,5,1
229,1,0,1,1,0,11,7,18,5,1
230,0,0,0,0,0,11,7,18,5,1
231,0,1,0,1,1,11,7,18,5,1
232,1,2,0,0,1,11,7,18,5,1
233,1,0,1,1,0,11,7,18,5,1
234,0,2,0,0,0,11,7,18,5,1
235,0,0,0,0,0,11,7,18,5,1
236,0,2,0,0,0,11,7,18,5,1
237,0,1,1,1,1,11,7,18,5,1
238,1,0,1,1,0,11,7,18,5,1
239,0,0,0,0,0,11,7,18,5,1
240,0,1,1,1,1,11,7,18,5,1
241,1,2,0,0,1,11,7,18,5,1
242,1,2,0,0,1,11,7,18,5,1
243,1,0,1,1,0,11,7,18,5,1
244,0,1,1,1,1,11,7,18,5,1
245,1,1,0,0,1,11,7,18,5,1
246,1,1,0,0,1,11,7,18,5,1
247,1,2,0,0,1,11,7,18,5,1
248,1,0,1,1,0,11,7,18,5,1
249,0,0,0,0,0,11,7,18,5,1
250,0,0,0,0,0,11,7,18,5,1
251,0,2,0,0,0,11,7,18,5,1
252,0,1,1,1,1,11,7,18,5,1
253,1,2,0,0,1,11,7,18,5,1
254,1,2,0,0,1,11,7,18,5,1
255,1,2,0,0,1,11,7,18,5,1
256,1,0,1,1,0,11,7,18,5,1
257,0,2,0,0,0,11,7,18,5,1
258,0,2,0,0,0,11,7,18,5,1
259,0,1,1,1,1,11,7,18,5,1
260,1,2,1,0,1,11,7,18,5,1
261,1,2,0,0,1,11,7,18,5,1
262,1,1,0,0,1,11,7,18,5,1
263,1,1,0,0,1,11,7,18,5,1
264,1,1,0,0,1,11,7,18,5,1
265,1,0,1,1,0,11,7,18,5,1
266,0,1,1,1,1,11,7,18,5,1
267,1,0,0,1,0,11,7,18,5,1
268,0,0,0,0,0,11,7,18,5,1
269,0,1,1,1,1,11,7,18,5,1
270,1,2,0,0,1,11,7,18,5,1
271,1,2,0,0,1,11,7,18,5,1
272,1,1,1,0,1,11,7,18,5,1
273,1,1,0,0,1,11,7,18,5,1
274,1,0,1,1,0,11,7,18,5,1
275,0,0,0,0,0,11,7,18,5,1
276,0,2,0,0,0,11,7,18,5,1
277,0,0,0,0,0,11,7,18,5,1
278,0,1,1,1,1,11,7,18,5,1
279,1,1,0,0,1,11,7,18,5,1
280,1,0,1,1,0,11,7,18,5,1
281,0,1,1,1,1,11,7,18,5,1
282,1,0,0,1,0,11,7,18,5,1
283,0,0,1,0,0,11,7,18,5,1
284,0,0,0,0,0,11,7,18,5,1
285,0,1,1,1,1,11,7,18,5,1
286,1,0,1,1,0,11,7,18,5,1
287,0,1,1,1,1,11,7,18,5,1
288,1,0,1,1,0,11,7,18,5,1
289,0,1,1,1,1,11,7,18,5,1
290,1,0,1,1,0,11,7,18,5,1
291,0,2,0,0,0,11,7,18,5,1
292,0,1,1,1,1,11,7,18,5,1
293,1,2,1,0,1,11,7,18,5,1
294,1,2,1,0,1,11,7,18,5,1
295,1,1,0,0,1,11,7,18,5,1
296,1,1,0,0,1,11,7,18,5,1
297,1,2,0,0,1,11,7,18,5,1
298,1,1,0,0,1,11,7,18,5,1
299,1,0,1,1,0,11,7,18,5,1
300,0,2,0,0,0,11,7,18,5,1
301,0,2,0,0,0,11,7,18,5,1
302,0,2,0,0,0,11,7,18,5,1
303,0,1,1,1,1,11,7,18,5,1
304,1,1,0,0,1,11,7,18,5,1
305,1,2,0,0,1,11,7,18,5,1
306,1,1,0,0,1,11,7,18,5,1
307,1,0,1,1,0,11,7,18,5,1
308,0,0,0,0,0,11,7,18,5,1
309,0,2,0,0,0,11,7,18,5,1
310,0,0,0,0,0,11,7,18,5,1
311,0,0,0,0,0,11,7,18,5,1
312,0,1,1,1,1,11,7,18,5,1
313,1,1,0,0,1,11,7,18,5,1
314,1,1,0,0,1,11,7,18,5,1
315,1,1,0,0,1,11,7,18,5,1
316,1,1,0,0,1,11,7,18,5,1
317,1,2,0,0,1,11,7,18,5,1
318,1,1,0,0,1,11,7,18,5,1
319,1,1,0,0,1,11,7,18,5,1
320,1,2,0,0,1,11,7,18,5,1
321,1,0,1,1,0,11,7,18,5,1
322,0,2,0,0,0,11,7,18,5,1
323,0,1,1,1,1,11,7,18,5,1
324,1,1,0,0,1,11,7,18,5,1
325,1,0,1,1,0,11,7,18,5,1
326,0,2,0,0,0,11,7,18,5,1
327,0,2,1,0,0,11,7,18,5,1
328,0,2,0,0,0,11,7,18,5,1
329,0,1,1,1,1,11,7,18,5,1
330,1,2,0,0,1,11,7,18,5,1
331,1,0,1,1,0,11,7,18,5,1
332,0,1,1,1,1,11,7,18,5,1
333,1,0,1,1,0,11,7,18,5,1
334,0,0,0,0,0,11,7,18,5,1
335,0,2,0,0,0,11,7,18,5,1
336,0,0,0,0,0,11,7,18,5,1
337,0,0,0,0,0,11,7,18,5,1
338,0,0,0,0,0,11,7,18,5,1
339,0,1,1,1,1,11,7,18,5,1
340,1,1,0,0,1,11,7,18,5,1
341,1,0,1,1,0,11,7,18,5,1
342,0,2,0,0,0,11,7,18,5,1
343,0,2,0,0,0,11,7,18,5,1
344,0,0,0,0,0,11,7,18,5,1
345,0,1,1,1,1,11,7,18,5,1
346,1,2,0,0,1,11,7,18,5,1
347,1,2,0,0,1,11,7,18,5,1
348,1,1,0,0,1,11,7,18,5,1
349,1,2,0,0,1,11,7,18,5,1
350,1,0,1,1,0,11,7,18,5,1
351,0,1,1,1,1,11,7,18,5,1
352,1,1,0,0,1,11,7,18,5,1
353,1,2,0,0,1,11,7,18,5,1
354,1,0,1,1,0,11,7,18,5,1
355,0,1,0,1,1,11,7,18,5,1
356,1,0,1,1,0,11,7,18,5,1
357,0,1,1,1,1,11,7,18,5,1
358,1,2,0,0,1,11,7,18,5,1
359,1,2,0,0,1,11,7,18,5,1
360,1,2,0,0,1,11,7,18,5,1
361,1,0,1,1,0,11,7,18,5,1
362,0,0,0,0,0,11,7,18,5,1
363,0,0,0,0,0,11,7,18,5,1
364,0,2,0,0,0,11,7,18,5,1
365,0,2,0,0,0,11,7,18,5,1
366,0,1,1,1,1,11,7,18,5,1
367,1,2,0,0,1,11,7,18,5,1
368,1,2,1,0,1,11,7,18,5,1
369,1,0,1,1,0,11,7,18,5,1
370,0,0,0,0,0,11,7,18,5,1
371,0,2,0,0,0,11,7,18,5,1
372,0,0,0,0,0,11,7,18,5,1
373,0,0,0,0,0,11,7,18,5,1
374,0,0,0,0,0,11,7,18,5,1
375,0,0,0,0,0,11,7,18,5,1
376,0,2,0,0,0,11,7,18,5,1
377,0,0,0,0,0,11,7,18,5,1
378,0,0,0,0,0,11,7,18,5,1
379,0,0,0,0,0,11,7,18,5,1
380,0,1,1,1,1,11,7,18,5,1
381,1,2,0,0,1,11,7,18,5,1
382,1,1,0,0,1,11,7,18,5,1
383,1,2,0,0,1,11,7,18,5,1
384,1,1,0,0,1,11,7,18,5,1
385,1,1,0,0,1,11,7,18,5,1
386,1,2,0,0,1,11,7,18,5,1
387,1,2,0,0,1,11,7,18,5,1
388,1,2,0,0,1,11,7,18,5,1
389,1,2,0,0,1,11,7,18,5,1
390,1,2,0,0,1,11,7,18,5,1
391,1,2,0,0,1,11,7,18,5,1
392,1,0,0,1,0,11,7,18,5,1
393,0,1,1,1,1,11,7,18,5,1
394,1,1,0,0,1,11,7,18,5,1
395,1,2,0,0,1,11,7,18,5,1
396,1,1,0,0,1,11,7,18,5,1
397,1,2,0,0,1,11,7,18,5,1
398,1,1,0,0,1,11,7,18,5,1
399,1,1,0,0,1,11,7,18,5,1
400,1,2,0,0,1,11,7,18,5,1
401,1,2,0,0,1,11,7,18,5,1
402,1,1,0,0,1,11,7,18,5,1
403,1,0,1,1,0,11,7,18,5,1
404,0,0,0,0,0,11,7,18,5,1
405,0,1,1,1,1,11,7,18,5,1
406,1,0,1,1,0,11,7,18,5,1
407,0,0,1,0,0,11,7,18,5,1
408,0,2,0,0,0,11,7,18,5,1
409,0,2,0,0,0,11,7,18,5,1
410,0,0,0,0,0,11,7,18,5,1
411,0,1,1,1,1,11,7,18,5,1
412,1,2,0,0,1,11,7,18,5,1
413,1,0,1,1,0,11,7,18,5,1
414,0,1,1,1,1,11,7,18,5,1
415,1,0,1,1,0,11,7,18,5,1
416,0,0,0,0,0,11,7,18,5,1
417,0,2,0,0,0,11,7,18,5,1
418,0,0,0,0,0,11,7,18,5,1
419,0,0,0,0,0,11,7,18,5,1
420,0,1,1,1,1,11,7,18,5,1
421,1,1,0,0,1,11,7,18,5,1
422,1,2,1,0,1,11,7,18,5,1
423,1,2,0,0,1,11,7,18,5,1
424,1,2,0,0,1,11,7,18,5,1
425,1,0,0,1,0,11,7,18,5,1
426,0,2,0,0,0,11,7,18,5,1
427,0,1,1,1,1,11,7,18,5,1
428,1,1,0,0,1,11,7,18,5,1
429,1,1,0,0,1,11,7,18,5,1
430,1,0,0,1,0,11,7,18,5,1
431,0,1,1,1,1,11,7,18,5,1
432,1,0,1,1,0,11,7,18,5,1
433,0,0,0,0,0,11,7,18,5,1
434,0,1,0,1,1,11,7,18,5,1
435,1,1,0,0,1,11,7,18,5,1
436,1,0,1,1,0,11,7,18,5,1
437,0,1,1,1,1,11,7,18,5,1
438,1,1,0,0,1,11,7,18,5,1
439,1,1,0,0,1,11,7,18,5,1
440,1,2,1,0,1,11,7,18,5,1
441,1,1,0,0,1,11,7,18,5,1
442,1,2,0,0,1,11,7,18,5,1
443,1,1,0,0,1,11,7,18,5,1
444,1,1,0,0,1,11,7,18,5,1
445,1,1,0,0,1,11,7,18,5,1
446,1,1,0,0,1,11,7,18,5,1
447,1,0,1,1,0,11,7,18,5,1
448,0,2,0,0,0,11,7,18,5,1
449,0,1,1,1,1,11,7,18,5,1
450,1,2,0,0,1,11,7,18,5,1
451,1,0,1,1,0,11,7,18,5,1
452,0,2,0,0,0,11,7,18,5,1
453,0,2,0,0,0,11,7,18,5,1
454,0,2,0,0,0,11,7,18,5,1
455,0,2,0,0,0,11,7,18,5,1
456,0,2,0,0,0,11,7,18,5,1
457,0,2,0,0,0,11,7,18,5,1
458,0,1,1,1,1,11,7,18,5,1
459,1,2,0,0,1,11,7,18,5,1
460,1,0,1,1,0,11,7,18,5,1
461,0,2,0,0,0,11,7,18,5,1
462,0,1,1,1,1,11,7,18,5,1
463,1,2,0,0,1,11,7,18,5,1
464,1,1,0,0,1,11,7,18,5,1
465,1,2,0,0,1,11,7,18,5,1
466,1,0,1,1,0,11,7,18,5,1
467,0,0,0,0,0,11,7,18,5,1
468,0,2,0,0,0,11,7,18,5,1
469,0,1,1,1,1,11,7,18,5,1
470,1,2,0,0,1,11,7,18,5,1
471,1,2,0,0,1,11,7,18,5,1
472,1,1,0,0,1,11,7,18,5,1
473,1,1,0,0,1,11,7,18,5,1
474,1,0,1,1,0,11,7,18,5,1
475,0,0,0,0,0,11,7,18,5,1
476,0,2,0,0,0,11,7,18,5,1
477,0,2,0,0,0,11,7,18,5,1
478,0,2,0,0,0,11,7,18,5,1
479,0,2,0,0,0,11,7,18,5,1
480,0,1,1,1,1,11,7,18,5,1
481,1,0,1,1,0,11,7,18,5,1
482,0,0,0,0,0,11,7,18,5,1
483,0,1,1,1,1,11,7,18,5,1
484,1,1,0,0,1,11,7,18,5,1
485,1,2,0,0,1,11,7,18,5,1
486,1,2,0,0,1,11,7,18,5,1
487,1,1,0,0,1,11,7,18,5,1
488,1,0,1,1,0,11,7,18,5,1
489,0,2,0,0,0,11,7,18,5,1
490,0,2,1,0,0,11,7,18,5,1
491,0,0,0,0,0,11,7,18,5,1
492,0,1,1,1,1,11,7,18,5,1
493,1,2,0,0,1,11,7,18,5,1
494,1,0,1,1,0,11,7,18,5,1
495,0,2,0,0,0,11,7,18,5,1
496,0,2,0,0,0,11,7,18,5,1
497,0,2,0,0,0,11,7,18,5,1
498,0,0,0,0,0,11,7,18,5,1
499,0,0,0,0,0,11,7,18,5,1
500,0,1,1,1,1,11,7,18,5,1
501,1,0,1,1,0,11,7,18,5,1
502,0,1,1,1,1,11,7,18,5,1
503,1,0,1,1,0,11,7,18,5,1
504,0,2,0,0,0,11,7,18,5,1
505,0,2,0,0,0,11,7,18,5,1
506,0,0,0,0,0,11,7,18,5,1
507,0,2,0,0,0,11,7,18,5,1
508,0,0,0,0,0,11,7,18,5,1
509,0,0,0,0,0,11,7,18,5,1
510,0,2,0,0,0,11,7,18,5,1
511,0,2,0,0,0,11,7,18,5,1
512,0,0,0,0,0,11,7,18,5,1
513,0,0,0,0,0,11,7,18,5,1
514,0,1,1,1,1,11,7,18,5,1
515,1,0,1,1,0,11,7,18,5,1
516,0,1,1,1,1,11,7,18,5,1
517,1,2,0,0,1,11,7,18,5,1
518,1,0,1,1,0,11,7,18,5,1
519,0,0,0,0,0,11,7,18,5,1
520,0,1,1,1,1,11,7,18,5,1
521,1,2,0,0,1,11,7,18,5,1
522,1,0,1,1,0,11,7,18,5,1
523,0,2,0,0,0,11,7,18,5,1
524,0,1,0,1,1,11,7,18,5,1
525,1,1,0,0,1,11,7,18,5,1
526,1,0,0,1,0,11,7,18,5,1
527,0,2,0,0,0,11,7,18,5,1
528,0,2,0,0,0,11,7,18,5,1
529,0,1,1,1,1,11,7,18,5,1
530,1,0,1,1,0,11,7,18,5,1
531,0,2,0,0,0,11,7,18,5,1
532,0,0,1,0,0,11,7,18,5,1
533,0,1,1,1,1,11,7,18,5,1
534,1,0,1,1,0,11,7,18,5,1
535,0,2,0,0,0,11,7,18,5,1
536,0,2,0,0,0,11,7,18,5,1
537,0,2,0,0,0,11,7,18,5,1
538,0,0,0,0,0,11,7,18,5,1
539,0,0,0,0,0,11,7,18,5,1
540,0,2,0,0,0,11,7,18,5,1
541,0,0,0,0,0,11,7,18,5,1
542,0,1,1,1,1,11,7,18,5,1
543,1,0,1,1,0,11,7,18,5,1
544,0,0,0,0,0,11,7,18,5,1
545,0,0,0,0,0,11,7,18,5,1
546,0,0,0,0,0,11,7,18,5,1
547,0,0,0,0,0,11,7,18,5,1
548,0,1,1,1,1,11,7,18,5,1
549,1,1,0,0,1,11,7,18,5,1
550,1,2,0,0,1,11,7,18,5,1
551,1,0,0,1,0,11,7,18,5,1
552,0,1,1,1,1,11,7,18,5,1
553,1,1,0,0,1,11,7,18,5,1
554,1,0,1,1,0,11,7,18,5,1
555,0,1,1,1,1,11,7,18,5,1
556,1,1,0,0,1,11,7,18,5,1
557,1,2,0,0,1,11,7,18,5,1
558,1,0,1,1,0,11,7,18,5,1
559,0,1,1,1,1,11,7,18,5,1
560,1,1,0,0,1,11,7,18,5,1
561,1,2,0,0,1,11,7,18,5,1
562,1,0,1,1,0,11,7,18,5,1
563,0,0,0,0,0,11,7,18,5,1
564,0,0,0,0,0,11,7,18,5,1
565,0,1,1,1,1,11,7,18,5,1
566,1,2,0,0,1,11,7,18,5,1
567,1,2,0,0,1,11,7,18,5,1
568,1,0,1,1,0,11,7,18,5,1
569,0,1,1,1,1,11,7,18,5,1
570,1,2,0,0,1,11,7,18,5,1
571,1,2,0,0,1,11,7,18,5,1
572,1,1,0,0,1,11,7,18,5,1
573,1,1,0,0,1,11,7,18,5,1
574,1,2,0,0,1,11,7,18,5,1
575,1,1,0,0,1,11,7,18,5,1
576,1,0,1,1,0,11,7,18,5,1
577,0,1,1,1,1,11,7,18,5,1
578,1,2,0,0,1,11,7,18,5,1
579,1,0,1,1,0,11,7,18,5,1
580,0,1,1,1,1,11,7,18,5,1
581,1,1,0,0,1,11,7,18,5,1
582,1,1,1,0,1,11,7,18,5,1
583,1,0,1,1,0,11,7,18,5,1
584,0,0,0,0,0,11,7,18,5,1
585,0,2,0,0,0,11,7,18,5,1
586,0,1,1,1,1,11,7,18,5,1
587,1,0,1,1,0,11,7,18,5,1
588,0,0,0,0,0,11,7,18,5,1
589,0,2,0,0,0,11,7,18,5,1
590,0,1,1,1,1,11,7,18,5,1
591,1,1,0,0,1,11,7,18,5,1
592,1,0,1,1,0,11,7,18,5,1
593,0,2,0,0,0,11,7,18,5,1
594,0,1,1,1,1,11,7,18,5,1
595,1,2,0,0,1,11,7,18,5,1
596,1,2,0,0,1,11,7,18,5,1
597,1,0,1,1,0,11,7,18,5,1
598,0,2,0,0,0,11,7,18,5,1
599,0,0,0,0,0,11,7,18,5,1
600,0,2,0,0,0,11,7,18,5,1
601,0,0,0,0,0,11,7,18,5,1
602,0,2,0,0,0,11,7,18,5,1
603,0,0,0,0,0,11,7,18,5,1
604,0,0,0,0,0,11,7,18,5,1
605,0,1,1,1,1,11,7,18,5,1
606,1,1,0,0,1,11,7,18,5,1
607,1,1,0,0,1,11,7,18,5,1
608,1,0,1,1,0,11,7,18,5,1
609,0,0,0,0,0,11,7,18,5,1
610,0,0,0,0,0,11,7,18,5,1
611,0,2,0,0,0,11,7,18,5,1
612,0,2,0,0,0,11,7,18,5,1
613,0,1,1,1,1,11,7,18,5,1
614,1,0,1,1,0,11,7,18,5,1
615,0,2,0,0,0,11,7,18,5,1
616,0,0,0,0,0,11,7,18,5,1
617,0,1,1,1,1,11,7,18,5,1
618,1,1,0,0,1,11,7,18,5,1
619,1,0,1,1,0,11,7,18,5,1
620,0,2,0,0,0,11,7,18,5,1
621,0,0,0,0,0,11,7,18,5,1
622,0,1,1,1,1,11,7,18,5,1
623,1,0,1,1,0,11,7,18,5,1
624,0,1,1,1,1,11,7,18,5,1
625,1,1,0,0,1,11,7,18,5,1
626,1,1,0,0,1,11,7,18,5,1
627,1,1,0,0,1,11,7,18,5,1
628,1,1,0,0,1,11,7,18,5,1
629,1,1,0,0,1,11,7,18,5,1
630,1,1,0,0,1,11,7,18,5,1
631,1,2,0,0,1,11,7,18,5,1
632,1,2,0,0,1,11,7,18,5,1
633,1,0,1,1,0,11,7,18,5,1
634,0,1,1,1,1,11,7,18,5,1
635,1,1,0,0,1,11,7,18,5,1
636,1,0,1,1,0,11,7,18,5,1
637,0,2,0,0,0,11,7,18,5,1
638,0,1,1,1,1,11,7,18,5,1
639,1,1,0,0,1,11,7,18,5,1
640,1,0,1,1,0,11,7,18,5,1
641,0,2,0,0,0,11,7,18,5,1
642,0,1,1,1,1,11,7,18,5,1
643,1,1,0,0,1,11,7,18,5,1
644,1,1,0,0,1,11,7,18,5,1
645,1,1,0,0,1,11,7,18,5,1
646,1,2,0,0,1,11,7,18,5,1
647,1,0,0,1,0,11,7,18,5,1
648,0,1,1,1,1,11,7,18,5,1
649,1,0,1,1,0,11,7,18,5,1
650,0,0,0,0,0,11,7,18,5,1
651,0,2,0,0,0,11,7,18,5,1
652,0,0,1,0,0,11,7,18,5,1
653,0,1,1,1,1,11,7,18,5,1
654,1,0,1,1,0,11,7,18,5,1
655,0,1,1,1,1,11,7,18,5,1
656,1,2,0,0,1,11,7,18,5,1
657,1,0,1,1,0,11,7,18,5,1
658,0,1,1,1,1,11,7,18,5,1
659,1,0,1,1,0,11,7,18,5,1
660,0,2,0,0,0,11,7,18,5,1
661,0,2,0,0,0,11,7,18,5,1
662,0,2,0,0,0,11,7,18,5,1
663,0,2,0,0,0,11,7,18,5,1
664,0,0,0,0,0,11,7,18,5,1
665,0,0,0,0,0,11,7,18,5,1
666,0,1,1,1,1,11,7,18,5,1
667,1,2,0,0,1,11,7,18,5,1
668,1,2,0,0,1,11,7,18,5,1
669,1,2,0,0,1,11,7,18,5,1
670,1,2,0,0,1,11,7,18,5,1
671,1,0,1,1,0,11,7,18,5,1
672,0,2,0,0,0,11,7,18,5,1
673,0,0,0,0,0,11,7,18,5,1
674,0,0,0,0,0,11,7,18,5,1
675,0,1,1,1,1,11,7,18,5,1
676,1,0,1,1,0,11,7,18,5,1
677,0,0,0,0,0,11,7,18,5,1
678,0,1,1,1,1,11,7,18,5,1
679,1,2,0,0,1,11,7,18,5,1
680,1,1,0,0,1,11,7,18,5,1
681,1,1,0,0,1,11,7,18,5,1
682,1,2,0,0,1,11,7,18,5,1
683,1,1,0,0,1,11,7,18,5,1
684,1,0,1,1,0,11,7,18,5,1
685,0,2,0,0,0,11,7,18,5,1
686,0,1,1,1,1,11,7,18,5,1
687,1,2,0,0,1,11,7,18,5,1
688,1,1,0,0,1,11,7,18,5,1
689,1,2,0,0,1,11,7,18,5,1
690,1,1,0,0,1,11,7,18,5,1
691,1,0,1,1,0,11,7,18,5,1
692,0,0,0,0,0,11,7,18,5,1
693,0,2,0,0,0,11,7,18,5,1
694,0,1,1,1,1,11,7,18,5,1
695,1,0,1,1,0,11,7,18,5,1
696,0,1,1,1,1,11,7,18,5,1
697,1,0,1,1,0,11,7,18,5,1
698,0,0,0,0,0,11,7,18,5,1
699,0,0,0,0,0,11,7,18,5,1
700,0,0,0,0,0,11,7,18,5,1
701,0,1,1,1,1,11,7,18,5,1
702,1,0,1,1,0,11,7,18,5,1
703,0,1,1,1,1,11,7,18,5,1
704,1,1,0,0,1,11,7,18,5,1
705,1,2,0,0,1,11,7,18,5,1
706,1,1,0,0,1,11,7,18,5,1
707,1,0,1,1,0,11,7,18,5,1
708,0,2,0,0,0,11,7,18,5,1
709,0,1,1,1,1,11,7,18,5,1
710,1,1,0,0,1,11,7,18,5,1
711,1,1,0,0,1,11,7,18,5,1
712,1,1,0,0,1,11,7,18,5,1
713,1,2,0,0,1,11,7,18,5,1
714,1,2,0,0,1,11,7,18,5,1
715,1,2,0,0,1,11,7,18,5,1
716,1,2,0,0,1,11,7,18,5,1
717,1,1,0,0,1,11,7,18,5,1
718,1,1,0,0,1,11,7,18,5,1
719,1,2,0,0,1,11,7,18,5,1
720,1,0,1,1,0,11,7,18,5,1
721,0,0,0,0,0,11,7,18,5,1
722,0,0,0,0,0,11,7,18,5,1
723,0,0,0,0,0,11,7,18,5,1
724,0,0,0,0,0,11,7,18,5,1
725,0,1,1,1,1,11,7,18,5,1
726,1,0,1,1,0,11,7,18,5,1
727,0,2,0,0,0,11,7,18,5,1
728,0,2,0,0,0,11,7,18,5,1
729,0,2,0,0,0,11,7,18,5,1
730,0,1,1,1,1,11,7,18,5,1
731,1,2,0,0,1,11,7,18,5,1
732,1,1,0,0,1,11,7,18,5,1
733,1,1,0,0,1,11,7,18,5,1
734,1,0,1,1,0,11,7,18,5,1
735,0,2,0,0,0,11,7,18,5,1
736,0,2,0,0,0,11,7,18,5,1
737,0,0,0,0,0,11,7,18,5,1
738,0,1,1,1,1,11,7,18,5,1
739,1,0,1,1,0,11,7,18,5,1
740,0,0,0,0,0,11,7,18,5,1
741,0,0,0,0,0,11,7,18,5,1
742,0,1,1,1,1,11,7,18,5,1
743,1,0,1,1,0,11,7,18,5,1
744,0,1,1,1,1,11,7,18,5,1
745,1,0,1,1,0,11,7,18,5,1
746,0,0,0,0,0,11,7,18,5,1
747,0,2,0,0,0,11,7,18,5,1
748,0,2,0,0,0,11,7,18,5,1
749,0,0,0,0,0,11,7,18,5,1
750,0,2,0,0,0,11,7,18,5,1
751,0,0,0,0,0,11,7,18,5,1
752,0,1,1,1,1,11,7,18,5,1
753,1,2,0,0,1,11,7,18,5,1
754,1,0,1,1,0,11,7,18,5,1
755,0,2,0,0,0,11,7,18,5,1
756,0,0,0,0,0,11,7,18,5,1
757,0,1,1,1,1,11,7,18,5,1
758,1,2,0,0,1,11,7,18,5,1
759,1,0,1,1,0,11,7,18,5,1
760,0,2,0,0,0,11,7,18,5,1
761,0,2,0,0,0,11,7,18,5,1
762,0,1,1,1,1,11,7,18,5,1
763,1,0,1,1,0,11,7,18,5,1
764,0,0,0,0,0,11,7,18,5,1
765,0,0,0,0,0,11,7,18,5,1
766,0,2,0,0,0,11,7,18,5,1
767,0,1,1,1,1,11,7,18,5,1
768,1,2,0,0,1,11,7,18,5,1
769,1,1,0,0,1,11,7,18,5,1
770,1,0,0,1,0,11,7,18,5,1
771,0,1,1,1,1,11,7,18,5,1
772,1,2,0,0,1,11,7,18,5,1
773,1,2,0,0,1,11,7,18,5,1
774,1,0,1,1,0,11,7,18,5,1
775,0,0,0,0,0,11,7,18,5,1
776,0,1,1,1,1,11,7,18,5,1
777,1,0,1,1,0,11,7,18,5,1
778,0,2,0,0,0,11,7,18,5,1
779,0,2,0,0,0,11,7,18,5,1
780,0,0,0,0,0,11,7,18,5,1
781,0,1,1,1,1,11,7,18,5,1
782,1,1,0,0,1,11,7,18,5,1
783,1,0,1,1,0,11,7,18,5,1
784,0,1,1,1,1,11,7,18,5,1
785,1,0,1,1,0,11,7,18,5,1
786,0,0,0,0,0,11,7,18,5,1
787,0,1,1,1,1,11,7,18,5,1
788,1,1,0,0,1,11,7,18,5,1
789,1,1,0,0,1,11,7,18,5,1
790,1,0,1,1,0,11,7,18,5,1
791,0,0,0,0,0,11,7,18,5,1
792,0,0,0,0,0,11,7,18,5,1
793,0,2,0,0,0,11,7,18,5,1
794,0,0,0,0,0,11,7,18,5,1
795,0,2,0,0,0,11,7,18,5,1
796,0,0,0,0,0,11,7,18,5,1
797,0,0,0,0,0,11,7,18,5,1
798,0,2,0,0,0,11,7,18,5,1
799,0,1,1,1,1,11,7,18,5,1
800,1,2,0,0,1,11,7,18,5,1
801,1,1,0,0,1,11,7,18,5,1
802,1,2,0,0,1,11,7,18,5,1
803,1,0,1,1,0,11,7,18,5,1
804,0,1,1,1,1,11,7,18,5,1
805,1,0,1,1,0,11,7,18,5,1
806,0,2,0,0,0,11,7,18,5,1
807,0,1,1,1,1,11,7,18,5,1
808,1,2,0,0,1,11,7,18,5,1
809,1,2,0,0,1,11,7,18,5,1
810,1,1,0,0,1,11,7,18,5,1
811,1,0,1,1,0,11,7,18,5,1
812,0,2,0,0,0,11,7,18,5,1
813,0,0,0,0,0,11,7,18,5,1
814,0,1,1,1,1,11,7,18,5,1
815,1,2,0,0,1,11,7,18,5,1
816,1,0,1,1,0,11,7,18,5,1
817,0,1,1,1,1,11,7,18,5,1
818,1,0,1,1,0,11,7,18,5,1
819,0,0,0,0,0,11,7,18,5,1
820,0,2,0,0,0,11,7,18,5,1
821,0,1,1,1,1,11,7,18,5,1
822,1,0,1,1,0,11,7,18,5,1
823,0,1,1,1,1,11,7,18,5,1
824,1,0,1,1,0,11,7,18,5,1
825,0,0,0,0,0,11,7,18,5,1
826,0,1,1,1,1,11,7,18,5,1
827,1,2,0,0,1,11,7,18,5,1
828,1,1,0,0,1,11,7,18,5,1
829,1,0,1,1,0,11,7,18,5,1
830,0,2,0,0,0,11,7,18,5,1
831,0,2,0,0,0,11,7,18,5,1
832,0,2,0,0,0,11,7,18,5,1
833,0,1,1,1,1,11,7,18,5,1
834,1,2,0,0,1,11,7,18,5,1
835,1,0,1,1,0,11,7,18,5,1
836,0,2,0,0,0,11,7,18,5,1
837,0,2,0,0,0,11,7,18,5,1
838,0,2,0,0,0,11,7,18,5,1
839,0,1,1,1,1,11,7,18,5,1
840,1,1,0,0,1,11,7,18,5,1
841,1,1,0,0,1,11,7,18,5,1
842,1,2,0,0,1,11,7,18,5,1
843,1,0,1,1,0,11,7,18,5,1
844,0,2,0,0,0,11,7,18,5,1
845,0,1,1,1,1,11,7,18,5,1
846,1,1,0,0,1,11,7,18,5,1
847,1,1,0,0,1,11,7,18,5,1
848,1,0,1,1,0,11,7,18,5,1
849,0,0,0,0,0,11,7,18,5,1
850,0,1,1,1,1,11,7,18,5,1
851,1,1,0,0,1,11,7,18,5,1
852,1,1,0,0,1,11,7,18,5,1
853,1,2,0,0,1,11,7,18,5,1
854,1,1,0,0,1,11,7,18,5,1
855,1,0,1,1,0,11,7,18,5,1
856,0,2,0,0,0,11,7,18,5,1
857,0,0,0,0,0,11,7,18,5,1
858,0,1,1,1,1,11,7,18,5,1
859,1,2,0,0,1,11,7,18,5,1
860,1,2,0,0,1,11,7,18,5,1
861,1,2,0,0,1,11,7,18,5,1
862,1,1,0,0,1,11,7,18,5,1
863,1,0,1,1,0,11,7,18,5,1
864,0,0,0,0,0,11,7,18,5,1
865,0,2,0,0,0,11,7,18,5,1
866,0,2,0,0,0,11,7,18,5,1
867,0,1,1,1,1,11,7,18,5,1
868,1,1,0,0,1,11,7,18,5,1
869,1,2,0,0,1,11,7,18,5,1
870,1,1,0,0,1,11,7,18,5,1
871,1,0,1,1,0,11,7,18,5,1
872,0,2,0,0,0,11,7,18,5,1
873,0,0,0,0,0,11,7,18,5,1
874,0,1,1,1,1,11,7,18,5,1
875,1,1,0,0,1,11,7,18,5,1
876,1,2,0,0,1,11,7,18,5,1
877,1,0,1,1,0,11,7,18,5,1
878,0,0,0,0,0,11,7,18,5,1
879,0,1,1,1,1,11,7,18,5,1
880,1,0,1,1,0,11,7,18,5,1
881,0,0,0,0,0,11,7,18,5,1
882,0,0,0,0,0,11,7,18,5,1
883,0,1,1,1,1,11,7,18,5,1
884,1,0,1,1,0,11,7,18,5,1
885,0,0,0,0,0,11,7,18,5,1
886,0,2,0,0,0,11,7,18,5,1
887,0,1,1,1,1,11,7,18,5,1
888,1,2,0,0,1,11,7,18,5,1
889,1,0,1,1,0,11,7,18,5,1
890,0,1,1,1,1,11,7,18,5,1
891,1,1,0,0,1,11,7,18,5,1
892,1,0,1,1,0,11,7,18,5,1
893,0,0,0,0,0,11,7,18,5,1
894,0,2,0,0,0,11,7,18,5,1
895,0,2,0,0,0,11,7,18,5,1
896,0,1,1,1,1,11,7,18,5,1
897,1,1,0,0,1,11,7,18,5,1
898,1,0,1,1,0,11,7,18,5,1
899,0,1,1,1,1,11,7,18,5,1
900,1,2,0,0,1,11,7,18,5,1
901,1,2,0,0,1,11,7,18,5,1
902,1,1,0,0,1,11,7,18,5,1
903,1,0,1,1,0,11,7,18,5,1
904,0,2,0,0,0,11,7,18,5,1
905,0,1,1,1,1,11,7,18,5,1
906,1,1,0,0,1,11,7,18,5,1
907,1,0,1,1,0,11,7,18,5,1
908,0,0,0,0,0,11,7,18,5,1
909,0,2,0,0,0,11,7,18,5,1
910,0,1,1,1,1,11,7,18,5,1
911,1,2,0,0,1,11,7,18,5,1
912,1,0,1,1,0,11,7,18,5,1
913,0,0,0,0,0,11,7,18,5,1
914,0,2,0,0,0,11,7,18,5,1
915,0,2,0,0,0,11,7,18,5,1
916,0,0,0,0,0,11,7,18,5,1
917,0,0,0,0,0,11,7,18,5,1
918,0,2,0,0,0,11,7,18,5,1
919,0,0,0,0,0,11,7,18,5,1
920,0,2,0,0,0,11,7,18,5,1
921,0,2,0,0,0,11,7,18,5,1
922,0,0,0,0,0,11,7,18,5,1
923,0,0,0,0,0,11,7,18,5,1
924,0,2,0,0,0,11,7,18,5,1
925,0,1,1,1,1,11,7,18,5,1
926,1,1,0,0,1,11,7,18,5,1
927,1,1,0,0,1,11,7,18,5,1
928,1,0,1,1,0,11,7,18,5,1
929,0,1,1,1,1,11,7,18,5,1
930,1,0,1,1,0,11,7,18,5,1
931,0,2,0,0,0,11,7,18,5,1
932,0,2,0,0,0,11,7,18,5,1
933,0,0,0,0,0,11,7,18,5,1
934,0,2,0,0,0,11,7,18,5,1
935,0,0,0,0,0,11,7,18,5,1
936,0,0,0,0,0,11,7,18,5,1
937,0,0,0,0,0,11,7,18,5,1
938,0,0,0,0,0,11,7,18,5,1
939,0,0,0,0,0,11,7,18,5,1
940,0,1,1,1,1,11,7,18,5,1
941,1,2,0,0,1,11,7,18,5,1
942,1,1,0,0,1,11,7,18,5,1
943,1,0,1,1,0,11,7,18,5,1
944,0,1,1,1,1,11,7,18,5,1
945,1,1,0,0,1,11,7,18,5,1
946,1,0,1,1,0,11,7,18,5,1
947,0,2,0,0,0,11,7,18,5,1
948,0,1,1,1,1,11,7,18,5,1
949,1,2,0,0,1,11,7,18,5,1
950,1,2,0,0,1,11,7,18,5,1
951,1,1,0,0,1,11,7,18,5,1
952,1,0,1,1,0,11,7,18,5,1
953,0,2,0,0,0,11,7,18,5,1
954,0,1,1,1,1,11,7,18,5,1
955,1,2,0,0,1,11,7,18,5,1
956,1,1,0,0,1,11,7,18,5,1
957,1,1,0,0,1,11,7,18,5,1
958,1,0,1,1,0,11,7,18,5,1
959,0,2,0,0,0,11,7,18,5,1
960,0,0,0,0,0,11,7,18,5,1
961,0,2,0,0,0,11,7,18,5,1
962,0,1,1,1,1,11,7,18,5,1
963,1,2,0,0,1,11,7,18,5,1
964,1,0,1,1,0,11,7,18,5,1
965,0,2,0,0,0,11,7,18,5,1
966,0,0,0,0,0,11,7,18,5,1
967,0,1,1,1,1,11,7,18,5,1
968,1,1,0,0,1,11,7,18,5,1
969,1,2,0,0,1,11,7,18,5,1
970,1,2,0,0,1,11,7,18,5,1
971,1,0,1,1,0,11,7,18,5,1
972,0,1,1,1,1,11,7,18,5,1
973,1,0,1,1,0,11,7,18,5,1
974,0,2,0,0,0,11,7,18,5,1
975,0,2,0,0,0,11,7,18,5,1
976,0,1,1,1,1,11,7,18,5,1
977,1,2,0,0,1,11,7,18,5,1
978,1,2,0,0,1,11,7,18,5,1
979,1,1,0,0,1,11,7,18,5,1
980,1,2,0,0,1,11,7,18,5,1
981,1,2,0,0,1,11,7,18,5,1
982,1,0,1,1,0,11,7,18,5,1
983,0,2,0,0,0,11,7,18,5,1
984,0,0,0,0,0,11,7,18,5,1
985,0,2,0,0,0,11,7,18,5,1
986,0,1,1,1,1,11,7,18,5,1
987,1,2,0,0,1,11,7,18,5,1
988,1,1,0,0,1,11,7,18,5,1
989,1,1,0,0,1,11,7,18,5,1
990,1,0,1,1,0,11,7,18,5,1
991,0,2,0,0,0,11,7,18,5,1
992,0,1,1,1,1,11,7,18,5,1
993,1,2,0,0,1,11,7,18,5,1
994,1,0,1,1,0,11,7,18,5,1
995,0,0,0,0,0,11,7,18,5,1
996,0,0,0,0,0,11,7,18,5,1
997,0,0,0,0,0,11,7,18,5,1
998,0,2,0,0,0,11,7,18,5,1
999,0,2,0,0,0,11,7,18,5,1
1000,0,1,1,1,1,11,7,18,5,1
1001,1,2,0,0,1,11,7,18,5,1
1002,1,2,0,0,1,11,7,18,5,1
1003,1,2,0,0,1,11,7,18,5,1
1004,1,2,0,0,1,11,7,18,5,1
1005,1,0,1,1,0,11,7,18,5,1
1006,0,1,1,1,1,11,7,18,5,1
1007,1,1,0,0,1,11,7,18,5,1
1008,1,2,0,0,1,11,7,18,5,1
1009,1,0,0,1,0,11,7,18,5,1
1010,0,0,0,0,0,11,7,18,5,1
1011,0,1,1,1,1,11,7,18,5,1
1012,1,0,1,1,0,11,7,18,5,1
1013,0,0,0,0,0,11,7,18,5,1
1014,0,1,1,1,1,11,7,18,5,1
1015,1,2,0,0,1,11,7,18,5,1
1016,1,1,0,0,1,11,7,18,5,1
1017,1,2,0,0,1,11,7,18,5,1
1018,1,0,1,1,0,11,7,18,5,1
1019,0,0,0,0,0,11,7,18,5,1
1020,0,1,1,1,1,11,7,18,5,1
1021,1,2,0,0,1,11,7,18,5,1
1022,1,2,0,0,1,11,7,18,5,1
1023,1,2,0,0,1,11,7,18,5,1
1024,1,1,0,0,1,11,7,18,5,1
1025,1,1,0,0,1,11,7,18,5,1
1026,1,2,0,0,1,11,7,18,5,1
1027,1,0,1,1,0,11,7,18,5,1
1028,0,2,0,0,0,11,7,18,5,1
1029,0,2,0,0,0,11,7,18,5,1
1030,0,2,0,0,0,11,7,18,5,1
1031,0,2,0,0,0,11,7,18,5,1
1032,0,0,0,0,0,11,7,18,5,1
1033,0,1,1,1,1,11,7,18,5,1
1034,1,2,0,0,1,11,7,18,5,1
1035,1,1,0,0,1,11,7,18,5,1
1036,1,1,0,0,1,11,7,18,5,1
1037,1,2,0,0,1,11,7,18,5,1
1038,1,1,0,0,1,11,7,18,5,1
1039,1,1,0,0,1,11,7,18,5,1
1040,1,1,0,0,1,11,7,18,5,1
1041,1,2,0,0,1,11,7,18,5,1
1042,1,0,1,1,0,11,7,18,5,1
1043,0,0,0,0,0,11,7,18,5,1
1044,0,1,1,1,1,11,7,18,5,1
1045,1,2,0,0,1,11,7,18,5,1
1046,1,2,0,0,1,11,7,18,5,1
1047,1,1,0,0,1,11,7,18,5,1
1048,1,1,0,0,1,11,7,18,5,1
1049,1,1,0,0,1,11,7,18,5,1
1050,1,2,0,0,1,11,7,18,5,1
1051,1,0,1,1,0,11,7,18,5,1
1052,0,2,0,0,0,11,7,18,5,1
1053,0,0,0,0,0,11,7,18,5,1
1054,0,2,0,0,0,11,7,18,5,1
1055,0,2,0,0,0,11,7,18,5,1
1056,0,0,0,0,0,11,7,18,5,1
1057,0,1,1,1,1,11,7,18,5,1
1058,1,2,0,0,1,11,7,18,5,1
1059,1,1,0,0,1,11,7,18,5,1
1060,1,1,0,0,1,11,7,18,5,1
1061,1,2,0,0,1,11,7,18,5,1
1062,1,2,0,0,1,11,7,18,5,1
1063,1,2,0,0,1,11,7,18,5,1
1064,1,0,1,1,0,11,7,18,5,1
1065,0,2,0,0,0,11,7,18,5,1
1066,0,2,0,0,0,11,7,18,5,1
1067,0,1,1,1,1,11,7,18,5,1
1068,1,2,0,0,1,11,7,18,5,1
1069,1,0,1,1,0,11,7,18,5,1
1070,0,2,0,0,0,11,7,18,5,1
1071,0,2,0,0,0,11,7,18,5,1
1072,0,1,1,1,1,11,7,18,5,1
1073,1,0,1,1,0,11,7,18,5,1
1074,0,0,0,0,0,11,7,18,5,1
1075,0,0,0,0,0,11,7,18,5,1
1076,0,0,0,0,0,11,7,18,5,1
1077,0,2,0,0,0,11,7,18,5,1
1078,0,1,1,1,1,11,7,18,5,1
1079,1,2,0,0,1,11,7,18,5,1
1080,1,1,0,0,1,11,7,18,5,1
1081,1,1,0,0,1,11,7,18,5,1
1082,1,2,0,0,1,11,7,18,5,1
1083,1,0,1,1,0,11,7,18,5,1
1084,0,1,1,1,1,11,7,18,5,1
1085,1,2,0,0,1,11,7,18,5,1
1086,1,0,1,1,0,11,7,18,5,1
1087,0,2,0,0,0,11,7,18,5,1
1088,0,0,0,0,0,11,7,18,5,1
1089,0,0,0,0,0,11,7,18,5,1
1090,0,1,1,1,1,11,7,18,5,1
1091,1,1,0,0,1,11,7,18,5,1
1092,1,0,1,1,0,11,7,18,5,1
1093,0,1,1,1,1,11,7,18,5,1
1094,1,1,0,0,1,11,7,18,5,1
1095,1,0,1,1,0,11,7,18,5,1
1096,0,0,0,0,0,11,7,18,5,1
1097,0,0,0,0,0,11,7,18,5,1
1098,0,1,1,1,1,11,7,18,5,1
1099,1,0,1,1,0,11,7,18,5,1
1100,0,2,0,0,0,11,7,18,5,1
1101,0,2,0,0,0,11,7,18,5,1
1102,0,2,0,0,0,11,7,18,5,1
1103,0,0,0,0,0,11,7,18,5,1
1104,0,2,0,0,0,11,7,18,5,1
1105,0,2,0,0,0,11,7,18,5,1
1106,0,2,0,0,0,11,7,18,5,1
1107,0,0,0,0,0,11,7,18,5,1
1108,0,2,0,0,0,11,7,18,5,1
1109,0,1,1,1,1,11,7,18,5,1
1110,1,1,0,0,1,11,7,18,5,1
1111,1,0,1,1,0,11,7,18,5,1
1112,0,0,0,0,0,11,7,18,5,1
1113,0,0,0,0,0,11,7,18,5,1
1114,0,0,0,0,0,11,7,18,5,1
1115,0,1,1,1,1,11,7,18,5,1
1116,1,1,0,0,1,11,7,18,5,1
1117,1,2,0,0,1,11,7,18,5,1
1118,1,0,1,1,0,11,7,18,5,1
1119,0,2,0,0,0,11,7,18,5,1
1120,0,0,0,0,0,11,7,18,5,1
1121,0,1,1,1,1,11,7,18,5,1
1122,1,2,0,0,1,11,7,18,5,1
1123,1,1,0,0,1,11,7,18,5,1
1124,1,2,0,0,1,11,7,18,5,1
1125,1,1,0,0,1,11,7,18,5,1
1126,1,1,0,0,1,11,7,18,5,1
1127,1,0,1,1,0,11,7,18,5,1
1128,0,1,1,1,1,11,7,18,5,1
1129,1,2,0,0,1,11,7,18,5,1
1130,1,0,1,1,0,11,7,18,5,1
1131,0,0,0,0,0,11,7,18,5,1
1132,0,2,0,0,0,11,7,18,5,1
1133,0,0,0,0,0,11,7,18,5,1
1134,0,0,0,0,0,11,7,18,5,1
1135,0,2,0,0,0,11,7,18,5,1
1136,0,2,0,0,0,11,7,18,5,1
1137,0,0,0,0,0,11,7,18,5,1
1138,0,2,0,0,0,11,7,18,5,1
1139,0,1,1,1,1,11,7,18,5,1
1140,1,0,1,1,0,11,7,18,5,1
1141,0,1,1,1,1,11,7,18,5,1
1142,1,1,0,0,1,11,7,18,5,1
1143,1,0,1,1,0,11,7,18,5,1
1144,0,2,0,0,0,11,7,18,5,1
1145,0,2,0,0,0,11,7,18,5,1
1146,0,0,0,0,0,11,7,18,5,1
1147,0,1,1,1,1,11,7,18,5,1
1148,1,1,0,0,1,11,7,18,5,1
1149,1,0,1,1,0,11,7,18,5,1
1150,0,1,1,1,1,11,7,18,5,1
1151,1,0,1,1,0,11,7,18,5,1
1152,0,1,1,1,1,11,7,18,5,1
1153,1,1,0,0,1,11,7,18,5,1
1154,1,1,0,0,1,11,7,18,5,1
1155,1,1,0,0,1,11,7,18,5,1
1156,1,1,0,0,1,11,7,18,5,1
1157,1,2,0,0,1,11,7,18,5,1
1158,1,1,0,0,1,11,7,18,5,1
1159,1,2,0,0,1,11,7,18,5,1
1160,1,0,1,1,0,11,7,18,5,1
1161,0,1,1,1,1,11,7,18,5,1
1162,1,1,0,0,1,11,7,18,5,1
1163,1,1,0,0,1,11,7,18,5,1
1164,1,2,0,0,1,11,7,18,5,1
1165,1,1,0,0,1,11,7,18,5,1
1166,1,2,0,0,1,11,7,18,5,1
1167,1,2,0,0,1,11,7,18,5,1
1168,1,0,1,1,0,11,7,18,5,1
1169,0,0,0,0,0,11,7,18,5,1
1170,0,0,0,0,0,11,7,18,5,1
1171,0,2,0,0,0,11,7,18,5,1
1172,0,0,0,0,0,11,7,18,5,1
1173,0,2,0,0,0,11,7,18,5,1
1174,0,0,0,0,0,11,7,18,5,1
1175,0,1,1,1,1,11,7,18,5,1
1176,1,0,1,1,0,11,7,18,5,1
1177,0,0,0,0,0,11,7,18,5,1
1178,0,1,1,1,1,11,7,18,5,1
1179,1,0,1,1,0,11,7,18,5,1
1180,0,2,0,0,0,11,7,18,5,1
1181,0,2,0,0,0,11,7,18,5,1
1182,0,1,1,1,1,11,7,18,5,1
1183,1,2,0,0,1,11,7,18,5,1
1184,1,0,1,1,0,11,7,18,5,1
1185,0,0,0,0,0,11,7,18,5,1
1186,0,1,1,1,1,11,7,18,5,1
1187,1,2,0,0,1,11,7,18,5,1
1188,1,2,0,0,1,11,7,18,5,1
1189,1,2,0,0,1,11,7,18,5,1
1190,1,1,0,0,1,11,7,18,5,1
1191,1,2,0,0,1,11,7,18,5,1
1192,1,1,0,0,1,11,7,18,5,1
1193,1,0,1,1,0,11,7,18,5,1
1194,0,2,0,0,0,11,7,18,5,1
1195,0,0,0,0,0,11,7,18,5,1
1196,0,1,1,1,1,11,7,18,5,1
1197,1,1,0,0,1,11,7,18,5,1
1198,1,0,1,1,0,11,7,18,5,1
1199,0,1,1,1,1,11,7,18,5,1
1200,1,0,1,1,0,11,7,18,5,1
1201,0,1,1,1,1,11,7,18,5,1
1202,1,1,0,0,1,11,7,18,5,1
1203,1,0,1,1,0,11,7,18,5,1
1204,0,1,1,1,1,11,7,18,5,1
1205,1,1,0,0,1,11,7,18,5,1
1206,1,2,0,0,1,11,7,18,5,1
1207,1,1,0,0,1,11,7,18,5,1
1208,1,0,1,1,0,11,7,18,5,1
1209,0,0,0,0,0,11,7,18,5,1
1210,0,2,0,0,0,11,7,18,5,1
1211,0,2,0,0,0,11,7,18,5,1
1212,0,2,0,0,0,11,7,18,5,1
1213,0,0,0,0,0,11,7,18,5,1
1214,0,1,1,1,1,11,7,18,5,1
1215,1,0,1,1,0,11,7,18,5,1
1216,0,2,0,0,0,11,7,18,5,1
1217,0,1,1,1,1,11,7,18,5,1
1218,1,2,0,0,1,11,7,18,5,1
1219,1,1,0,0,1,11,7,18,5,1
1220,1,0,1,1,0,11,7,18,5,1
1221,0,2,0,0,0,11,7,18,5,1
1222,0,1,1,1,1,11,7,18,5,1
1223,1,0,1,1,0,11,7,18,5,1
1224,0,0,0,0,0,11,7,18,5,1
1225,0,1,1,1,1,11,7,18,5,1
1226,1,0,1,1,0,11,7,18,5,1
1227,0,1,1,1,1,11,7,18,5,1
1228,1,0,1,1,0,11,7,18,5,1
1229,0,0,0,0,0,11,7,18,5,1
1230,0,2,0,0,0,11,7,18,5,1
1231,0,1,1,1,1,11,7,18,5,1
1232,1,0,1,1,0,11,7,18,5,1
1233,0,2,0,0,0,11,7,18,5,1
1234,0,1,1,1,1,11,7,18,5,1
1235,1,2,0,0,1,11,7,18,5,1
1236,1,1,0,0,1,11,7,18,5,1
1237,1,2,0,0,1,11,7,18,5,1
1238,1,2,0,0,1,11,7,18,5,1
1239,1,0,1,1,0,11,7,18,5,1
1240,0,0,0,0,0,11,7,18,5,1
1241,0,0,0,0,0,11,7,18,5,1
1242,0,0,0,0,0,11,7,18,5,1
1243,0,0,0,0,0,11,7,18,5,1
1244,0,0,0,0,0,11,7,18,5,1
1245,0,2,0,0,0,11,7,18,5,1
1246,0,1,1,1,1,11,7,18,5,1
1247,1,2,0,0,1,11,7,18,5,1
1248,1,0,1,1,0,11,7,18,5,1
1249,0,1,1,1,1,11,7,18,5,1
1250,1,0,1,1,0,11,7,18,5,1
1251,0,2,0,0,0,11,7,18,5,1
1252,0,0,0,0,0,11,7,18,5,1
1253,0,1,1,1,1,11,7,18,5,1
1254,1,2,0,0,1,11,7,18,5,1
1255,1,2,0,0,1,11,7,18,5,1
1256,1,0,1,1,0,11,7,18,5,1
1257,0,2,0,0,0,11,7,18,5,1
1258,0,1,1,1,1,11,7,18,5,1
1259,1,0,1,1,0,11,7,18,5,1
1260,0,2,0,0,0,11,7,18,5,1
1261,0,0,0,0,0,11,7,18,5,1
1262,0,1,1,1,1,11,7,18,5,1
1263,1,2,0,0,1,11,7,18,5,1
1264,1,2,0,0,1,11,7,18,5,1
1265,1,1,0,0,1,11,7,18,5,1
1266,1,0,1,1,0,11,7,18,5,1
1267,0,1,1,1,1,11,7,18,5,1
1268,1,2,0,0,1,11,7,18,5,1
1269,1,0,1,1,0,11,7,18,5,1
1270,0,0,0,0,0,11,7,18,5,1
1271,0,0,0,0,0,11,7,18,5,1
1272,0,1,1,1,1,11,7,18,5,1
1273,1,1,0,0,1,11,7,18,5,1
1274,1,0,1,1,0,11,7,18,5,1
1275,0,1,1,1,1,11,7,18,5,1
1276,1,1,0,0,1,11,7,18,5,1
1277,1,2,0,0,1,11,7,18,5,1
1278,1,1,0,0,1,11,7,18,5,1
1279,1,1,0,0,1,11,7,18,5,1
1280,1,1,0,0,1,11,7,18,5,1
1281,1,0,1,1,0,11,7,18,5,1
1282,0,1,1,1,1,11,7,18,5,1
1283,1,1,0,0,1,11,7,18,5,1
1284,1,1,0,0,1,11,7,18,5,1
1285,1,1,0,0,1,11,7,18,5,1
1286,1,2,0,0,1,11,7,18,5,1
1287,1,2,0,0,1,11,7,18,5,1
1288,1,2,0,0,1,11,7,18,5,1
1289,1,1,0,0,1,11,7,18,5,1
1290,1,0,1,1,0,11,7,18,5,1
1291,0,1,1,1,1,11,7,18,5,1
1292,1,1,0,0,1,11,7,18,5,1
1293,1,0,1,1,0,11,7,18,5,1
1294,0,0,0,0,0,11,7,18,5,1
1295,0,0,0,0,0,11,7,18,5,1
1296,0,2,0,0,0,11,7,18,5,1
1297,0,2,0,0,0,11,7,18,5,1
1298,0,0,0,0,0,11,7,18,5,1
1299,0,2,0,0,0,11,7,18,5,1
1300,0,0,0,0,0,11,7,18,5,1
1301,0,2,0,0,0,11,7,18,5,1
1302,0,0,0,0,0,11,7,18,5,1
1303,0,1,1,1,1,11,7,18,5,1
1304,1,2,0,0,1,11,7,18,5,1
1305,1,1,0,0,1,11,7,18,5,1
1306,1,2,0,0,1,11,7,18,5,1
1307,1,2,0,0,1,11,7,18,5,1
1308,1,1,0,0,1,11,7,18,5,1
1309,1,0,1,1,0,11,7,18,5,1
1310,0,1,1,1,1,11,7,18,5,1
1311,1,1,0,0,1,11,7,18,5,1
1312,1,1,0,0,1,11,7,18,5,1
1313,1,2,0,0,1,11,7,18,5,1
1314,1,0,1,1,0,11,7,18,5,1
1315,0,1,1,1,1,11,7,18,5,1
1316,1,2,0,0,1,11,7,18,5,1
1317,1,1,0,0,1,11,7,18,5,1
1318,1,1,0,0,1,11,7,18,5,1
1319,1,2,0,0,1,11,7,18,5,1
1320,1,1,0,0,1,11,7,18,5,1
1321,1,2,0,0,1,11,7,18,5,1
1322,1,0,1,1,0,11,7,18,5,1
1323,0,2,0,0,0,11,7,18,5,1
1324,0,0,0,0,0,11,7,18,5,1
1325,0,1,1,1,1,11,7,18,5,1
1326,1,0,1,1,0,11,7,18,5,1
1327,0,1,1,1,1,11,7,18,5,1
1328,1,0,1,1,0,11,7,18,5,1
1329,0,1,1,1,1,11,7,18,5,1
1330,1,2,0,0,1,11,7,18,5,1
1331,1,0,1,1,0,11,7,18,5,1
1332,0,2,0,0,0,11,7,18,5,1
1333,0,1,1,1,1,11,7,18,5,1
1334,1,0,1,1,0,11,7,18,5,1
1335,0,1,1,1,1,11,7,18,5,1
1336,1,0,1,1,0,11,7,18,5,1
1337,0,1,1,1,1,11,7,18,5,1
1338,1,1,0,0,1,11,7,18,5,1
1339,1,0,1,1,0,11,7,18,5,1
1340,0,2,0,0,0,11,7,18,5,1
1341,0,2,0,0,0,11,7,18,5,1
1342,0,2,0,0,0,11,7,18,5,1
1343,0,1,1,1,1,11,7,18,5,1
1344,1,1,0,0,1,11,7,18,5,1
1345,1,0,1,1,0,11,7,18,5,1
1346,0,0,0,0,0,11,7,18,5,1
1347,0,0,0,0,0,11,7,18,5,1
1348,0,1,1,1,1,11,7,18,5,1
1349,1,2,0,0,1,11,7,18,5,1
1350,1,1,0,0,1,11,7,18,5,1
1351,1,2,0,0,1,11,7,18,5,1
1352,1,2,0,0,1,11,7,18,5,1
1353,1,2,0,0,1,11,7,18,5,1
1354,1,1,0,0,1,11,7,18,5,1
1355,1,0,1,1,0,11,7,18,5,1
1356,0,2,0,0,0,11,7,18,5,1
1357,0,2,0,0,0,11,7,18,5,1
1358,0,1,1,1,1,11,7,18,5,1
1359,1,2,0,0,1,11,7,18,5,1
1360,1,2,0,0,1,11,7,18,5,1
1361,1,1,0,0,1,11,7,18,5,1
1362,1,1,0,0,1,11,7,18,5,1
1363,1,0,1,1,0,11,7,18,5,1
1364,0,2,0,0,0,11,7,18,5,1
1365,0,2,0,0,0,11,7,18,5,1
1366,0,2,0,0,0,11,7,18,5,1
1367,0,2,0,0,0,11,7,18,5,1
1368,0,0,0,0,0,11,7,18,5,1
1369,0,2,0,0,0,11,7,18,5,1
1370,0,2,0,0,0,11,7,18,5,1
1371,0,1,1,1,1,11,7,18,5,1
1372,1,2,0,0,1,11,7,18,5,1
1373,1,1,0,0,1,11,7,18,5,1
1374,1,2,0,0,1,11,7,18,5,1
1375,1,2,0,0,1,11,7,18,5,1
1376,1,2,0,0,1,11,7,18,5,1
1377,1,2,0,0,1,11,7,18,5,1
1378,1,0,1,1,0,11,7,18,5,1
1379,0,0,0,0,0,11,7,18,5,1
1380,0,1,1,1,1,11,7,18,5,1
1381,1,2,0,0,1,11,7,18,5,1
1382,1,2,0,0,1,11,7,18,5,1
1383,1,1,0,0,1,11,7,18,5,1
1384,1,2,0,0,1,11,7,18,5,1
1385,1,1,0,0,1,11,7,18,5,1
1386,1,0,1,1,0,11,7,18,5,1
1387,0,1,1,1,1,11,7,18,5,1
1388,1,2,0,0,1,11,7,18,5,1
1389,1,0,1,1,0,11,7,18,5,1
1390,0,2,0,0,0,11,7,18,5,1
1391,0,1,1,1,1,11,7,18,5,1
1392,1,1,0,0,1,11,7,18,5,1
1393,1,2,0,0,1,11,7,18,5,1
1394,1,0,1,1,0,11,7,18,5,1
1395,0,2,0,0,0,11,7,18,5,1
1396,0,2,0,0,0,11,7,18,5,1
1397,0,1,1,1,1,11,7,18,5,1
1398,1,0,1,1,0,11,7,18,5,1
1399,0,1,1,1,1,11,7,18,5,1
1400,1,1,0,0,1,11,7,18,5,1
1401,1,0,1,1,0,11,7,18,5,1
1402,0,1,1,1,1,11,7,18,5,1
1403,1,2,0,0,1,11,7,18,5,1
1404,1,2,0,0,1,11,7,18,5,1
1405,1,1,0,0,1,11,7,18,5,1
1406,1,2,0,0,1,11,7,18,5,1
1407,1,0,1,1,0,11,7,18,5,1
1408,0,2,0,0,0,11,7,18,5,1
1409,0,2,0,0,0,11,7,18,5,1
1410,0,0,0,0,0,11,7,18,5,1
1411,0,2,0,0,0,11,7,18,5,1
1412,0,2,0,0,0,11,7,18,5,1
1413,0,2,0,0,0,11,7,18,5,1
1414,0,1,1,1,1,11,7,18,5,1
1415,1,1,0,0,1,11,7,18,5,1
1416,1,0,1,1,0,11,7,18,5,1
1417,0,2,0,0,0,11,7,18,5,1
1418,0,1,1,1,1,11,7,18,5,1
1419,1,0,1,1,0,11,7,18,5,1
1420,0,0,0,0,0,11,7,18,5,1
1421,0,1,1,1,1,11,7,18,5,1
1422,1,2,0,0,1,11,7,18,5,1
1423,1,1,0,0,1,11,7,18,5,1
1424,1,2,0,0,1,11,7,18,5,1
1425,1,2,0,0,1,11,7,18,5,1
1426,1,0,1,1,0,11,7,18,5,1
1427,0,1,1,1,1,11,7,18,5,1
1428,1,1,0,0,1,11,7,18,5,1
1429,1,1,0,0,1,11,7,18,5,1
1430,1,1,0,0,1,11,7,18,5,1
1431,1,1,0,0,1,11,7,18,5,1
1432,1,0,1,1,0,11,7,18,5,1
1433,0,2,0,0,0,11,7,18,5,1
1434,0,1,1,1,1,11,7,18,5,1
1435,1,1,0,0,1,11,7,18,5,1
1436,1,1,0,0,1,11,7,18,5,1
1437,1,0,1,1,0,11,7,18,5,1
1438,0,1,1,1,1,11,7,18,5,1
1439,1,0,1,1,0,11,7,18,5,1
1440,0,2,0,0,0,11,7,18,5,1
1441,0,2,0,0,0,11,7,18,5,1
1442,0,0,0,0,0,11,7,18,5,1
1443,0,0,0,0,0,11,7,18,5,1
1444,0,0,0,0,0,11,7,18,5,1
1445,0,1,1,1,1,11,7,18,5,1
1446,1,2,0,0,1,11,7,18,5,1
1447,1,1,0,0,1,11,7,18,5,1
1448,1,0,1,1,0,11,7,18,5,1
1449,0,0,0,0,0,11,7,18,5,1
1450,0,0,0,0,0,11,7,18,5,1
1451,0,0,0,0,0,11,7,18,5,1
1452,0,2,0,0,0,11,7,18,5,1
1453,0,0,0,0,0,11,7,18,5,1
1454,0,2,0,0,0,11,7,18,5,1
1455,0,2,0,0,0,11,7,18,5,1
1456,0,0,0,0,0,11,7,18,5,1
1457,0,1,1,1,1,11,7,18,5,1
1458,1,0,1,1,0,11,7,18,5,1
1459,0,2,0,0,0,11,7,18,5,1
1460,0,1,1,1,1,11,7,18,5,1
1461,1,2,0,0,1,11,7,18,5,1
1462,1,1,0,0,1,11,7,18,5,1
1463,1,2,0,0,1,11,7,18,5,1
1464,1,2,0,0,1,11,7,18,5,1
1465,1,1,0,0,1,11,7,18,5,1
1466,1,2,0,0,1,11,7,18,5,1
1467,1,1,0,0,1,11,7,18,5,1
1468,1,0,0,1,0,11,7,18,5,1
1469,0,0,0,0,0,11,7,18,5,1
1470,0,0,0,0,0,11,7,18,5,1
1471,0,2,0,0,0,11,7,18,5,1
1472,0,0,0,0,0,11,7,18,5,1
1473,0,0,0,0,0,11,7,18,5,1
1474,0,1,1,1,1,11,7,18,5,1
1475,1,2,0,0,1,11,7,18,5,1
1476,1,1,0,0,1,11,7,18,5,1
1477,1,1,0,0,1,11,7,18,5,1
1478,1,0,1,1,0,11,7,18,5,1
1479,0,1,1,1,1,11,7,18,5,1
1480,1,0,1,1,0,11,7,18,5,1
1481,0,1,1,1,1,11,7,18,5,1
1482,1,1,0,0,1,11,7,18,5,1
1483,1,2,0,0,1,11,7,18,5,1
1484,1,0,1,1,0,11,7,18,5,1
1485,0,2,0,0,0,11,7,18,5,1
1486,0,2,0,0,0,11,7,18,5,1
1487,0,1,1,1,1,11,7,18,5,1
1488,1,2,0,0,1,11,7,18,5,1
1489,1,1,0,0,1,11,7,18,5,1
1490,1,1,0,0,1,11,7,18,5,1
1491,1,0,1,1,0,11,7,18,5,1
1492,0,2,0,0,0,11,7,18,5,1
1493,0,1,1,1,1,11,7,18,5,1
1494,1,1,0,0,1,11,7,18,5,1
1495,1,1,0,0,1,11,7,18,5,1
1496,1,1,0,0,1,11,7,18,5,1
1497,1,1,0,0,1,11,7,18,5,1
1498,1,2,0,0,1,11,7,18,5,1
1499,1,1,0,0,1,11,7,18,5,1
1500,1,1,0,0,1,11,7,18,5,1
1501,1,1,0,0,1,11,7,18,5,1
1502,1,2,0,0,1,11,7,18,5,1
1503,1,2,0,0,1,11,7,18,5,1
1504,1,2,0,0,1,11,7,18,5,1
1505,1,1,0,0,1,11,7,18,5,1
1506,1,0,1,1,0,11,7,18,5,1
1507,0,1,1,1,1,11,7,18,5,1
1508,1,1,0,0,1,11,7,18,5,1
1509,1,0,1,1,0,11,7,18,5,1
1510,0,0,0,0,0,11,7,18,5,1
1511,0,2,0,0,0,11,7,18,5,1
1512,0,1,1,1,1,11,7,18,5,1
1513,1,0,1,1,0,11,7,18,5,1
1514,0,1,1,1,1,11,7,18,5,1
1515,1,1,0,0,1,11,7,18,5,1
1516,1,1,0,0,1,11,7,18,5,1
1517,1,2,0,0,1,11,7,18,5,1
1518,1,2,0,0,1,11,7,18,5,1
1519,1,1,0,0,1,11,7,18,5,1
1520,1,1,0,0,1,11,7,18,5,1
1521,1,2,0,0,1,11,7,18,5,1
1522,1,1,0,0,1,11,7,18,5,1
1523,1,1,0,0,1,11,7,18,5,1
1524,1,0,1,1,0,11,7,18,5,1
1525,0,2,0,0,0,11,7,18,5,1
1526,0,0,0,0,0,11,7,18,5,1
1527,0,0,0,0,0,11,7,18,5,1
1528,0,2,0,0,0,11,7,18,5,1
1529,0,0,0,0,0,11,7,18,5,1
1530,0,2,0,0,0,11,7,18,5,1
1531,0,2,0,0,0,11,7,18,5,1
1532,0,1,1,1,1,11,7,18,5,1
1533,1,0,1,1,0,11,7,18,5,1
1534,0,0,0,0,0,11,7,18,5,1
1535,0,0,0,0,0,11,7,18,5,1
1536,0,0,0,0,0,11,7,18,5,1
1537,0,0,0,0,0,11,7,18,5,1
1538,0,2,0,0,0,11,7,18,5,1
1539,0,1,1,1,1,11,7,18,5,1
1540,1,0,1,1,0,11,7,18,5,1
1541,0,0,0,0,0,11,7,18,5,1
1542,0,1,1,1,1,11,7,18,5,1
1543,1,0,1,1,0,11,7,18,5,1
1544,0,0,0,0,0,11,7,18,5,1
1545,0,1,1,1,1,11,7,18,5,1
1546,1,2,0,0,1,11,7,18,5,1
1547,1,0,1,1,0,11,7,18,5,1
1548,0,2,0,0,0,11,7,18,5,1
1549,0,0,0,0,0,11,7,18,5,1
1550,0,0,0,0,0,11,7,18,5,1
1551,0,2,0,0,0,11,7,18,5,1
1552,0,2,0,0,0,11,7,18,5,1
1553,0,0,0,0,0,11,7,18,5,1
1554,0,0,0,0,0,11,7,18,5,1
1555,0,0,0,0,0,11,7,18,5,1
1556,0,2,0,0,0,11,7,18,5,1
1557,0,1,1,1,1,11,7,18,5,1
1558,1,2,0,0,1,11,7,18,5,1
1559,1,1,0,0,1,11,7,18,5,1
1560,1,1,0,0,1,11,7,18,5,1
1561,1,2,0,0,1,11,7,18,5,1
1562,1,1,0,0,1,11,7,18,5,1
1563,1,0,1,1,0,11,7,18,5,1
1564,0,1,1,1,1,11,7,18,5,1
1565,1,2,0,0,1,11,7,18,5,1
1566,1,2,0,0,1,11,7,18,5,1
1567,1,2,0,0,1,11,7,18,5,1
1568,1,1,0,0,1,11,7,18,5,1
1569,1,1,0,0,1,11,7,18,5,1
1570,1,0,1,1,0,11,7,18,5,1
1571,0,2,0,0,0,11,7,18,5,1
1572,0,2,0,0,0,11,7,18,5,1
1573,0,0,0,0,0,11,7,18,5,1
1574,0,2,0,0,0,11,7,18,5,1
1575,0,1,1,1,1,11,7,18,5,1
1576,1,1,0,0,1,11,7,18,5,1
1577,1,1,0,0,1,11,7,18,5,1
1578,1,1,0,0,1,11,7,18,5,1
1579,1,1,0,0,1,11,7,18,5,1
1580,1,0,1,1,0,11,7,18,5,1
1581,0,1,1,1,1,11,7,18,5,1
1582,1,0,1,1,0,11,7,18,5,1
1583,0,0,0,0,0,11,7,18,5,1
1584,0,2,0,0,0,11,7,18,5,1
1585,0,0,0,0,0,11,7,18,5,1
1586,0,2,0,0,0,11,7,18,5,1
1587,0,1,1,1,1,11,7,18,5,1
1588,1,1,0,0,1,11,7,18,5,1
1589,1,1,0,0,1,11,7,18,5,1
1590,1,1,0,0,1,11,7,18,5,1
1591,1,1,0,0,1,11,7,18,5,1
1592,1,1,0,0,1,11,7,18,5,1
1593,1,1,0,0,1,11,7,18,5,1
1594,1,2,0,0,1,11,7,18,5,1
1595,1,0,1,1,0,11,7,18,5,1
1596,0,0,0,0,0,11,7,18,5,1
1597,0,1,1,1,1,11,7,18,5,1
1598,1,2,0,0,1,11,7,18,5,1
1599,1,0,1,1,0,11,7,18,5,1
1600,0,2,0,0,0,11,7,18,5,1
1601,0,0,0,0,0,11,7,18,5,1
1602,0,1,1,1,1,11,7,18,5,1
1603,1,2,0,0,1,11,7,18,5,1
1604,1,1,0,0,1,11,7,18,5,1
1605,1,1,0,0,1,11,7,18,5,1
1606,1,0,1,1,0,11,7,18,5,1
1607,0,1,1,1,1,11,7,18,5,1
1608,1,0,1,1,0,11,7,18,5,1
1609,0,0,0,0,0,11,7,18,5,1
1610,0,1,1,1,1,11,7,18,5,1
1611,1,1,0,0,1,11,7,18,5,1
1612,1,2,0,0,1,11,7,18,5,1
1613,1,2,0,0,1,11,7,18,5,1
1614,1,1,0,0,1,11,7,18,5,1
1615,1,0,1,1,0,11,7,18,5,1
1616,0,0,0,0,0,11,7,18,5,1
1617,0,1,1,1,1,11,7,18,5,1
1618,1,2,0,0,1,11,7,18,5,1
1619,1,2,0,0,1,11,7,18,5,1
1620,1,0,1,1,0,11,7,18,5,1
1621,0,0,0,0,0,11,7,18,5,1
1622,0,2,0,0,0,11,7,18,5,1
1623,0,2,0,0,0,11,7,18,5,1
1624,0,2,0,0,0,11,7,18,5,1
1625,0,1,1,1,1,11,7,18,5,1
1626,1,2,0,0,1,11,7,18,5,1
1627,1,1,0,0,1,11,7,18,5,1
1628,1,0,1,1,0,11,7,18,5,1
1629,0,1,1,1,1,11,7,18,5,1
1630,1,2,0,0,1,11,7,18,5,1
1631,1,2,0,0,1,11,7,18,5,1
1632,1,2,0,0,1,11,7,18,5,1
1633,1,2,0,0,1,11,7,18,5,1
1634,1,2,0,0,1,11,7,18,5,1
1635,1,1,0,0,1,11,7,18,5,1
1636,1,2,0,0,1,11,7,18,5,1
1637,1,0,1,1,0,11,7,18,5,1
1638,0,2,0,0,0,11,7,18,5,1
1639,0,2,0,0,0,11,7,18,5,1
1640,0,1,1,1,1,11,7,18,5,1
1641,1,1,0,0,1,11,7,18,5,1
1642,1,1,0,0,1,11,7,18,5,1
1643,1,1,0,0,1,11,7,18,5,1
1644,1,2,0,0,1,11,7,18,5,1
1645,1,1,0,0,1,11,7,18,5,1
1646,1,0,1,1,0,11,7,18,5,1
1647,0,1,1,1,1,11,7,18,5,1
1648,1,0,1,1,0,11,7,18,5,1
1649,0,2,0,0,0,11,7,18,5,1
1650,0,2,0,0,0,11,7,18,5,1
1651,0,1,1,1,1,11,7,18,5,1
1652,1,0,1,1,0,11,7,18,5,1
1653,0,0,0,0,0,11,7,18,5,1
1654,0,0,0,0,0,11,7,18,5,1
1655,0,1,1,1,1,11,7,18,5,1
1656,1,2,0,0,1,11,7,18,5,1
1657,1,0,1,1,0,11,7,18,5,1
1658,0,2,0,0,0,11,7,18,5,1
1659,0,2,0,0,0,11,7,18,5,1
1660,0,2,0,0,0,11,7,18,5,1
1661,0,1,1,1,1,11,7,18,5,1
1662,1,1,0,0,1,11,7,18,5,1
1663,1,2,0,0,1,11,7,18,5,1
1664,1,2,0,0,1,11,7,18,5,1
1665,1,1,0,0,1,11,7,18,5,1
1666,1,2,0,0,1,11,7,18,5,1
1667,1,0,1,1,0,11,7,18,5,1
1668,0,1,1,1,1,11,7,18,5,1
1669,1,1,0,0,1,11,7,18,5,1
1670,1,1,0,0,1,11,7,18,5,1
1671,1,1,0,0,1,11,7,18,5,1
1672,1,1,0,0,1,11,7,18,5,1
1673,1,2,0,0,1,11,7,18,5,1
1674,1,1,0,0,1,11,7,18,5,1
1675,1,0,1,1,0,11,7,18,5,1
1676,0,2,0,0,0,11,7,18,5,1
1677,0,2,0,0,0,11,7,18,5,1
1678,0,2,0,0,0,11,7,18,5,1
1679,0,1,1,1,1,11,7,18,5,1
1680,1,1,0,0,1,11,7,18,5,1
1681,1,1,0,0,1,11,7,18,5,1
1682,1,2,0,0,1,11,7,18,5,1
1683,1,2,0,0,1,11,7,18,5,1
1684,1,0,1,1,0,11,7,18,5,1
1685,0,0,0,0,0,11,7,18,5,1
1686,0,2,0,0,0,11,7,18,5,1
1687,0,1,1,1,1,11,7,18,5,1
1688,1,2,0,0,1,11,7,18,5,1
1689,1,1,0,0,1,11,7,18,5,1
1690,1,0,1,1,0,11,7,18,5,1
1691,0,0,0,0,0,11,7,18,5,1
1692,0,2,0,0,0,11,7,18,5,1
1693,0,0,0,0,0,11,7,18,5,1
1694,0,1,1,1,1,11,7,18,5,1
1695,1,1,0,0,1,11,7,18,5,1
1696,1,1,0,0,1,11,7,18,5,1
1697,1,1,0,0,1,11,7,18,5,1
1698,1,0,1,1,0,11,7,18,5,1
1699,0,2,0,0,0,11,7,18,5,1
1700,0,1,1,1,1,11,7,18,5,1
1701,1,0,1,1,0,11,7,18,5,1
1702,0,1,1,1,1,11,7,18,5,1
1703,1,2,0,0,1,11,7,18,5,1
1704,1,0,1,1,0,11,7,18,5,1
1705,0,2,0,0,0,11,7,18,5,1
1706,0,2,0,0,0,11,7,18,5,1
1707,0,0,0,0,0,11,7,18,5,1
1708,0,2,0,0,0,11,7,18,5,1
1709,0,0,0,0,0,11,7,18,5,1
1710,0,2,0,0,0,11,7,18,5,1
1711,0,1,1,1,1,11,7,18,5,1
1712,1,0,1,1,0,11,7,18,5,1
1713,0,0,0,0,0,11,7,18,5,1
1714,0,1,1,1,1,11,7,18,5,1
1715,1,0,1,1,0,11,7,18,5,1
1716,0,2,0,0,0,11,7,18,5,1
1717,0,0,0,0,0,11,7,18,5,1
1718,0,1,1,1,1,11,7,18,5,1
1719,1,1,0,0,1,11,7,18,5,1
1720,1,1,0,0,1,11,7,18,5,1
1721,1,2,0,0,1,11,7,18,5,1
1722,1,0,1,1,0,11,7,18,5,1
1723,0,0,0,0,0,11,7,18,5,1
1724,0,0,0,0,0,11,7,18,5,1
1725,0,1,1,1,1,11,7,18,5,1
1726,1,1,0,0,1,11,7,18,5,1
1727,1,0,1,1,0,11,7,18,5,1
1728,0,2,0,0,0,11,7,18,5,1
1729,0,1,1,1,1,11,7,18,5,1
1730,1,0,1,1,0,11,7,18,5,1
1731,0,2,0,0,0,11,7,18,5,1
1732,0,0,0,0,0,11,7,18,5,1
1733,0,1,1,1,1,11,7,18,5,1
1734,1,1,0,0,1,11,7,18,5,1
1735,1,2,0,0,1,11,7,18,5,1
1736,1,2,0,0,1,11,7,18,5,1
1737,1,2,0,0,1,11,7,18,5,1
1738,1,0,1,1,0,11,7,18,5,1
1739,0,1,1,1,1,11,7,18,5,1
1740,1,0,1,1,0,11,7,18,5,1
1741,0,0,0,0,0,11,7,18,5,1
1742,0,1,1,1,1,11,7,18,5,1
1743,1,1,0,0,1,11,7,18,5,1
1744,1,1,0,0,1,11,7,18,5,1
1745,1,2,0,0,1,11,7,18,5,1
1746,1,0,1,1,0,11,7,18,5,1
1747,0,2,0,0,0,11,7,18,5,1
1748,0,1,1,1,1,11,7,18,5,1
1749,1,1,0,0,1,11,7,18,5,1
1750,1,1,0,0,1,11,7,18,5,1
1751,1,0,1,1,0,11,7,18,5,1
1752,0,1,1,1,1,11,7,18,5,1
1753,1,0,1,1,0,11,7,18,5,1
1754,0,2,0,0,0,11,7,18,5,1
1755,0,0,0,0,0,11,7,18,5,1
1756,0,1,1,1,1,11,7,18,5,1
1757,1,2,0,0,1,11,7,18,5,1
1758,1,1,0,0,1,11,7,18,5,1
1759,1,1,0,0,1,11,7,18,5,1
1760,1,2,0,0,1,11,7,18,5,1
1761,1,0,1,1,0,11,7,18,5,1
1762,0,1,1,1,1,11,7,18,5,1
1763,1,1,0,0,1,11,7,18,5,1
1764,1,2,0,0,1,11,7,18,5,1
1765,1,1,0,0,1,11,7,18,5,1
1766,1,1,0,0,1,11,7,18,5,1
1767,1,1,0,0,1,11,7,18,5,1
1768,1,2,0,0,1,11,7,18,5,1
1769,1,1,0,0,1,11,7,18,5,1
1770,1,1,0,0,1,11,7,18,5,1
1771,1,2,0,0,1,11,7,18,5,1
1772,1,2,0,0,1,11,7,18,5,1
1773,1,2,0,0,1,11,7,18,5,1
1774,1,2,0,0,1,11,7,18,5,1
1775,1,1,0,0,1,11,7,18,5,1
1776,1,1,0,0,1,11,7,18,5,1
1777,1,2,0,0,1,11,7,18,5,1
1778,1,1,0,0,1,11,7,18,5,1
1779,1,0,1,1,0,11,7,18,5,1
1780,0,2,0,0,0,11,7,18,5,1
1781,0,1,1,1,1,11,7,18,5,1
1782,1,2,0,0,1,11,7,18,5,1
1783,1,2,0,0,1,11,7,18,5,1
1784,1,0,1,1,0,11,7,18,5,1
1785,0,2,0,0,0,11,7,18,5,1
1786,0,2,0,0,0,11,7,18,5,1
1787,0,0,0,0,0,11,7,18,5,1
1788,0,1,1,1,1,11,7,18,5,1
1789,1,2,0,0,1,11,7,18,5,1
1790,1,0,1,1,0,11,7,18,5,1
1791,0,2,0,0,0,11,7,18,5,1
1792,0,0,0,0,0,11,7,18,5,1
1793,0,2,0,0,0,11,7,18,5,1
1794,0,2,0,0,0,11,7,18,5,1
1795,0,0,0,0,0,11,7,18,5,1
1796,0,1,1,1,1,11,7,18,5,1
1797,1,0,1,1,0,11,7,18,5,1
1798,0,0,0,0,0,11,7,18,5,1
1799,0,2,0,0,0,11,7,18,5,1
1800,0,2,0,0,0,11,7,18,5,1
1801,0,1,1,1,1,11,7,18,5,1
1802,1,1,0,0,1,11,7,18,5,1
1803,1,1,0,0,1,11,7,18,5,1
1804,1,1,0,0,1,11,7,18,5,1
1805,1,1,0,0,1,11,7,18,5,1
1806,1,1,0,0,1,11,7,18,5,1
1807,1,0,1,1,0,11,7,18,5,1
1808,0,2,0,0,0,11,7,18,5,1
1809,0,2,0,0,0,11,7,18,5,1
1810,0,0,0,0,0,11,7,18,5,1
1811,0,0,0,0,0,11,7,18,5,1
1812,0,1,1,1,1,11,7,18,5,1
1813,1,2,0,0,1,11,7,18,5,1
1814,1,0,1,1,0,11,7,18,5,1
1815,0,2,0,0,0,11,7,18,5,1
1816,0,1,1,1,1,11,7,18,5,1
1817,1,0,1,1,0,11,7,18,5,1
1818,0,2,0,0,0,11,7,18,5,1
1819,0,1,1,1,1,11,7,18,5,1
1820,1,0,1,1,0,11,7,18,5,1
1821,0,1,1,1,1,11,7,18,5,1
1822,1,2,0,0,1,11,7,18,5,1
1823,1,0,1,1,0,11,7,18,5,1
1824,0,2,0,0,0,11,7,18,5,1
1825,0,2,0,0,0,11,7,18,5,1
1826,0,2,0,0,0,11,7,18,5,1
1827,0,0,0,0,0,11,7,18,5,1
1828,0,1,1,1,1,11,7,18,5,1
1829,1,2,0,0,1,11,7,18,5,1
1830,1,1,0,0,1,11,7,18,5,1
1831,1,1,0,0,1,11,7,18,5,1
1832,1,0,1,1,0,11,7,18,5,1
1833,0,0,0,0,0,11,7,18,5,1
1834,0,2,0,0,0,11,7,18,5,1
1835,0,1,1,1,1,11,7,18,5,1
1836,1,1,0,0,1,11,7,18,5,1
1837,1,0,1,1,0,11,7,18,5,1
1838,0,1,1,1,1,11,7,18,5,1
1839,1,1,0,0,1,11,7,18,5,1
1840,1,0,1,1,0,11,7,18,5,1
1841,0,2,0,0,0,11,7,18,5,1
1842,0,1,1,1,1,11,7,18,5,1
1843,1,0,1,1,0,11,7,18,5,1
1844,0,0,0,0,0,11,7,18,5,1
1845,0,2,0,0,0,11,7,18,5,1
1846,0,2,0,0,0,11,7,18,5,1
1847,0,2,0,0,0,11,7,18,5,1
1848,0,0,0,0,0,11,7,18,5,1
1849,0,2,0,0,0,11,7,18,5,1
1850,0,1,1,1,1,11,7,18,5,1
1851,1,0,1,1,0,11,7,18,5,1
1852,0,0,0,0,0,11,7,18,5,1
1853,0,0,0,0,0,11,7,18,5,1
1854,0,1,1,1,1,11,7,18,5,1
1855,1,1,0,0,1,11,7,18,5,1
1856,1,2,0,0,1,11,7,18,5,1
1857,1,0,1,1,0,11,7,18,5,1
1858,0,2,0,0,0,11,7,18,5,1
1859,0,2,0,0,0,11,7,18,5,1
1860,0,1,1,1,1,11,7,18,5,1
1861,1,0,1,1,0,11,7,18,5,1
1862,0,0,0,0,0,11,7,18,5,1
1863,0,0,0,0,0,11,7,18,5,1
1864,0,0,0,0,0,11,7,18,5,1
1865,0,1,1,1,1,11,7,18,5,1
1866,1,0,1,1,0,11,7,18,5,1
1867,0,0,0,0,0,11,7,18,5,1
1868,0,0,0,0,0,11,7,18,5,1
1869,0,2,0,0,0,11,7,18,5,1
1870,0,1,1,1,1,11,7,18,5,1
1871,1,2,0,0,1,11,7,18,5,1
1872,1,2,0,0,1,11,7,18,5,1
1873,1,0,1,1,0,11,7,18,5,1
1874,0,1,1,1,1,11,7,18,5,1
1875,1,2,0,0,1,11,7,18,5,1
1876,1,1,0,0,1,11,7,18,5,1
1877,1,0,1,1,0,11,7,18,5,1
1878,0,0,0,0,0,11,7,18,5,1
1879,0,2,0,0,0,11,7,18,5,1
1880,0,0,0,0,0,11,7,18,5,1
1881,0,2,0,0,0,11,7,18,5,1
1882,0,2,0,0,0,11,7,18,5,1
1883,0,2,0,0,0,11,7,18,5,1
1884,0,2,0,0,0,11,7,18,5,1
1885,0,2,0,0,0,11,7,18,5,1
1886,0,2,0,0,0,11,7,18,5,1
1887,0,0,0,0,0,11,7,18,5,1
1888,0,0,0,0,0,11,7,18,5,1
1889,0,1,1,1,1,11,7,18,5,1
1890,1,0,1,1,0,11,7,18,5,1
1891,0,1,1,1,1,11,7,18,5,1
1892,1,1,0,0,1,11,7,18,5,1
1893,1,0,1,1,0,11,7,18,5,1
1894,0,0,0,0,0,11,7,18,5,1
1895,0,0,0,0,0,11,7,18,5,1
1896,0,2,0,0,0,11,7,18,5,1
1897,0,0,0,0,0,11,7,18,5,1
1898,0,2,0,0,0,11,7,18,5,1
1899,0,2,0,0,0,11,7,18,5,1
1900,0,2,0,0,0,11,7,18,5,1
1901,0,1,1,1,1,11,7,18,5,1
1902,1,0,1,1,0,11,7,18,5,1
1903,0,1,1,1,1,11,7,18,5,1
1904,1,1,0,0,1,11,7,18,5,1
1905,1,1,0,0,1,11,7,18,5,1
1906,1,2,0,0,1,11,7,18,5,1
1907,1,2,0,0,1,11,7,18,5,1
1908,1,0,1,1,0,11,7,18,5,1
1909,0,0,0,0,0,11,7,18,5,1
1910,0,0,0,0,0,11,7,18,5,1
1911,0,0,0,0,0,11,7,18,5,1
1912,0,2,0,0,0,11,7,18,5,1
1913,0,1,1,1,1,11,7,18,5,1
1914,1,0,1,1,0,11,7,18,5,1
1915,0,1,1,1,1,11,7,18,5,1
1916,1,1,0,0,1,11,7,18,5,1
1917,1,2,0,0,1,11,7,18,5,1
1918,1,2,0,0,1,11,7,18,5,1
1919,1,0,1,1,0,11,7,18,5,1
1920,0,1,1,1,1,11,7,18,5,1
1921,1,1,0,0,1,11,7,18,5,1
1922,1,0,1,1,0,11,7,18,5,1
1923,0,0,0,0,0,11,7,18,5,1
1924,0,2,0,0,0,11,7,18,5,1
1925,0,1,1,1,1,11,7,18,5,1
1926,1,2,0,0,1,11,7,18,5,1
1927,1,1,0,0,1,11,7,18,5,1
1928,1,2,0,0,1,11,7,18,5,1
1929,1,0,1,1,0,11,7,18,5,1
1930,0,1,1,1,1,11,7,18,5,1
1931,1,2,0,0,1,11,7,18,5,1
1932,1,2,0,0,1,11,7,18,5,1
1933,1,0,1,1,0,11,7,18,5,1
1934,0,1,1,1,1,11,7,18,5,1
1935,1,1,0,0,1,11,7,18,5,1
1936,1,1,0,0,1,11,7,18,5,1
1937,1,1,0,0,1,11,7,18,5,1
1938,1,0,1,1,0,11,7,18,5,1
1939,0,2,0,0,0,11,7,18,5,1
1940,0,2,0,0,0,11,7,18,5,1
1941,0,1,1,1,1,11,7,18,5,1
1942,1,1,0,0,1,11,7,18,5,1
1943,1,1,0,0,1,11,7,18,5,1
1944,1,1,0,0,1,11,7,18,5,1
1945,1,2,0,0,1,11,7,18,5,1
1946,1,1,0,0,1,11,7,18,5,1
1947,1,2,0,0,1,11,7,18,5,1
1948,1,2,0,0,1,11,7,18,5,1
1949,1,2,0,0,1,11,7,18,5,1
1950,1,0,1,1,0,11,7,18,5,1
1951,0,0,0,0,0,11,7,18,5,1
1952,0,1,1,1,1,11,7,18,5,1
1953,1,1,0,0,1,11,7,18,5,1
1954,1,2,0,0,1,11,7,18,5,1
1955,1,1,0,0,1,11,7,18,5,1
1956,1,2,0,0,1,11,7,18,5,1
1957,1,2,0,0,1,11,7,18,5,1
1958,1,1,0,0,1,11,7,18,5,1
1959,1,2,0,0,1,11,7,18,5,1
1960,1,1,0,0,1,11,7,18,5,1
1961,1,1,0,0,1,11,7,18,5,1
1962,1,1,0,0,1,11,7,18,5,1
1963,1,1,0,0,1,11,7,18,5,1
1964,1,1,0,0,1,11,7,18,5,1
1965,1,0,1,1,0,11,7,18,5,1
1966,0,2,0,0,0,11,7,18,5,1
1967,0,2,0,0,0,11,7,18,5,1
1968,0,1,1,1,1,11,7,18,5,1
1969,1,0,1,1,0,11,7,18,5,1
1970,0,0,0,0,0,11,7,18,5,1
1971,0,0,0,0,0,11,7,18,5,1
1972,0,0,0,0,0,11,7,18,5,1
1973,0,2,0,0,0,11,7,18,5,1
1974,0,0,0,0,0,11,7,18,5,1
1975,0,2,0,0,0,11,7,18,5,1
1976,0,2,0,0,0,11,7,18,5,1
1977,0,0,0,0,0,11,7,18,5,1
1978,0,0,0,0,0,11,7,18,5,1
1979,0,2,0,0,0,11,7,18,5,1
1980,0,1,1,1,1,11,7,18,5,1
1981,1,2,0,0,1,11,7,18,5,1
1982,1,0,1,1,0,11,7,18,5,1
1983,0,2,0,0,0,11,7,18,5,1
1984,0,0,0,0,0,11,7,18,5,1
1985,0,1,1,1,1,11,7,18,5,1
1986,1,2,0,0,1,11,7,18,5,1
1987,1,2,0,0,1,11,7,18,5,1
1988,1,0,1,1,0,11,7,18,5,1
1989,0,2,0,0,0,11,7,18,5,1
1990,0,1,1,1,1,11,7,18,5,1
1991,1,1,0,0,1,11,7,18,5,1
1992,1,1,0,0,1,11,7,18,5,1
1993,1,1,0,0,1,11,7,18,5,1
1994,1,1,0,0,1,11,7,18,5,1
1995,1,2,0,0,1,11,7,18,5,1
1996,1,2,0,0,1,11,7,18,5,1
1997,1,2,0,0,1,11,7,18,5,1
1998,1,0,1,1,0,11,7,18,5,1
1999,0,1,1,1,1,11,7,18,5,1
2000,1,1,0,0,1,11,7,18,5,1
2001,1,0,1,1,0,11,7,18,5,1
2002,0,2,0,0,0,11,7,18,5,1
2003,0,0,0,0,0,11,7,18,5,1
2004,0,0,0,0,0,11,7,18,5,1
2005,0,0,0,0,0,11,7,18,5,1
2006,0,1,1,1,1,11,7,18,5,1
2007,1,1,0,0,1,11,7,18,5,1
2008,1,1,0,0,1,11,7,18,5,1
2009,1,1,0,0,1,11,7,18,5,1
2010,1,2,0,0,1,11,7,18,5,1
2011,1,2,0,0,1,11,7,18,5,1
2012,1,2,0,0,1,11,7,18,5,1
2013,1,0,1,1,0,11,7,18,5,1
2014,0,2,0,0,0,11,7,18,5,1
2015,0,0,0,0,0,11,7,18,5,1
2016,0,1,1,1,1,11,7,18,5,1
2017,1,2,0,0,1,11,7,18,5,1
2018,1,1,0,0,1,11,7,18,5,1
2019,1,1,0,0,1,11,7,18,5,1
2020,1,0,1,1,0,11,7,18,5,1
2021,0,2,0,0,0,11,7,18,5,1
2022,0,2,0,0,0,11,7,18,5,1
2023,0,1,1,1,1,11,7,18,5,1
2024,1,2,0,0,1,11,7,18,5,1
2025,1,1,0,0,1,11,7,18,5,1
2026,1,0,1,1,0,11,7,18,5,1
2027,0,2,0,0,0,11,7,18,5,1
2028,0,1,1,1,1,11,7,18,5,1
2029,1,0,1,1,0,11,7,18,5,1
2030,0,2,0,0,0,11,7,18,5,1
2031,0,1,1,1,1,11,7,18,5,1
2032,1,0,1,1,0,11,7,18,5,1
2033,0,2,0,0,0,11,7,18,5,1
2034,0,0,0,0,0,11,7,18,5,1
2035,0,2,0,0,0,11,7,18,5,1
2036,0,0,0,0,0,11,7,18,5,1
2037,0,0,0,0,0,11,7,18,5,1
2038,0,0,0,0,0,11,7,18,5,1
2039,0,2,0,0,0,11,7,18,5,1
2040,0,1,1,1,1,11,7,18,5,1
2041,1,1,0,0,1,11,7,18,5,1
2042,1,0,1,1,0,11,7,18,5,1
2043,0,2,0,0,0,11,7,18,5,1
2044,0,2,0,0,0,11,7,18,5,1
2045,0,2,0,0,0,11,7,18,5,1
2046,0,2,0,0,0,11,7,18,5,1
2047,0,2,0,0,0,11,7,18,5,1
2048,0,0,0,0,0,11,7,18,5,1
2049,0,2,0,0,0,11,7,18,5,1
2050,0,2,0,0,0,11,7,18,5,1
2051,0,2,0,0,0,11,7,18,5,1
2052,0,1,1,1,1,11,7,18,5,1
2053,1,2,0,0,1,11,7,18,5,1
2054,1,0,1,1,0,11,7,18,5,1
2055,0,2,0,0,0,11,7,18,5,1
2056,0,0,0,0,0,11,7,18,5,1
2057,0,2,0,0,0,11,7,18,5,1
2058,0,1,1,1,1,11,7,18,5,1
2059,1,1,0,0,1,11,7,18,5,1
2060,1,1,0,0,1,11,7,18,5,1
2061,1,0,0,1,0,11,7,18,5,1
2062,0,0,0,0,0,11,7,18,5,1
2063,0,0,0,0,0,11,7,18,5,1
2064,0,2,0,0,0,11,7,18,5,1
2065,0,0,0,0,0,11,7,18,5,1
2066,0,0,0,0,0,11,7,18,5,1
2067,0,1,1,1,1,11,7,18,5,1
2068,1,2,0,0,1,11,7,18,5,1
2069,1,2,0,0,1,11,7,18,5,1
2070,1,0,1,1,0,11,7,18,5,1
2071,0,2,0,0,0,11,7,18,5,1
2072,0,0,0,0,0,11,7,18,5,1
2073,0,1,1,1,1,11,7,18,5,1
2074,1,1,0,0,1,11,7,18,5,1
2075,1,2,0,0,1,11,7,18,5,1
2076,1,0,1,1,0,11,7,18,5,1
2077,0,1,1,1,1,11,7,18,5,1
2078,1,2,0,0,1,11,7,18,5,1
2079,1,0,1,1,0,11,7,18,5,1
2080,0,1,1,1,1,11,7,18,5,1
2081,1,1,0,0,1,11,7,18,5,1
2082,1,1,0,0,1,11,7,18,5,1
2083,1,2,0,0,1,11,7,18,5,1
2084,1,1,0,0,1,11,7,18,5,1
2085,1,2,0,0,1,11,7,18,5,1
2086,1,2,0,0,1,11,7,18,5,1
2087,1,2,0,0,1,11,7,18,5,1
2088,1,0,1,1,0,11,7,18,5,1
2089,0,2,0,0,0,11,7,18,5,1
2090,0,2,0,0,0,11,7,18,5,1
2091,0,0,0,0,0,11,7,18,5,1
2092,0,2,0,0,0,11,7,18,5,1
2093,0,0,0,0,0,11,7,18,5,1
2094,0,0,0,0,0,11,7,18,5,1
2095,0,2,0,0,0,11,7,18,5,1
2096,0,2,0,0,0,11,7,18,5,1
2097,0,1,1,1,1,11,7,18,5,1
2098,1,0,1,1,0,11,7,18,5,1
2099,0,0,0,0,0,11,7,18,5,1
2100,0,1,1,1,1,11,7,18,5,1
2101,1,0,1,1,0,11,7,18,5,1
2102,0,1,1,1,1,11,7,18,5,1
2103,1,0,1,1,0,11,7,18,5,1
2104,0,2,0,0,0,11,7,18,5,1
2105,0,0,0,0,0,11,7,18,5,1
2106,0,0,0,0,0,11,7,18,5,1
2107,0,0,0,0,0,11,7,18,5,1
2108,0,2,0,0,0,11,7,18,5,1
2109,0,2,0,0,0,11,7,18,5,1
2110,0,1,1,1,1,11,7,18,5,1
2111,1,2,0,0,1,11,7,18,5,1
2112,1,0,1,1,0,11,7,18,5,1
2113,0,0,0,0,0,11,7,18,5,1
2114,0,2,0,0,0,11,7,18,5,1
2115,0,0,0,0,0,11,7,18,5,1
2116,0,0,0,0,0,11,7,18,5,1
2117,0,1,1,1,1,11,7,18,5,1
2118,1,0,1,1,0,11,7,18,5,1
2119,0,1,1,1,1,11,7,18,5,1
2120,1,0,1,1,0,11,7,18,5,1
2121,0,0,0,0,0,11,7,18,5,1
2122,0,1,1,1,1,11,7,18,5,1
2123,1,1,0,0,1,11,7,18,5,1
2124,1,0,1,1,0,11,7,18,5,1
2125,0,0,0,0,0,11,7,18,5,1
2126,0,1,1,1,1,11,7,18,5,1
2127,1,1,0,0,1,11,7,18,5,1
2128,1,1,0,0,1,11,7,18,5,1
2129,1,1,0,0,1,11,7,18,5,1
2130,1,0,1,1,0,11,7,18,5,1
2131,0,0,0,0,0,11,7,18,5,1
2132,0,1,1,1,1,11,7,18,5,1
2133,1,2,0,0,1,11,7,18,5,1
2134,1,1,0,0,1,11,7,18,5,1
2135,1,0,1,1,0,11,7,18,5,1
2136,0,0,0,0,0,11,7,18,5,1
2137,0,0,0,0,0,11,7,18,5,1
2138,0,1,1,1,1,11,7,18,5,1
2139,1,1,0,0,1,11,7,18,5,1
2140,1,1,0,0,1,11,7,18,5,1
2141,1,1,0,0,1,11,7,18,5,1
2142,1,1,0,0,1,11,7,18,5,1
2143,1,1,0,0,1,11,7,18,5,1
2144,1,1,0,0,1,11,7,18,5,1
2145,1,2,0,0,1,11,7,18,5,1
2146,1,1,0,0,1,11,7,18,5,1
2147,1,2,0,0,1,11,7,18,5,1
2148,1,2,0,0,1,11,7,18,5,1
2149,1,2,0,0,1,11,7,18,5,1
2150,1,1,0,0,1,11,7,18,5,1
2151,1,1,0,0,1,11,7,18,5,1
2152,1,2,0,0,1,11,7,18,5,1
2153,1,0,1,1,0,11,7,18,5,1
2154,0,1,1,1,1,11,7,18,5,1
2155,1,2,0,0,1,11,7,18,5,1
2156,1,1,0,0,1,11,7,18,5,1
2157,1,1,0,0,1,11,7,18,5,1
2158,1,0,1,1,0,11,7,18,5,1
2159,0,0,0,0,0,11,7,18,5,1
2160,0,0,0,0,0,11,7,18,5,1
2161,0,1,1,1,1,11,7,18,5,1
2162,1,1,0,0,1,11,7,18,5,1
2163,1,1,0,0,1,11,7,18,5,1
2164,1,1,0,0,1,11,7,18,5,1
2165,1,0,1,1,0,11,7,18,5,1
2166,0,0,0,0,0,11,7,18,5,1
2167,0,1,1,1,1,11,7,18,5,1
2168,1,2,0,0,1,11,7,18,5,1
2169,1,0,1,1,0,11,7,18,5,1
2170,0,0,0,0,0,11,7,18,5,1
2171,0,1,1,1,1,11,7,18,5,1
2172,1,2,0,0,1,11,7,18,5,1
2173,1,2,0,0,1,11,7,18,5,1
2174,1,0,1,1,0,11,7,18,5,1
2175,0,1,1,1,1,11,7,18,5,1
2176,1,0,1,1,0,11,7,18,5,1
2177,0,1,1,1,1,11,7,18,5,1
2178,1,2,0,0,1,11,7,18,5,1
2179,1,2,0,0,1,11,7,18,5,1
2180,1,2,0,0,1,11,7,18,5,1
2181,1,2,0,0,1,11,7,18,5,1
2182,1,2,0,0,1,11,7,18,5,1
2183,1,0,1,1,0,11,7,18,5,1
2184,0,0,0,0,0,11,7,18,5,1
2185,0,2,0,0,0,11,7,18,5,1
2186,0,1,1,1,1,11,7,18,5,1
2187,1,2,0,0,1,11,7,18,5,1
2188,1,0,1,1,0,11,7,18,5,1
2189,0,1,1,1,1,11,7,18,5,1
2190,1,0,1,1,0,11,7,18,5,1
2191,0,2,0,0,0,11,7,18,5,1
2192,0,1,1,1,1,11,7,18,5,1
2193,1,2,0,0,1,11,7,18,5,1
2194,1,2,0,0,1,11,7,18,5,1
2195,1,2,0,0,1,11,7,18,5,1
2196,1,1,0,0,1,11,7,18,5,1
2197,1,2,0,0,1,11,7,18,5,1
2198,1,0,1,1,0,11,7,18,5,1
2199,0,1,1,1,1,11,7,18,5,1
2200,1,1,0,0,1,11,7,18,5,1
2201,1,2,0,0,1,11,7,18,5,1
2202,1,1,0,0,1,11,7,18,5,1
2203,1,2,0,0,1,11,7,18,5,1
2204,1,1,0,0,1,11,7,18,5,1
2205,1,1,0,0,1,11,7,18,5,1
2206,1,1,0,0,1,11,7,18,5,1
2207,1,1,0,0,1,11,7,18,5,1
2208,1,0,1,1,0,11,7,18,5,1
2209,0,0,0,0,0,11,7,18,5,1
2210,0,2,0,0,0,11,7,18,5,1
2211,0,1,1,1,1,11,7,18,5,1
2212,1,2,0,0,1,11,7,18,5,1
2213,1,2,0,0,1,11,7,18,5,1
2214,1,2,0,0,1,11,7,18,5,1
2215,1,0,1,1,0,11,7,18,5,1
2216,0,1,1,1,1,11,7,18,5,1
2217,1,1,0,0,1,11,7,18,5,1
2218,1,0,1,1,0,11,7,18,5,1
2219,0,0,0,0,0,11,7,18,5,1
2220,0,2,0,0,0,11,7,18,5,1
2221,0,1,1,1,1,11,7,18,5,1
2222,1,1,0,0,1,11,7,18,5,1
2223,1,2,0,0,1,11,7,18,5,1
2224,1,0,1,1,0,11,7,18,5,1
2225,0,2,0,0,0,11,7,18,5,1
2226,0,1,1,1,1,11,7,18,5,1
2227,1,2,0,0,1,11,7,18,5,1
2228,1,1,0,0,1,11,7,18,5,1
2229,1,1,0,0,1,11,7,18,5,1
2230,1,2,0,0,1,11,7,18,5,1
2231,1,0,1,1,0,11,7,18,5,1
2232,0,1,1,1,1,11,7,18,5,1
2233,1,0,1,1,0,11,7,18,5,1
2234,0,1,1,1,1,11,7,18,5,1
2235,1,1,0,0,1,11,7,18,5,1
2236,1,1,0,0,1,11,7,18,5,1
2237,1,1,0,0,1,11,7,18,5,1
2238,1,2,0,0,1,11,7,18,5,1
2239,1,0,1,1,0,11,7,18,5,1
2240,0,2,0,0,0,11,7,18,5,1
2241,0,1,1,1,1,11,7,18,5,1
2242,1,0,1,1,0,11,7,18,5,1
2243,0,1,1,1,1,11,7,18,5,1
2244,1,0,1,1,0,11,7,18,5,1
2245,0,1,1,1,1,11,7,18,5,1
2246,1,2,0,0,1,11,7,18,5,1
2247,1,1,0,0,1,11,7,18,5,1
2248,1,0,1,1,0,11,7,18,5,1
2249,0,2,0,0,0,11,7,18,5,1
2250,0,2,0,0,0,11,7,18,5,1
2251,0,2,0,0,0,11,7,18,5,1
2252,0,1,1,1,1,11,7,18,5,1
2253,1,2,0,0,1,11,7,18,5,1
2254,1,0,1,1,0,11,7,18,5,1
2255,0,0,0,0,0,11,7,18,5,1
2256,0,2,0,0,0,11,7,18,5,1
2257,0,2,0,0,0,11,7,18,5,1
2258,0,1,1,1,1,11,7,18,5,1
2259,1,1,0,0,1,11,7,18,5,1
2260,1,0,1,1,0,11,7,18,5,1
2261,0,2,0,0,0,11,7,18,5,1
2262,0,2,0,0,0,11,7,18,5,1
2263,0,1,1,1,1,11,7,18,5,1
2264,1,0,1,1,0,11,7,18,5,1
2265,0,2,0,0,0,11,7,18,5,1
2266,0,2,0,0,0,11,7,18,5,1
2267,0,2,0,0,0,11,7,18,5,1
2268,0,2,0,0,0,11,7,18,5,1
2269,0,0,0,0,0,11,7,18,5,1
2270,0,2,0,0,0,11,7,18,5,1
2271,0,2,0,0,0,11,7,18,5,1
2272,0,1,1,1,1,11,7,18,5,1
2273,1,0,1,1,0,11,7,18,5,1
2274,0,2,0,0,0,11,7,18,5,1
2275,0,1,1,1,1,11,7,18,5,1
2276,1,0,1,1,0,11,7,18,5,1
2277,0,1,1,1,1,11,7,18,5,1
2278,1,0,1,1,0,11,7,18,5,1
2279,0,2,0,0,0,11,7,18,5,1
2280,0,2,0,0,0,11,7,18,5,1
2281,0,2,0,0,0,11,7,18,5,1
2282,0,0,0,0,0,11,7,18,5,1
2283,0,1,1,1,1,11,7,18,5,1
2284,1,1,0,0,1,11,7,18,5,1
2285,1,0,1,1,0,11,7,18,5,1
2286,0,2,0,0,0,11,7,18,5,1
2287,0,2,0,0,0,11,7,18,5,1
2288,0,2,0,0,0,11,7,18,5,1
2289,0,1,1,1,1,11,7,18,5,1
2290,1,2,0,0,1,11,7,18,5,1
2291,1,0,1,1,0,11,7,18,5,1
2292,0,0,0,0,0,11,7,18,5,1
2293,0,2,0,0,0,11,7,18,5,1
2294,0,1,1,1,1,11,7,18,5,1
2295,1,0,1,1,0,11,7,18,5,1
2296,0,0,0,0,0,11,7,18,5,1
2297,0,0,0,0,0,11,7,18,5,1
2298,0,1,1,1,1,11,7,18,5,1
2299,1,0,1,1,0,11,7,18,5,1
2300,0,2,0,0,0,11,7,18,5,1
2301,0,0,0,0,0,11,7,18,5,1
2302,0,0,0,0,0,11,7,18,5,1
2303,0,2,0,0,0,11,7,18,5,1
2304,0,1,1,1,1,11,7,18,5,1
2305,1,2,0,0,1,11,7,18,5,1
2306,1,0,1,1,0,11,7,18,5,1
2307,0,2,0,0,0,11,7,18,5,1
2308,0,0,0,0,0,11,7,18,5,1
2309,0,1,1,1,1,11,7,18,5,1
2310,1,1,0,0,1,11,7,18,5,1
2311,1,0,1,1,0,11,7,18,5,1
2312,0,2,0,0,0,11,7,18,5,1
2313,0,0,0,0,0,11,7,18,5,1
2314,0,2,0,0,0,11,7,18,5,1
2315,0,2,0,0,0,11,7,18,5,1
2316,0,2,0,0,0,11,7,18,5,1
2317,0,2,0,0,0,11,7,18,5,1
2318,0,2,0,0,0,11,7,18,5,1
2319,0,2,0,0,0,11,7,18,5,1
2320,0,0,0,0,0,11,7,18,5,1
2321,0,0,0,0,0,11,7,18,5,1
2322,0,0,0,0,0,11,7,18,5,1
2323,0,1,1,1,1,11,7,18,5,1
2324,1,0,1,1,0,11,7,18,5,1
2325,0,0,0,0,0,11,7,18,5,1
2326,0,1,1,1,1,11,7,18,5,1
2327,1,0,1,1,0,11,7,18,5,1
2328,0,0,0,0,0,11,7,18,5,1
2329,0,0,0,0,0,11,7,18,5,1
2330,0,0,0,0,0,11,7,18,5,1
2331,0,0,0,0,0,11,7,18,5,1
2332,0,2,0,0,0,11,7,18,5,1
2333,0,0,0,0,0,11,7,18,5,1
2334,0,1,1,1,1,11,7,18,5,1
2335,1,2,0,0,1,11,7,18,5,1
2336,1,2,0,0,1,11,7,18,5,1
2337,1,0,1,1,0,11,7,18,5,1
2338,0,1,1,1,1,11,7,18,5,1
2339,1,0,1,1,0,11,7,18,5,1
2340,0,1,1,1,1,11,7,18,5,1
2341,1,2,0,0,1,11,7,18,5,1
2342,1,0,1,1,0,11,7,18,5,1
2343,0,1,1,1,1,11,7,18,5,1
2344,1,0,1,1,0,11,7,18,5,1
2345,0,1,1,1,1,11,7,18,5,1
2346,1,2,0,0,1,11,7,18,5,1
2347,1,2,0,0,1,11,7,18,5,1
2348,1,0,1,1,0,11,7,18,5,1
2349,0,2,0,0,0,11,7,18,5,1
2350,0,2,0,0,0,11,7,18,5,1
2351,0,2,0,0,0,11,7,18,5,1
2352,0,1,1,1,1,11,7,18,5,1
2353,1,1,0,0,1,11,7,18,5,1
2354,1,2,0,0,1,11,7,18,5,1
2355,1,1,0,0,1,11,7,18,5,1
2356,1,2,0,0,1,11,7,18,5,1
2357,1,0,1,1,0,11,7,18,5,1
2358,0,0,0,0,0,11,7,18,5,1
2359,0,1,1,1,1,11,7,18,5,1
2360,1,0,1,1,0,11,7,18,5,1
2361,0,1,1,1,1,11,7,18,5,1
2362,1,1,0,0,1,11,7,18,5,1
2363,1,2,0,0,1,11,7,18,5,1
2364,1,2,0,0,1,11,7,18,5,1
2365,1,1,0,0,1,11,7,18,5,1
2366,1,0,1,1,0,11,7,18,5,1
2367,0,2,0,0,0,11,7,18,5,1
2368,0,1,1,1,1,11,7,18,5,1
2369,1,0,1,1,0,11,7,18,5,1
2370,0,0,0,0,0,11,7,18,5,1
2371,0,1,1,1,1,11,7,18,5,1
2372,1,1,0,0,1,11,7,18,5,1
2373,1,1,0,0,1,11,7,18,5,1
2374,1,1,0,0,1,11,7,18,5,1
2375,1,1,0,0,1,11,7,18,5,1
2376,1,1,0,0,1,11,7,18,5,1
2377,1,0,1,1,0,11,7,18,5,1
2378,0,1,1,1,1,11,7,18,5,1
2379,1,0,1,1,0,11,7,18,5,1
2380,0,2,0,0,0,11,7,18,5,1
2381,0,2,0,0,0,11,7,18,5,1
2382,0,0,0,0,0,11,7,18,5,1
2383,0,0,0,0,0,11,7,18,5,1
2384,0,0,0,0,0,11,7,18,5,1
2385,0,1,1,1,1,11,7,18,5,1
2386,1,1,0,0,1,11,7,18,5,1
2387,1,2,0,0,1,11,7,18,5,1
2388,1,1,0,0,1,11,7,18,5,1
2389,1,1,0,0,1,11,7,18,5,1
2390,1,0,1,1,0,11,7,18,5,1
2391,0,0,0,0,0,11,7,18,5,1
2392,0,2,0,0,0,11,7,18,5,1
2393,0,0,0,0,0,11,7,18,5,1
2394,0,0,0,0,0,11,7,18,5,1
2395,0,0,0,0,0,11,7,18,5,1
2396,0,1,1,1,1,11,7,18,5,1
2397,1,1,0,0,1,11,7,18,5,1
2398,1,1,0,0,1,11,7,18,5,1
2399,1,1,0,0,1,11,7,18,5,1
2400,1,1,0,0,1,11,7,18,5,1
2401,1,0,1,1,0,11,7,18,5,1
2402,0,2,0,0,0,11,7,18,5,1
2403,0,1,1,1,1,11,7,18,5,1
2404,1,1,0,0,1,11,7,18,5,1
2405,1,0,1,1,0,11,7,18,5,1
2406,0,1,1,1,1,11,7,18,5,1
2407,1,2,0,0,1,11,7,18,5,1
2408,1,0,1,1,0,11,7,18,5,1
2409,0,1,1,1,1,11,7,18,5,1
2410,1,2,0,0,1,11,7,18,5,1
2411,1,1,0,0,1,11,7,18,5,1
2412,1,1,0,0,1,11,7,18,5,1
2413,1,0,1,1,0,11,7,18,5,1
2414,0,0,0,0,0,11,7,18,5,1
2415,0,0,0,0,0,11,7,18,5,1
2416,0,1,1,1,1,11,7,18,5,1
2417,1,1,0,0,1,11,7,18,5,1
2418,1,2,0,0,1,11,7,18,5,1
2419,1,0,1,1,0,11,7,18,5,1
2420,0,0,0,0,0,11,7,18,5,1
2421,0,2,0,0,0,11,7,18,5,1
2422,0,1,1,1,1,11,7,18,5,1
2423,1,2,0,0,1,11,7,18,5,1
2424,1,2,0,0,1,11,7,18,5,1
2425,1,0,1,1,0,11,7,18,5,1
2426,0,0,0,0,0,11,7,18,5,1
2427,0,1,1,1,1,11,7,18,5,1
2428,1,1,0,0,1,11,7,18,5,1
2429,1,1,0,0,1,11,7,18,5,1
2430,1,0,1,1,0,11,7,18,5,1
2431,0,0,0,0,0,11,7,18,5,1
2432,0,2,0,0,0,11,7,18,5,1
2433,0,0,0,0,0,11,7,18,5,1
2434,0,0,0,0,0,11,7,18,5,1
2435,0,0,0,0,0,11,7,18,5,1
2436,0,1,1,1,1,11,7,18,5,1
2437,1,1,0,0,1,11,7,18,5,1
2438,1,2,0,0,1,11,7,18,5,1
2439,1,0,1,1,0,11,7,18,5,1
2440,0,1,1,1,1,11,7,18,5,1
2441,1,0,1,1,0,11,7,18,5,1
2442,0,2,0,0,0,11,7,18,5,1
2443,0,1,1,1,1,11,7,18,5,1
2444,1,2,0,0,1,11,7,18,5,1
2445,1,0,1,1,0,11,7,18,5,1
2446,0,2,0,0,0,11,7,18,5,1
2447,0,1,1,1,1,11,7,18,5,1
2448,1,1,0,0,1,11,7,18,5,1
2449,1,2,0,0,1,11,7,18,5,1
2450,1,1,0,0,1,11,7,18,5,1
2451,1,0,1,1,0,11,7,18,5,1
2452,0,1,1,1,1,11,7,18,5,1
2453,1,0,1,1,0,11,7,18,5,1
2454,0,1,1,1,1,11,7,18,5,1
2455,1,1,0,0,1,11,7,18,5,1
2456,1,2,0,0,1,11,7,18,5,1
2457,1,1,0,0,1,11,7,18,5,1
2458,1,0,1,1,0,11,7,18,5,1
2459,0,0,0,0,0,11,7,18,5,1
2460,0,1,1,1,1,11,7,18,5,1
2461,1,0,1,1,0,11,7,18,5,1
2462,0,0,0,0,0,11,7,18,5,1
2463,0,2,0,0,0,11,7,18,5,1
2464,0,0,0,0,0,11,7,18,5,1
2465,0,2,0,0,0,11,7,18,5,1
2466,0,1,1,1,1,11,7,18,5,1
2467,1,2,0,0,1,11,7,18,5,1
2468,1,2,0,0,1,11,7,18,5,1
2469,1,0,1,1,0,11,7,18,5,1
2470,0,1,1,1,1,11,7,18,5,1
2471,1,0,1,1,0,11,7,18,5,1
2472,0,1,1,1,1,11,7,18,5,1
2473,1,2,0,0,1,11,7,18,5,1
2474,1,0,1,1,0,11,7,18,5,1
2475,0,0,0,0,0,11,7,18,5,1
2476,0,0,0,0,0,11,7,18,5,1
2477,0,2,0,0,0,11,7,18,5,1
2478,0,2,0,0,0,11,7,18,5,1
2479,0,1,1,1,1,11,7,18,5,1
2480,1,1,0,0,1,11,7,18,5,1
2481,1,0,1,1,0,11,7,18,5,1
2482,0,1,1,1,1,11,7,18,5,1
2483,1,2,0,0,1,11,7,18,5,1
2484,1,2,0,0,1,11,7,18,5,1
2485,1,0,1,1,0,11,7,18,5,1
2486,0,1,1,1,1,11,7,18,5,1
2487,1,2,0,0,1,11,7,18,5,1
2488,1,1,0,0,1,11,7,18,5,1
2489,1,2,0,0,1,11,7,18,5,1
2490,1,1,0,0,1,11,7,18,5,1
2491,1,2,0,0,1,11,7,18,5,1
2492,1,1,0,0,1,11,7,18,5,1
2493,1,1,0,0,1,11,7,18,5,1
2494,1,0,1,1,0,11,7,18,5,1
2495,0,0,0,0,0,11,7,18,5,1
2496,0,1,1,1,1,11,7,18,5,1
2497,1,2,0,0,1,11,7,18,5,1
2498,1,0,1,1,0,11,7,18,5,1
2499,0,1,1,1,1,11,7,18,5,1
2500,1,0,1,1,0,11,7,18,5,1
