decision-cycle,state,dir,prediction,outcome,next-state,predict-yes-rulecount,predict-no-rulecount,total-rulecount,template-count,template-depth
1,State-A,U,1,0,State-A,1,1,2,2,0
2,State-A,U,0,0,State-A,1,1,2,2,0
