Connecting...
Connected to environment!
Listening to the stream from agent: 'flip'...
Running 2
DECISION: 0
reading tokens from input link data...
  - (15: I2 ^dir U)
  - (14: I2 ^reward 0)
  - (16: I2 ^see -1)
After input phase for DC: 0
putting zig on il
reading tokens from output link data...
  - (22: I3 ^dir U)
  - (27: I3 ^predict-yes N1)
  - (23: I3 ^see -1)
DECISION: 1
reading tokens from input link data...
  - (31: I2 ^dir U)
  - (30: I2 ^reward 0)
  - (29: I2 ^see 0)
  - (17: I2 ^zig 10)
After input phase for DC: 1
BUILT: U0
built episode for previous decision
putting zig on il
reading tokens from output link data...
  - (22: I3 ^dir U)
  - (41: I3 ^predict-no N2)
  - (33: I3 ^see 0)
Saving history to history-20121024-151814
Exiting
