decision-cycle,state,dir,prediction,outcome,next-state,predict-yes-rulecount,predict-no-rulecount,total-rulecount,template-count,template-depth
1,0,2,1,0,0,1,1,2,2,0
2,0,2,0,0,0,1,1,2,2,0
3,0,1,1,1,1,2,2,4,2,0
4,1,0,1,1,0,3,3,6,2,0
5,0,1,1,1,1,3,3,6,2,0
6,1,1,1,0,1,3,3,6,2,0
7,1,2,0,0,1,3,3,6,2,0
8,1,0,1,1,0,3,3,6,3,1
9,0,1,1,1,1,4,3,7,3,1
10,1,1,1,0,1,5,3,8,3,1
11,1,2,0,0,1,5,3,8,3,1
12,1,1,0,0,1,6,3,9,3,1
13,1,0,0,1,0,6,3,9,3,1
14,0,2,0,0,0,6,3,9,3,1
15,0,1,1,1,1,6,3,9,3,1
16,1,0,1,1,0,6,3,9,3,1
17,0,2,0,0,0,6,3,9,3,1
18,0,2,0,0,0,6,3,9,3,1
19,0,2,0,0,0,6,3,9,3,1
20,0,2,0,0,0,6,3,9,3,1
21,0,0,1,0,0,6,3,9,3,1
22,0,2,0,0,0,6,3,9,3,1
23,0,2,0,0,0,6,3,9,4,1
24,0,2,0,0,0,6,3,9,4,1
25,0,1,0,1,1,6,3,9,4,1
26,1,0,1,1,0,7,3,10,4,1
27,0,1,1,1,1,7,4,11,5,1
28,1,1,1,0,1,7,5,12,5,1
29,1,2,1,0,1,7,5,12,5,1
30,1,2,0,0,1,7,5,12,5,1
31,1,1,1,0,1,7,6,13,5,1
32,1,2,0,0,1,7,6,13,5,1
33,1,0,1,1,0,8,6,14,6,2
34,0,2,0,0,0,8,6,14,6,2
35,0,1,1,1,1,9,6,15,6,2
36,1,0,1,1,0,9,6,15,6,2
37,0,2,0,0,0,9,6,15,6,2
38,0,1,1,1,1,9,6,15,6,2
39,1,2,1,0,1,9,6,15,6,2
40,1,2,0,0,1,9,6,15,6,2
41,1,0,1,1,0,9,6,15,6,2
42,0,1,1,1,1,9,6,15,6,2
43,1,2,0,0,1,9,6,15,6,2
44,1,0,1,1,0,9,6,15,6,2
45,0,0,1,0,0,10,6,16,6,2
46,0,2,0,0,0,10,6,16,6,2
47,0,0,1,0,0,10,6,16,6,2
48,0,1,0,1,1,11,7,18,6,2
49,1,0,1,1,0,11,7,18,7,2
50,0,2,0,0,0,11,7,18,7,2
51,0,2,0,0,0,11,7,18,7,2
52,0,1,0,1,1,12,7,19,7,2
53,1,0,0,1,0,12,7,19,7,2
54,0,0,1,0,0,12,7,19,7,2
55,0,1,1,1,1,12,7,19,7,2
56,1,2,0,0,1,12,7,19,7,2
57,1,0,0,1,0,13,7,20,7,2
58,0,1,1,1,1,13,7,20,7,2
59,1,2,0,0,1,13,7,20,7,2
60,1,1,1,0,1,14,7,21,7,2
61,1,2,0,0,1,14,7,21,7,2
62,1,1,1,0,1,15,7,22,7,2
63,1,2,0,0,1,15,7,22,7,2
64,1,1,1,0,1,15,7,22,7,2
65,1,1,1,0,1,16,8,24,7,2
66,1,1,1,0,1,16,8,24,7,2
67,1,1,1,0,1,16,8,24,7,2
68,1,1,1,0,1,16,8,24,7,2
69,1,1,0,0,1,16,8,24,7,2
70,1,0,1,1,0,17,8,25,7,2
71,0,0,1,0,0,17,8,25,7,2
72,0,0,1,0,0,18,8,26,7,2
73,0,1,0,1,1,18,8,26,7,2
74,1,1,0,0,1,18,8,26,7,2
75,1,1,0,0,1,18,8,26,7,2
76,1,0,1,1,0,18,8,26,7,2
77,0,2,0,0,0,18,8,26,7,2
78,0,2,0,0,0,18,8,26,7,2
79,0,2,0,0,0,18,8,26,7,2
80,0,2,0,0,0,18,8,26,7,2
81,0,2,0,0,0,18,8,26,7,2
82,0,2,0,0,0,18,8,26,7,2
83,0,1,0,1,1,18,8,26,7,2
84,1,1,0,0,1,18,8,26,7,2
85,1,2,1,0,1,18,8,26,7,2
86,1,0,0,1,0,19,8,27,7,2
87,0,2,0,0,0,19,8,27,7,2
88,0,2,0,0,0,19,8,27,7,2
89,0,2,0,0,0,19,8,27,7,2
90,0,1,0,1,1,19,8,27,7,2
91,1,2,0,0,1,19,8,27,7,2
92,1,1,0,0,1,19,8,27,7,2
93,1,1,0,0,1,19,8,27,7,2
94,1,1,0,0,1,19,8,27,8,2
95,1,2,1,0,1,19,8,27,8,2
96,1,2,1,0,1,19,8,27,8,2
97,1,2,0,0,1,19,8,27,8,2
98,1,0,1,1,0,20,8,28,8,2
99,0,1,1,1,1,20,8,28,8,2
100,1,1,1,0,1,20,8,28,8,2
101,1,1,0,0,1,20,8,28,8,2
102,1,2,0,0,1,20,8,28,8,2
103,1,0,1,1,0,20,8,28,8,2
104,0,2,0,0,0,20,8,28,8,2
105,0,0,1,0,0,21,8,29,8,2
106,0,0,1,0,0,21,8,29,8,2
107,0,2,0,0,0,21,8,29,8,2
108,0,0,0,0,0,22,8,30,8,2
109,0,2,0,0,0,22,8,30,8,2
110,0,0,1,0,0,22,9,31,9,2
111,0,0,0,0,0,22,10,32,9,2
112,0,2,0,0,0,22,10,32,9,2
113,0,0,0,0,0,22,10,32,9,2
114,0,1,1,1,1,22,10,32,9,2
115,1,2,0,0,1,22,10,32,9,2
116,1,1,0,0,1,22,11,33,9,2
117,1,2,0,0,1,22,11,33,9,2
118,1,0,0,1,0,22,11,33,9,2
119,0,1,1,1,1,22,11,33,9,2
120,1,1,0,0,1,22,11,33,10,2
121,1,1,1,0,1,22,11,33,10,2
122,1,1,0,0,1,22,11,33,10,2
123,1,1,0,0,1,22,11,33,10,2
124,1,2,1,0,1,22,11,33,10,2
125,1,0,0,1,0,22,12,34,10,2
126,0,0,0,0,0,22,13,35,10,2
127,0,2,0,0,0,22,13,35,10,2
128,0,0,0,0,0,22,14,36,10,2
129,0,0,1,0,0,22,14,36,10,2
130,0,0,0,0,0,22,14,36,10,2
131,0,2,0,0,0,22,14,36,10,2
132,0,2,0,0,0,22,14,36,10,2
133,0,0,0,0,0,22,15,37,10,2
134,0,1,0,1,1,22,15,37,10,2
135,1,0,0,1,0,22,16,38,10,2
136,0,0,0,0,0,22,16,38,10,2
137,0,0,0,0,0,22,16,38,10,2
138,0,1,0,1,1,22,16,38,10,2
139,1,1,0,0,1,22,16,38,10,2
140,1,0,0,1,0,22,17,39,10,2
141,0,1,1,1,1,22,17,39,10,2
142,1,0,0,1,0,22,17,39,10,2
143,0,0,1,0,0,22,17,39,10,2
144,0,2,0,0,0,22,17,39,10,2
145,0,0,0,0,0,22,17,39,10,2
146,0,1,1,1,1,22,17,39,10,2
147,1,2,0,0,1,22,17,39,10,2
148,1,2,0,0,1,22,17,39,10,2
149,1,2,0,0,1,22,17,39,10,2
150,1,0,0,1,0,22,17,39,10,2
151,0,2,0,0,0,22,17,39,10,2
152,0,2,0,0,0,22,17,39,11,3
153,0,0,0,0,0,22,18,40,11,3
154,0,2,0,0,0,22,18,40,11,3
155,0,2,0,0,0,22,18,40,11,3
156,0,1,0,1,1,22,19,41,11,3
157,1,0,1,1,0,22,19,41,11,3
158,0,1,1,1,1,22,19,41,11,3
159,1,1,0,0,1,22,19,41,11,3
160,1,0,1,1,0,22,19,41,11,3
161,0,1,1,1,1,22,19,41,11,3
162,1,1,0,0,1,22,19,41,11,3
163,1,1,0,0,1,22,19,41,11,3
164,1,1,0,0,1,22,19,41,11,3
165,1,0,1,1,0,22,19,41,11,3
166,0,1,1,1,1,22,19,41,11,3
167,1,2,0,0,1,22,19,41,11,3
168,1,0,1,1,0,22,20,42,11,3
169,0,1,1,1,1,22,20,42,11,3
170,1,0,1,1,0,22,20,42,11,3
171,0,2,0,0,0,22,20,42,11,3
172,0,1,1,1,1,22,21,43,11,3
173,1,0,1,1,0,22,21,43,11,3
174,0,0,0,0,0,22,21,43,11,3
175,0,0,0,0,0,22,21,43,11,3
176,0,2,0,0,0,22,21,43,11,3
177,0,1,1,1,1,23,22,45,11,3
178,1,0,1,1,0,23,22,45,11,3
179,0,1,1,1,1,23,22,45,11,3
180,1,2,0,0,1,23,22,45,11,3
181,1,1,0,0,1,23,22,45,11,3
182,1,1,0,0,1,23,22,45,11,3
183,1,2,0,0,1,23,22,45,11,3
184,1,1,0,0,1,23,23,46,11,3
185,1,1,0,0,1,23,23,46,11,3
186,1,1,0,0,1,23,23,46,11,3
187,1,0,1,1,0,23,23,46,11,3
188,0,0,0,0,0,23,23,46,11,3
189,0,1,1,1,1,23,23,46,11,3
190,1,0,1,1,0,23,23,46,11,3
191,0,1,1,1,1,23,23,46,11,3
192,1,1,0,0,1,23,23,46,11,3
193,1,2,0,0,1,23,23,46,11,3
194,1,1,0,0,1,23,23,46,11,3
195,1,1,0,0,1,23,23,46,11,3
196,1,1,0,0,1,23,23,46,11,3
197,1,2,0,0,1,23,23,46,11,3
198,1,1,0,0,1,23,23,46,11,3
199,1,1,0,0,1,23,23,46,11,3
200,1,0,1,1,0,23,23,46,11,3
201,0,1,1,1,1,23,23,46,11,3
202,1,0,1,1,0,23,23,46,11,3
203,0,0,0,0,0,23,23,46,11,3
204,0,1,1,1,1,23,23,46,11,3
205,1,1,0,0,1,23,23,46,11,3
206,1,1,0,0,1,23,23,46,11,3
207,1,2,0,0,1,23,23,46,11,3
208,1,2,0,0,1,23,23,46,11,3
209,1,1,1,0,1,23,23,46,11,3
210,1,0,1,1,0,23,23,46,11,3
211,0,1,1,1,1,23,23,46,11,3
212,1,2,0,0,1,23,23,46,11,3
213,1,2,0,0,1,23,23,46,11,3
214,1,2,0,0,1,23,23,46,11,3
215,1,0,0,1,0,23,24,47,11,3
216,0,2,0,0,0,23,24,47,11,3
217,0,1,0,1,1,23,24,47,11,3
218,1,0,1,1,0,23,24,47,11,3
219,0,2,1,0,0,23,24,47,11,3
220,0,2,0,0,0,23,24,47,11,3
221,0,1,1,1,1,23,24,47,11,3
222,1,2,0,0,1,23,24,47,11,3
223,1,0,1,1,0,23,24,47,12,3
224,0,0,0,0,0,23,24,47,12,3
225,0,2,0,0,0,23,24,47,12,3
226,0,0,0,0,0,23,24,47,12,3
227,0,2,0,0,0,23,24,47,12,3
228,0,1,1,1,1,23,24,47,12,3
229,1,0,1,1,0,23,24,47,12,3
230,0,0,0,0,0,23,24,47,12,3
231,0,1,1,1,1,23,24,47,12,3
232,1,2,0,0,1,23,24,47,12,3
233,1,0,0,1,0,23,24,47,12,3
234,0,2,0,0,0,23,24,47,12,3
235,0,0,1,0,0,23,25,48,12,3
236,0,2,0,0,0,23,25,48,12,3
237,0,1,1,1,1,23,25,48,12,3
238,1,0,1,1,0,23,25,48,12,3
239,0,0,0,0,0,23,25,48,12,3
240,0,1,1,1,1,23,25,48,12,3
241,1,2,0,0,1,23,25,48,12,3
242,1,2,1,0,1,23,25,48,12,3
243,1,0,1,1,0,23,26,49,12,3
244,0,1,1,1,1,23,26,49,12,3
245,1,1,0,0,1,23,26,49,12,3
246,1,1,0,0,1,23,26,49,12,3
247,1,2,0,0,1,23,26,49,12,3
248,1,0,1,1,0,23,26,49,12,3
249,0,0,0,0,0,23,26,49,12,3
250,0,0,0,0,0,23,26,49,12,3
251,0,2,0,0,0,23,26,49,12,3
252,0,1,1,1,1,23,26,49,12,3
253,1,2,0,0,1,23,26,49,12,3
254,1,2,0,0,1,23,26,49,12,3
255,1,2,1,0,1,23,26,49,12,3
256,1,0,1,1,0,23,26,49,12,3
257,0,2,0,0,0,23,26,49,12,3
258,0,2,0,0,0,23,26,49,12,3
259,0,1,1,1,1,24,26,50,12,3
260,1,2,0,0,1,24,26,50,12,3
261,1,2,1,0,1,24,26,50,12,3
262,1,1,1,0,1,25,26,51,12,3
263,1,1,0,0,1,25,26,51,12,3
264,1,1,0,0,1,25,26,51,12,3
265,1,0,1,1,0,25,26,51,12,3
266,0,1,1,1,1,25,26,51,12,3
267,1,0,1,1,0,25,26,51,12,3
268,0,0,0,0,0,25,26,51,12,3
269,0,1,0,1,1,25,26,51,12,3
270,1,2,0,0,1,25,26,51,12,3
271,1,2,0,0,1,25,26,51,12,3
272,1,1,0,0,1,25,26,51,12,3
273,1,1,0,0,1,25,26,51,12,3
274,1,0,1,1,0,25,26,51,13,3
275,0,0,0,0,0,25,26,51,13,3
276,0,2,0,0,0,25,26,51,13,3
277,0,0,1,0,0,25,26,51,13,3
278,0,1,1,1,1,25,26,51,13,3
279,1,1,0,0,1,25,26,51,13,3
280,1,0,1,1,0,25,26,51,13,3
281,0,1,1,1,1,25,26,51,13,3
282,1,0,1,1,0,25,26,51,13,3
283,0,0,1,0,0,25,26,51,13,3
284,0,0,0,0,0,25,26,51,13,3
285,0,1,1,1,1,25,26,51,13,3
286,1,0,0,1,0,25,26,51,13,3
287,0,1,1,1,1,25,26,51,13,3
288,1,0,1,1,0,25,26,51,13,3
289,0,1,1,1,1,25,26,51,13,3
290,1,0,1,1,0,25,26,51,13,3
291,0,2,0,0,0,25,26,51,13,3
292,0,1,1,1,1,25,26,51,13,3
293,1,2,0,0,1,25,26,51,13,3
294,1,2,0,0,1,25,26,51,13,3
295,1,1,0,0,1,25,27,52,13,3
296,1,1,0,0,1,25,27,52,13,3
297,1,2,1,0,1,25,27,52,13,3
298,1,1,0,0,1,25,27,52,13,3
299,1,0,1,1,0,25,27,52,13,3
300,0,2,0,0,0,25,27,52,13,3
301,0,2,0,0,0,25,27,52,13,3
302,0,2,0,0,0,25,27,52,13,3
303,0,1,0,1,1,26,28,54,13,3
304,1,1,0,0,1,26,28,54,13,3
305,1,2,0,0,1,26,28,54,13,3
306,1,1,0,0,1,26,28,54,13,3
307,1,0,1,1,0,26,28,54,13,3
308,0,0,0,0,0,26,28,54,13,3
309,0,2,0,0,0,26,28,54,13,3
310,0,0,0,0,0,26,28,54,13,3
311,0,0,0,0,0,26,28,54,13,3
312,0,1,1,1,1,26,28,54,13,3
313,1,1,0,0,1,26,28,54,13,3
314,1,1,0,0,1,26,28,54,13,3
315,1,1,0,0,1,26,28,54,13,3
316,1,1,0,0,1,26,28,54,13,3
317,1,2,0,0,1,26,28,54,13,3
318,1,1,0,0,1,26,28,54,13,3
319,1,1,0,0,1,26,28,54,13,3
320,1,2,0,0,1,26,28,54,13,3
321,1,0,1,1,0,26,28,54,13,3
322,0,2,0,0,0,26,28,54,13,3
323,0,1,1,1,1,26,28,54,13,3
324,1,1,0,0,1,26,28,54,13,3
325,1,0,1,1,0,26,28,54,13,3
326,0,2,0,0,0,26,28,54,13,3
327,0,2,0,0,0,26,28,54,13,3
328,0,2,0,0,0,26,28,54,13,3
329,0,1,1,1,1,26,28,54,13,3
330,1,2,0,0,1,26,28,54,13,3
331,1,0,1,1,0,26,28,54,13,3
332,0,1,1,1,1,26,28,54,13,3
333,1,0,0,1,0,26,28,54,13,3
334,0,0,0,0,0,26,28,54,13,3
335,0,2,0,0,0,26,28,54,13,3
336,0,0,0,0,0,26,28,54,13,3
337,0,0,0,0,0,26,28,54,13,3
338,0,0,0,0,0,26,28,54,13,3
339,0,1,1,1,1,26,28,54,13,3
340,1,1,0,0,1,26,28,54,13,3
341,1,0,1,1,0,26,28,54,13,3
342,0,2,0,0,0,26,28,54,13,3
343,0,2,0,0,0,26,28,54,13,3
344,0,0,1,0,0,26,28,54,13,3
345,0,1,1,1,1,26,28,54,13,3
346,1,2,0,0,1,26,28,54,14,3
347,1,2,0,0,1,26,28,54,14,3
348,1,1,1,0,1,26,28,54,14,3
349,1,2,0,0,1,26,28,54,14,3
350,1,0,1,1,0,26,28,54,14,3
351,0,1,1,1,1,26,28,54,14,3
352,1,1,0,0,1,26,28,54,14,3
353,1,2,0,0,1,26,28,54,14,3
354,1,0,1,1,0,26,28,54,14,3
355,0,1,1,1,1,26,28,54,14,3
356,1,0,1,1,0,26,28,54,14,3
357,0,1,1,1,1,26,28,54,14,3
358,1,2,0,0,1,26,28,54,14,3
359,1,2,0,0,1,26,28,54,14,3
360,1,2,0,0,1,26,28,54,14,3
361,1,0,0,1,0,27,28,55,14,3
362,0,0,0,0,0,27,28,55,14,3
363,0,0,0,0,0,27,28,55,14,3
364,0,2,0,0,0,27,28,55,14,3
365,0,2,0,0,0,27,28,55,14,3
366,0,1,0,1,1,28,29,57,14,3
367,1,2,0,0,1,28,29,57,14,3
368,1,2,0,0,1,28,29,57,14,3
369,1,0,1,1,0,29,29,58,14,3
370,0,0,0,0,0,29,29,58,14,3
371,0,2,0,0,0,29,29,58,14,3
372,0,0,0,0,0,29,29,58,14,3
373,0,0,1,0,0,29,29,58,14,3
374,0,0,0,0,0,29,29,58,14,3
375,0,0,0,0,0,29,29,58,14,3
376,0,2,0,0,0,29,29,58,14,3
377,0,0,0,0,0,29,29,58,14,3
378,0,0,0,0,0,29,29,58,14,3
379,0,0,0,0,0,29,29,58,14,3
380,0,1,1,1,1,29,29,58,14,3
381,1,2,0,0,1,29,29,58,14,3
382,1,1,0,0,1,29,29,58,14,3
383,1,2,0,0,1,29,29,58,14,3
384,1,1,0,0,1,29,29,58,14,3
385,1,1,0,0,1,29,29,58,14,3
386,1,2,0,0,1,29,29,58,14,3
387,1,2,0,0,1,29,29,58,14,3
388,1,2,0,0,1,29,29,58,14,3
389,1,2,0,0,1,29,29,58,14,3
390,1,2,0,0,1,29,29,58,14,3
391,1,2,0,0,1,29,29,58,14,3
392,1,0,1,1,0,29,29,58,14,3
393,0,1,1,1,1,29,29,58,14,3
394,1,1,0,0,1,29,29,58,14,3
395,1,2,0,0,1,29,29,58,14,3
396,1,1,0,0,1,29,29,58,14,3
397,1,2,0,0,1,29,29,58,14,3
398,1,1,0,0,1,29,29,58,14,3
399,1,1,0,0,1,29,29,58,14,3
400,1,2,0,0,1,29,29,58,14,3
401,1,2,0,0,1,29,29,58,14,3
402,1,1,1,0,1,30,30,60,14,3
403,1,0,1,1,0,30,30,60,14,3
404,0,0,0,0,0,30,30,60,14,3
405,0,1,1,1,1,30,30,60,14,3
406,1,0,1,1,0,30,30,60,14,3
407,0,0,0,0,0,30,30,60,14,3
408,0,2,0,0,0,30,30,60,14,3
409,0,2,0,0,0,30,30,60,14,3
410,0,0,1,0,0,31,31,62,14,3
411,0,1,1,1,1,31,31,62,14,3
412,1,2,0,0,1,31,31,62,14,3
413,1,0,0,1,0,31,31,62,14,3
414,0,1,1,1,1,31,31,62,14,3
415,1,0,1,1,0,31,31,62,14,3
416,0,0,0,0,0,31,31,62,14,3
417,0,2,0,0,0,31,31,62,14,3
418,0,0,0,0,0,31,31,62,14,3
419,0,0,0,0,0,31,31,62,14,3
420,0,1,1,1,1,31,31,62,14,3
421,1,1,0,0,1,31,31,62,14,3
422,1,2,0,0,1,31,31,62,14,3
423,1,2,0,0,1,31,31,62,14,3
424,1,2,0,0,1,31,31,62,14,3
425,1,0,1,1,0,31,31,62,14,3
426,0,2,0,0,0,31,31,62,14,3
427,0,1,1,1,1,31,31,62,14,3
428,1,1,0,0,1,31,31,62,14,3
429,1,1,0,0,1,31,31,62,14,3
430,1,0,1,1,0,31,31,62,14,3
431,0,1,1,1,1,31,31,62,14,3
432,1,0,1,1,0,31,31,62,14,3
433,0,0,0,0,0,31,31,62,14,3
434,0,1,1,1,1,31,31,62,14,3
435,1,1,0,0,1,31,31,62,14,3
436,1,0,1,1,0,31,31,62,14,3
437,0,1,1,1,1,31,31,62,14,3
438,1,1,0,0,1,31,31,62,14,3
439,1,1,0,0,1,31,31,62,14,3
440,1,2,0,0,1,31,31,62,14,3
441,1,1,0,0,1,31,31,62,14,3
442,1,2,0,0,1,31,31,62,14,3
443,1,1,0,0,1,31,31,62,14,3
444,1,1,0,0,1,31,31,62,14,3
445,1,1,0,0,1,31,31,62,14,3
446,1,1,0,0,1,31,31,62,14,3
447,1,0,1,1,0,31,31,62,14,3
448,0,2,0,0,0,31,31,62,14,3
449,0,1,1,1,1,31,31,62,14,3
450,1,2,0,0,1,31,31,62,14,3
451,1,0,1,1,0,31,31,62,14,3
452,0,2,0,0,0,31,31,62,14,3
453,0,2,0,0,0,31,31,62,14,3
454,0,2,0,0,0,31,31,62,14,3
455,0,2,0,0,0,31,31,62,14,3
456,0,2,0,0,0,31,31,62,14,3
457,0,2,0,0,0,31,31,62,14,3
458,0,1,1,1,1,31,31,62,14,3
459,1,2,0,0,1,31,31,62,14,3
460,1,0,1,1,0,31,31,62,14,3
461,0,2,0,0,0,31,31,62,14,3
462,0,1,1,1,1,31,31,62,14,3
463,1,2,0,0,1,31,31,62,14,3
464,1,1,0,0,1,31,31,62,14,3
465,1,2,0,0,1,31,31,62,14,3
466,1,0,1,1,0,31,31,62,14,3
467,0,0,0,0,0,31,31,62,14,3
468,0,2,0,0,0,31,31,62,14,3
469,0,1,1,1,1,31,31,62,14,3
470,1,2,0,0,1,31,31,62,14,3
471,1,2,0,0,1,31,31,62,14,3
472,1,1,0,0,1,31,31,62,14,3
473,1,1,0,0,1,31,31,62,14,3
474,1,0,1,1,0,31,31,62,14,3
475,0,0,0,0,0,31,31,62,14,3
476,0,2,0,0,0,31,31,62,14,3
477,0,2,0,0,0,31,31,62,14,3
478,0,2,0,0,0,31,31,62,14,3
479,0,2,0,0,0,31,31,62,14,3
480,0,1,1,1,1,31,31,62,14,3
481,1,0,1,1,0,31,31,62,14,3
482,0,0,0,0,0,31,31,62,14,3
483,0,1,1,1,1,31,31,62,14,3
484,1,1,0,0,1,31,31,62,14,3
485,1,2,0,0,1,31,31,62,14,3
486,1,2,0,0,1,31,31,62,14,3
487,1,1,0,0,1,31,31,62,14,3
488,1,0,1,1,0,31,31,62,14,3
489,0,2,0,0,0,31,31,62,14,3
490,0,2,0,0,0,31,31,62,14,3
491,0,0,1,0,0,32,31,63,14,3
492,0,1,1,1,1,32,31,63,14,3
493,1,2,0,0,1,32,31,63,14,3
494,1,0,1,1,0,32,31,63,14,3
495,0,2,0,0,0,32,31,63,14,3
496,0,2,0,0,0,32,31,63,14,3
497,0,2,0,0,0,32,31,63,14,3
498,0,0,1,0,0,32,31,63,14,3
499,0,0,0,0,0,32,31,63,14,3
500,0,1,1,1,1,32,31,63,15,4
501,1,0,1,1,0,32,31,63,15,4
502,0,1,1,1,1,32,31,63,15,4
503,1,0,1,1,0,32,31,63,15,4
504,0,2,0,0,0,32,31,63,15,4
505,0,2,0,0,0,32,31,63,15,4
506,0,0,0,0,0,32,31,63,15,4
507,0,2,0,0,0,32,31,63,15,4
508,0,0,0,0,0,32,31,63,15,4
509,0,0,0,0,0,32,31,63,15,4
510,0,2,0,0,0,32,31,63,15,4
511,0,2,0,0,0,32,31,63,15,4
512,0,0,0,0,0,32,31,63,15,4
513,0,0,0,0,0,32,31,63,15,4
514,0,1,1,1,1,32,31,63,15,4
515,1,0,1,1,0,32,31,63,15,4
516,0,1,1,1,1,32,31,63,15,4
517,1,2,0,0,1,32,31,63,15,4
518,1,0,1,1,0,32,31,63,15,4
519,0,0,0,0,0,32,31,63,15,4
520,0,1,1,1,1,32,31,63,15,4
521,1,2,0,0,1,32,31,63,15,4
522,1,0,1,1,0,32,31,63,15,4
523,0,2,0,0,0,32,31,63,15,4
524,0,1,1,1,1,32,31,63,15,4
525,1,1,0,0,1,32,31,63,15,4
526,1,0,1,1,0,32,31,63,15,4
527,0,2,0,0,0,32,31,63,15,4
528,0,2,0,0,0,32,31,63,15,4
529,0,1,0,1,1,32,32,64,15,4
530,1,0,1,1,0,32,32,64,15,4
531,0,2,0,0,0,32,32,64,15,4
532,0,0,0,0,0,32,32,64,15,4
533,0,1,1,1,1,32,32,64,15,4
534,1,0,1,1,0,32,32,64,15,4
535,0,2,0,0,0,32,32,64,15,4
536,0,2,0,0,0,32,32,64,15,4
537,0,2,0,0,0,32,32,64,15,4
538,0,0,1,0,0,33,32,65,15,4
539,0,0,0,0,0,33,32,65,15,4
540,0,2,0,0,0,33,32,65,15,4
541,0,0,0,0,0,33,32,65,15,4
542,0,1,1,1,1,33,32,65,15,4
543,1,0,1,1,0,33,32,65,15,4
544,0,0,0,0,0,33,32,65,15,4
545,0,0,0,0,0,33,32,65,15,4
546,0,0,0,0,0,33,32,65,15,4
547,0,0,0,0,0,33,32,65,15,4
548,0,1,1,1,1,33,32,65,15,4
549,1,1,0,0,1,33,32,65,15,4
550,1,2,0,0,1,33,32,65,15,4
551,1,0,0,1,0,33,32,65,15,4
552,0,1,1,1,1,33,32,65,15,4
553,1,1,0,0,1,33,32,65,15,4
554,1,0,1,1,0,33,32,65,15,4
555,0,1,1,1,1,33,32,65,15,4
556,1,1,0,0,1,33,32,65,15,4
557,1,2,0,0,1,33,32,65,15,4
558,1,0,1,1,0,33,32,65,15,4
559,0,1,1,1,1,33,32,65,15,4
560,1,1,0,0,1,33,32,65,15,4
561,1,2,0,0,1,33,32,65,15,4
562,1,0,1,1,0,33,32,65,15,4
563,0,0,0,0,0,33,32,65,15,4
564,0,0,0,0,0,33,32,65,15,4
565,0,1,1,1,1,33,32,65,15,4
566,1,2,0,0,1,33,32,65,15,4
567,1,2,0,0,1,33,32,65,15,4
568,1,0,0,1,0,33,32,65,15,4
569,0,1,1,1,1,33,32,65,15,4
570,1,2,0,0,1,33,32,65,15,4
571,1,2,0,0,1,33,32,65,15,4
572,1,1,0,0,1,33,32,65,15,4
573,1,1,0,0,1,33,32,65,15,4
574,1,2,0,0,1,33,32,65,15,4
575,1,1,0,0,1,33,32,65,15,4
576,1,0,1,1,0,33,32,65,15,4
577,0,1,1,1,1,33,32,65,15,4
578,1,2,0,0,1,33,32,65,15,4
579,1,0,1,1,0,33,32,65,15,4
580,0,1,1,1,1,33,32,65,15,4
581,1,1,0,0,1,33,32,65,15,4
582,1,1,0,0,1,33,32,65,15,4
583,1,0,1,1,0,33,32,65,15,4
584,0,0,0,0,0,33,32,65,15,4
585,0,2,0,0,0,33,32,65,15,4
586,0,1,1,1,1,33,32,65,15,4
587,1,0,1,1,0,33,32,65,15,4
588,0,0,0,0,0,33,32,65,15,4
589,0,2,0,0,0,33,32,65,15,4
590,0,1,1,1,1,33,32,65,15,4
591,1,1,0,0,1,33,32,65,15,4
592,1,0,1,1,0,33,32,65,15,4
593,0,2,0,0,0,33,32,65,15,4
594,0,1,1,1,1,33,32,65,15,4
595,1,2,0,0,1,33,32,65,15,4
596,1,2,0,0,1,33,32,65,15,4
597,1,0,1,1,0,33,32,65,15,4
598,0,2,0,0,0,33,32,65,15,4
599,0,0,0,0,0,33,32,65,15,4
600,0,2,0,0,0,33,32,65,15,4
601,0,0,0,0,0,33,32,65,15,4
602,0,2,0,0,0,33,32,65,15,4
603,0,0,0,0,0,33,32,65,15,4
604,0,0,0,0,0,33,32,65,15,4
605,0,1,1,1,1,33,32,65,15,4
606,1,1,0,0,1,33,32,65,15,4
607,1,1,0,0,1,33,32,65,15,4
608,1,0,1,1,0,33,32,65,15,4
609,0,0,0,0,0,33,32,65,15,4
610,0,0,0,0,0,33,32,65,15,4
611,0,2,0,0,0,33,32,65,15,4
612,0,2,0,0,0,33,32,65,15,4
613,0,1,1,1,1,33,32,65,15,4
614,1,0,1,1,0,33,32,65,15,4
615,0,2,0,0,0,33,32,65,15,4
616,0,0,0,0,0,33,32,65,15,4
617,0,1,1,1,1,33,32,65,15,4
618,1,1,0,0,1,33,32,65,15,4
619,1,0,1,1,0,33,32,65,15,4
620,0,2,0,0,0,33,32,65,15,4
621,0,0,0,0,0,33,32,65,15,4
622,0,1,1,1,1,33,32,65,15,4
623,1,0,1,1,0,33,32,65,15,4
624,0,1,1,1,1,33,32,65,15,4
625,1,1,0,0,1,33,32,65,15,4
626,1,1,0,0,1,33,32,65,15,4
627,1,1,0,0,1,33,32,65,15,4
628,1,1,0,0,1,33,32,65,15,4
629,1,1,0,0,1,33,32,65,15,4
630,1,1,0,0,1,33,32,65,15,4
631,1,2,0,0,1,33,32,65,15,4
632,1,2,0,0,1,33,32,65,15,4
633,1,0,0,1,0,34,33,67,15,4
634,0,1,1,1,1,34,33,67,15,4
635,1,1,0,0,1,34,33,67,15,4
636,1,0,1,1,0,34,33,67,15,4
637,0,2,0,0,0,34,33,67,15,4
638,0,1,1,1,1,34,33,67,15,4
639,1,1,0,0,1,34,33,67,15,4
640,1,0,1,1,0,34,33,67,15,4
641,0,2,0,0,0,34,33,67,15,4
642,0,1,1,1,1,34,33,67,15,4
643,1,1,0,0,1,34,33,67,15,4
644,1,1,0,0,1,34,33,67,15,4
645,1,1,0,0,1,34,33,67,15,4
646,1,2,0,0,1,34,33,67,15,4
647,1,0,1,1,0,34,33,67,15,4
648,0,1,1,1,1,34,33,67,15,4
649,1,0,1,1,0,34,33,67,15,4
650,0,0,0,0,0,34,33,67,15,4
651,0,2,0,0,0,34,33,67,15,4
652,0,0,0,0,0,34,33,67,15,4
653,0,1,1,1,1,34,33,67,15,4
654,1,0,1,1,0,34,33,67,15,4
655,0,1,1,1,1,34,33,67,15,4
656,1,2,0,0,1,34,33,67,15,4
657,1,0,1,1,0,34,33,67,15,4
658,0,1,1,1,1,34,33,67,15,4
659,1,0,1,1,0,34,33,67,15,4
660,0,2,0,0,0,34,33,67,15,4
661,0,2,0,0,0,34,33,67,15,4
662,0,2,0,0,0,34,33,67,15,4
663,0,2,0,0,0,34,33,67,15,4
664,0,0,1,0,0,35,33,68,15,4
665,0,0,0,0,0,35,33,68,15,4
666,0,1,1,1,1,35,33,68,15,4
667,1,2,0,0,1,35,33,68,15,4
668,1,2,0,0,1,35,33,68,15,4
669,1,2,0,0,1,35,33,68,15,4
670,1,2,0,0,1,35,33,68,15,4
671,1,0,1,1,0,35,33,68,15,4
672,0,2,0,0,0,35,33,68,15,4
673,0,0,0,0,0,35,33,68,16,5
674,0,0,0,0,0,35,33,68,16,5
675,0,1,1,1,1,35,33,68,16,5
676,1,0,1,1,0,35,33,68,16,5
677,0,0,0,0,0,35,33,68,16,5
678,0,1,1,1,1,35,33,68,16,5
679,1,2,0,0,1,35,33,68,16,5
680,1,1,0,0,1,35,33,68,16,5
681,1,1,0,0,1,35,33,68,16,5
682,1,2,0,0,1,35,33,68,16,5
683,1,1,0,0,1,35,33,68,16,5
684,1,0,1,1,0,35,33,68,16,5
685,0,2,0,0,0,35,33,68,16,5
686,0,1,1,1,1,35,33,68,16,5
687,1,2,0,0,1,35,33,68,16,5
688,1,1,0,0,1,35,33,68,16,5
689,1,2,0,0,1,35,33,68,16,5
690,1,1,0,0,1,35,33,68,16,5
691,1,0,1,1,0,35,33,68,16,5
692,0,0,0,0,0,35,33,68,16,5
693,0,2,0,0,0,35,33,68,16,5
694,0,1,1,1,1,35,33,68,16,5
695,1,0,1,1,0,35,33,68,16,5
696,0,1,1,1,1,35,33,68,16,5
697,1,0,1,1,0,35,33,68,16,5
698,0,0,0,0,0,35,33,68,16,5
699,0,0,0,0,0,35,33,68,16,5
700,0,0,0,0,0,35,33,68,16,5
701,0,1,1,1,1,35,33,68,16,5
702,1,0,1,1,0,35,33,68,16,5
703,0,1,1,1,1,35,33,68,16,5
704,1,1,0,0,1,35,33,68,16,5
705,1,2,0,0,1,35,33,68,16,5
706,1,1,0,0,1,35,33,68,16,5
707,1,0,1,1,0,35,33,68,16,5
708,0,2,0,0,0,35,33,68,16,5
709,0,1,1,1,1,35,33,68,16,5
710,1,1,0,0,1,35,33,68,16,5
711,1,1,0,0,1,35,33,68,16,5
712,1,1,0,0,1,35,33,68,16,5
713,1,2,0,0,1,35,33,68,16,5
714,1,2,0,0,1,35,33,68,16,5
715,1,2,0,0,1,35,33,68,16,5
716,1,2,0,0,1,35,33,68,16,5
717,1,1,1,0,1,35,33,68,16,5
718,1,1,0,0,1,35,33,68,16,5
719,1,2,0,0,1,35,33,68,17,5
720,1,0,1,1,0,35,33,68,17,5
721,0,0,0,0,0,35,33,68,17,5
722,0,0,0,0,0,35,33,68,17,5
723,0,0,0,0,0,35,33,68,17,5
724,0,0,0,0,0,35,33,68,17,5
725,0,1,1,1,1,35,33,68,17,5
726,1,0,1,1,0,35,33,68,17,5
727,0,2,0,0,0,35,33,68,17,5
728,0,2,0,0,0,35,33,68,17,5
729,0,2,0,0,0,35,33,68,17,5
730,0,1,1,1,1,36,33,69,17,5
731,1,2,0,0,1,36,33,69,17,5
732,1,1,0,0,1,36,33,69,17,5
733,1,1,0,0,1,36,33,69,17,5
734,1,0,1,1,0,36,33,69,17,5
735,0,2,0,0,0,36,33,69,17,5
736,0,2,0,0,0,36,33,69,17,5
737,0,0,0,0,0,36,33,69,17,5
738,0,1,1,1,1,36,33,69,17,5
739,1,0,1,1,0,36,33,69,17,5
740,0,0,0,0,0,36,33,69,17,5
741,0,0,0,0,0,36,33,69,17,5
742,0,1,1,1,1,36,33,69,17,5
743,1,0,1,1,0,36,33,69,17,5
744,0,1,1,1,1,36,33,69,17,5
745,1,0,1,1,0,36,33,69,17,5
746,0,0,0,0,0,36,33,69,17,5
747,0,2,0,0,0,36,33,69,17,5
748,0,2,0,0,0,36,33,69,17,5
749,0,0,0,0,0,36,33,69,17,5
750,0,2,0,0,0,36,33,69,17,5
751,0,0,0,0,0,36,33,69,17,5
752,0,1,1,1,1,36,33,69,17,5
753,1,2,0,0,1,36,33,69,17,5
754,1,0,1,1,0,36,33,69,17,5
755,0,2,0,0,0,36,33,69,17,5
756,0,0,0,0,0,36,33,69,17,5
757,0,1,1,1,1,36,33,69,17,5
758,1,2,0,0,1,36,33,69,17,5
759,1,0,1,1,0,36,33,69,17,5
760,0,2,0,0,0,36,33,69,17,5
761,0,2,0,0,0,36,33,69,17,5
762,0,1,1,1,1,36,33,69,17,5
763,1,0,1,1,0,36,33,69,17,5
764,0,0,0,0,0,36,33,69,17,5
765,0,0,0,0,0,36,33,69,17,5
766,0,2,0,0,0,36,33,69,17,5
767,0,1,1,1,1,36,33,69,17,5
768,1,2,0,0,1,36,33,69,17,5
769,1,1,0,0,1,36,33,69,17,5
770,1,0,1,1,0,36,33,69,17,5
771,0,1,1,1,1,36,33,69,17,5
772,1,2,0,0,1,36,33,69,17,5
773,1,2,0,0,1,36,33,69,17,5
774,1,0,1,1,0,36,33,69,17,5
775,0,0,0,0,0,36,33,69,17,5
776,0,1,1,1,1,36,33,69,17,5
777,1,0,1,1,0,36,33,69,17,5
778,0,2,0,0,0,36,33,69,17,5
779,0,2,0,0,0,36,33,69,17,5
780,0,0,0,0,0,36,33,69,17,5
781,0,1,1,1,1,36,33,69,17,5
782,1,1,0,0,1,36,33,69,17,5
783,1,0,1,1,0,36,33,69,17,5
784,0,1,1,1,1,36,33,69,17,5
785,1,0,1,1,0,36,33,69,17,5
786,0,0,0,0,0,36,33,69,17,5
787,0,1,1,1,1,36,33,69,17,5
788,1,1,0,0,1,36,33,69,17,5
789,1,1,0,0,1,36,33,69,17,5
790,1,0,1,1,0,36,33,69,17,5
791,0,0,0,0,0,36,33,69,17,5
792,0,0,0,0,0,36,33,69,17,5
793,0,2,0,0,0,36,33,69,17,5
794,0,0,0,0,0,36,33,69,17,5
795,0,2,0,0,0,36,33,69,17,5
796,0,0,0,0,0,36,33,69,17,5
797,0,0,0,0,0,36,33,69,17,5
798,0,2,0,0,0,36,33,69,17,5
799,0,1,1,1,1,36,33,69,17,5
800,1,2,0,0,1,36,33,69,17,5
801,1,1,0,0,1,36,33,69,17,5
802,1,2,0,0,1,36,33,69,17,5
803,1,0,1,1,0,36,33,69,17,5
804,0,1,1,1,1,36,33,69,17,5
805,1,0,1,1,0,36,33,69,17,5
806,0,2,0,0,0,36,33,69,17,5
807,0,1,1,1,1,36,33,69,17,5
808,1,2,0,0,1,36,33,69,17,5
809,1,2,0,0,1,36,33,69,17,5
810,1,1,0,0,1,36,33,69,17,5
811,1,0,1,1,0,36,33,69,17,5
812,0,2,0,0,0,36,33,69,17,5
813,0,0,0,0,0,36,33,69,17,5
814,0,1,1,1,1,36,33,69,17,5
815,1,2,0,0,1,36,33,69,17,5
816,1,0,1,1,0,36,33,69,17,5
817,0,1,1,1,1,36,33,69,17,5
818,1,0,1,1,0,36,33,69,17,5
819,0,0,0,0,0,36,33,69,17,5
820,0,2,0,0,0,36,33,69,17,5
821,0,1,1,1,1,36,33,69,17,5
822,1,0,1,1,0,36,33,69,17,5
823,0,1,1,1,1,36,33,69,17,5
824,1,0,1,1,0,36,33,69,17,5
825,0,0,0,0,0,36,33,69,17,5
826,0,1,1,1,1,36,33,69,17,5
827,1,2,0,0,1,36,33,69,17,5
828,1,1,0,0,1,36,33,69,17,5
829,1,0,1,1,0,36,33,69,17,5
830,0,2,0,0,0,36,33,69,17,5
831,0,2,0,0,0,36,33,69,17,5
832,0,2,0,0,0,36,33,69,17,5
833,0,1,1,1,1,36,33,69,17,5
834,1,2,0,0,1,36,33,69,17,5
835,1,0,1,1,0,36,33,69,17,5
836,0,2,0,0,0,36,33,69,17,5
837,0,2,0,0,0,36,33,69,17,5
838,0,2,0,0,0,36,33,69,17,5
839,0,1,1,1,1,36,33,69,17,5
840,1,1,0,0,1,36,33,69,17,5
841,1,1,0,0,1,36,33,69,17,5
842,1,2,0,0,1,36,33,69,17,5
843,1,0,1,1,0,36,33,69,17,5
844,0,2,0,0,0,36,33,69,17,5
845,0,1,1,1,1,36,33,69,17,5
846,1,1,0,0,1,36,33,69,17,5
847,1,1,0,0,1,36,33,69,17,5
848,1,0,1,1,0,36,33,69,17,5
849,0,0,0,0,0,36,33,69,17,5
850,0,1,1,1,1,36,33,69,17,5
851,1,1,0,0,1,36,33,69,17,5
852,1,1,0,0,1,36,33,69,17,5
853,1,2,0,0,1,36,33,69,17,5
854,1,1,0,0,1,36,33,69,17,5
855,1,0,1,1,0,36,33,69,17,5
856,0,2,0,0,0,36,33,69,17,5
857,0,0,0,0,0,36,33,69,17,5
858,0,1,1,1,1,36,33,69,17,5
859,1,2,0,0,1,36,33,69,17,5
860,1,2,0,0,1,36,33,69,17,5
861,1,2,0,0,1,36,33,69,17,5
862,1,1,1,0,1,37,33,70,17,5
863,1,0,1,1,0,37,33,70,17,5
864,0,0,0,0,0,37,33,70,17,5
865,0,2,0,0,0,37,33,70,17,5
866,0,2,0,0,0,37,33,70,17,5
867,0,1,0,1,1,37,33,70,17,5
868,1,1,0,0,1,37,33,70,17,5
869,1,2,0,0,1,37,33,70,17,5
870,1,1,0,0,1,37,33,70,17,5
871,1,0,1,1,0,37,33,70,17,5
872,0,2,0,0,0,37,33,70,17,5
873,0,0,0,0,0,37,33,70,17,5
874,0,1,1,1,1,37,33,70,17,5
875,1,1,0,0,1,37,33,70,17,5
876,1,2,0,0,1,37,33,70,17,5
877,1,0,1,1,0,37,33,70,17,5
878,0,0,0,0,0,37,33,70,17,5
879,0,1,1,1,1,37,33,70,17,5
880,1,0,1,1,0,37,33,70,17,5
881,0,0,0,0,0,37,33,70,17,5
882,0,0,0,0,0,37,33,70,17,5
883,0,1,1,1,1,37,33,70,17,5
884,1,0,1,1,0,37,33,70,17,5
885,0,0,0,0,0,37,33,70,17,5
886,0,2,0,0,0,37,33,70,17,5
887,0,1,1,1,1,37,33,70,17,5
888,1,2,0,0,1,37,33,70,17,5
889,1,0,1,1,0,37,33,70,17,5
890,0,1,1,1,1,37,33,70,17,5
891,1,1,0,0,1,37,33,70,17,5
892,1,0,1,1,0,37,33,70,17,5
893,0,0,0,0,0,37,33,70,17,5
894,0,2,0,0,0,37,33,70,17,5
895,0,2,0,0,0,37,33,70,17,5
896,0,1,1,1,1,37,33,70,17,5
897,1,1,0,0,1,37,33,70,17,5
898,1,0,1,1,0,37,33,70,17,5
899,0,1,1,1,1,37,33,70,17,5
900,1,2,0,0,1,37,33,70,17,5
901,1,2,0,0,1,37,33,70,17,5
902,1,1,0,0,1,37,33,70,17,5
903,1,0,1,1,0,37,33,70,17,5
904,0,2,0,0,0,37,33,70,17,5
905,0,1,1,1,1,37,33,70,17,5
906,1,1,0,0,1,37,33,70,17,5
907,1,0,1,1,0,37,33,70,17,5
908,0,0,0,0,0,37,33,70,17,5
909,0,2,0,0,0,37,33,70,17,5
910,0,1,1,1,1,37,33,70,17,5
911,1,2,0,0,1,37,33,70,17,5
912,1,0,1,1,0,37,33,70,17,5
913,0,0,0,0,0,37,33,70,17,5
914,0,2,0,0,0,37,33,70,17,5
915,0,2,0,0,0,37,33,70,17,5
916,0,0,0,0,0,37,33,70,17,5
917,0,0,0,0,0,37,33,70,17,5
918,0,2,0,0,0,37,33,70,17,5
919,0,0,0,0,0,37,33,70,17,5
920,0,2,0,0,0,37,33,70,17,5
921,0,2,0,0,0,37,33,70,17,5
922,0,0,0,0,0,37,33,70,17,5
923,0,0,0,0,0,37,33,70,17,5
924,0,2,0,0,0,37,33,70,17,5
925,0,1,1,1,1,37,33,70,17,5
926,1,1,0,0,1,37,33,70,17,5
927,1,1,0,0,1,37,33,70,17,5
928,1,0,1,1,0,37,33,70,17,5
929,0,1,1,1,1,37,33,70,17,5
930,1,0,1,1,0,37,33,70,17,5
931,0,2,0,0,0,37,33,70,17,5
932,0,2,0,0,0,37,33,70,17,5
933,0,0,0,0,0,37,33,70,17,5
934,0,2,0,0,0,37,33,70,17,5
935,0,0,0,0,0,37,33,70,17,5
936,0,0,0,0,0,37,33,70,17,5
937,0,0,0,0,0,37,33,70,17,5
938,0,0,0,0,0,37,33,70,17,5
939,0,0,0,0,0,37,33,70,17,5
940,0,1,1,1,1,37,33,70,17,5
941,1,2,0,0,1,37,33,70,17,5
942,1,1,0,0,1,37,33,70,17,5
943,1,0,1,1,0,37,33,70,17,5
944,0,1,1,1,1,37,33,70,17,5
945,1,1,0,0,1,37,33,70,17,5
946,1,0,1,1,0,37,33,70,17,5
947,0,2,0,0,0,37,33,70,17,5
948,0,1,1,1,1,37,33,70,17,5
949,1,2,0,0,1,37,33,70,17,5
950,1,2,0,0,1,37,33,70,17,5
951,1,1,0,0,1,37,33,70,17,5
952,1,0,1,1,0,37,33,70,17,5
953,0,2,0,0,0,37,33,70,17,5
954,0,1,1,1,1,37,33,70,17,5
955,1,2,0,0,1,37,33,70,17,5
956,1,1,0,0,1,37,33,70,17,5
957,1,1,0,0,1,37,33,70,17,5
958,1,0,1,1,0,37,33,70,17,5
959,0,2,0,0,0,37,33,70,17,5
960,0,0,0,0,0,37,33,70,17,5
961,0,2,0,0,0,37,33,70,17,5
962,0,1,1,1,1,37,33,70,17,5
963,1,2,0,0,1,37,33,70,17,5
964,1,0,1,1,0,37,33,70,17,5
965,0,2,0,0,0,37,33,70,17,5
966,0,0,0,0,0,37,33,70,17,5
967,0,1,1,1,1,37,33,70,17,5
968,1,1,0,0,1,37,33,70,17,5
969,1,2,0,0,1,37,33,70,17,5
970,1,2,0,0,1,37,33,70,17,5
971,1,0,0,1,0,37,33,70,17,5
972,0,1,1,1,1,37,33,70,17,5
973,1,0,1,1,0,37,33,70,17,5
974,0,2,0,0,0,37,33,70,17,5
975,0,2,0,0,0,37,33,70,17,5
976,0,1,1,1,1,37,33,70,17,5
977,1,2,0,0,1,37,33,70,17,5
978,1,2,0,0,1,37,33,70,17,5
979,1,1,0,0,1,37,33,70,17,5
980,1,2,0,0,1,37,33,70,17,5
981,1,2,0,0,1,37,33,70,17,5
982,1,0,1,1,0,37,33,70,17,5
983,0,2,0,0,0,37,33,70,17,5
984,0,0,0,0,0,37,33,70,17,5
985,0,2,0,0,0,37,33,70,17,5
986,0,1,1,1,1,37,33,70,17,5
987,1,2,0,0,1,37,33,70,17,5
988,1,1,0,0,1,37,33,70,17,5
989,1,1,0,0,1,37,33,70,17,5
990,1,0,1,1,0,37,33,70,17,5
991,0,2,0,0,0,37,33,70,17,5
992,0,1,1,1,1,37,33,70,17,5
993,1,2,0,0,1,37,33,70,17,5
994,1,0,1,1,0,37,33,70,17,5
995,0,0,0,0,0,37,33,70,17,5
996,0,0,0,0,0,37,33,70,17,5
997,0,0,0,0,0,37,33,70,17,5
998,0,2,0,0,0,37,33,70,17,5
999,0,2,0,0,0,37,33,70,17,5
1000,0,1,1,1,1,37,33,70,17,5
1001,1,2,0,0,1,37,33,70,17,5
1002,1,2,0,0,1,37,33,70,17,5
1003,1,2,0,0,1,37,33,70,17,5
1004,1,2,0,0,1,37,33,70,17,5
1005,1,0,1,1,0,38,33,71,17,5
1006,0,1,1,1,1,38,33,71,17,5
1007,1,1,0,0,1,38,33,71,17,5
1008,1,2,0,0,1,38,33,71,17,5
1009,1,0,1,1,0,38,33,71,17,5
1010,0,0,0,0,0,38,33,71,17,5
1011,0,1,1,1,1,38,33,71,17,5
1012,1,0,1,1,0,38,33,71,17,5
1013,0,0,0,0,0,38,33,71,17,5
1014,0,1,1,1,1,38,33,71,17,5
1015,1,2,0,0,1,38,33,71,17,5
1016,1,1,0,0,1,38,33,71,17,5
1017,1,2,0,0,1,38,33,71,17,5
1018,1,0,1,1,0,38,33,71,17,5
1019,0,0,0,0,0,38,33,71,17,5
1020,0,1,1,1,1,38,33,71,17,5
1021,1,2,0,0,1,38,33,71,17,5
1022,1,2,0,0,1,38,33,71,17,5
1023,1,2,0,0,1,38,33,71,17,5
1024,1,1,1,0,1,38,33,71,17,5
1025,1,1,0,0,1,38,33,71,17,5
1026,1,2,0,0,1,38,33,71,17,5
1027,1,0,1,1,0,38,33,71,17,5
1028,0,2,0,0,0,38,33,71,17,5
1029,0,2,0,0,0,38,33,71,17,5
1030,0,2,0,0,0,38,33,71,17,5
1031,0,2,0,0,0,38,33,71,17,5
1032,0,0,1,0,0,39,33,72,17,5
1033,0,1,1,1,1,39,33,72,17,5
1034,1,2,0,0,1,39,33,72,17,5
1035,1,1,0,0,1,39,33,72,17,5
1036,1,1,0,0,1,39,33,72,17,5
1037,1,2,0,0,1,39,33,72,17,5
1038,1,1,0,0,1,39,33,72,17,5
1039,1,1,0,0,1,39,33,72,17,5
1040,1,1,0,0,1,39,33,72,17,5
1041,1,2,0,0,1,39,33,72,17,5
1042,1,0,1,1,0,39,33,72,17,5
1043,0,0,0,0,0,39,33,72,17,5
1044,0,1,1,1,1,39,33,72,17,5
1045,1,2,0,0,1,39,33,72,17,5
1046,1,2,0,0,1,39,33,72,17,5
1047,1,1,0,0,1,39,33,72,17,5
1048,1,1,0,0,1,39,33,72,17,5
1049,1,1,0,0,1,39,33,72,17,5
1050,1,2,0,0,1,39,33,72,17,5
1051,1,0,1,1,0,39,33,72,17,5
1052,0,2,0,0,0,39,33,72,17,5
1053,0,0,0,0,0,39,33,72,17,5
1054,0,2,0,0,0,39,33,72,17,5
1055,0,2,0,0,0,39,33,72,17,5
1056,0,0,0,0,0,39,33,72,17,5
1057,0,1,1,1,1,39,33,72,17,5
1058,1,2,0,0,1,39,33,72,17,5
1059,1,1,0,0,1,39,33,72,17,5
1060,1,1,0,0,1,39,33,72,17,5
1061,1,2,0,0,1,39,33,72,17,5
1062,1,2,0,0,1,39,33,72,17,5
1063,1,2,0,0,1,39,33,72,17,5
1064,1,0,1,1,0,40,33,73,17,5
1065,0,2,0,0,0,40,33,73,17,5
1066,0,2,0,0,0,40,33,73,17,5
1067,0,1,0,1,1,40,33,73,17,5
1068,1,2,0,0,1,40,33,73,17,5
1069,1,0,1,1,0,40,33,73,17,5
1070,0,2,0,0,0,40,33,73,17,5
1071,0,2,0,0,0,40,33,73,17,5
1072,0,1,1,1,1,40,33,73,17,5
1073,1,0,1,1,0,40,33,73,17,5
1074,0,0,0,0,0,40,33,73,17,5
1075,0,0,0,0,0,40,33,73,17,5
1076,0,0,0,0,0,40,33,73,17,5
1077,0,2,0,0,0,40,33,73,17,5
1078,0,1,1,1,1,40,33,73,17,5
1079,1,2,0,0,1,40,33,73,17,5
1080,1,1,0,0,1,40,33,73,17,5
1081,1,1,0,0,1,40,33,73,17,5
1082,1,2,0,0,1,40,33,73,17,5
1083,1,0,1,1,0,40,33,73,17,5
1084,0,1,1,1,1,40,33,73,17,5
1085,1,2,0,0,1,40,33,73,17,5
1086,1,0,1,1,0,40,33,73,17,5
1087,0,2,0,0,0,40,33,73,17,5
1088,0,0,0,0,0,40,33,73,17,5
1089,0,0,0,0,0,40,33,73,17,5
1090,0,1,1,1,1,40,33,73,17,5
1091,1,1,0,0,1,40,33,73,17,5
1092,1,0,1,1,0,40,33,73,17,5
1093,0,1,1,1,1,40,33,73,17,5
1094,1,1,0,0,1,40,33,73,17,5
1095,1,0,1,1,0,40,33,73,17,5
1096,0,0,0,0,0,40,33,73,17,5
1097,0,0,0,0,0,40,33,73,17,5
1098,0,1,1,1,1,40,33,73,17,5
1099,1,0,1,1,0,40,33,73,17,5
1100,0,2,0,0,0,40,33,73,17,5
1101,0,2,0,0,0,40,33,73,17,5
1102,0,2,0,0,0,40,33,73,17,5
1103,0,0,1,0,0,40,33,73,17,5
1104,0,2,0,0,0,40,33,73,17,5
1105,0,2,0,0,0,40,33,73,17,5
1106,0,2,0,0,0,40,33,73,17,5
1107,0,0,0,0,0,41,33,74,17,5
1108,0,2,0,0,0,41,33,74,17,5
1109,0,1,1,1,1,41,33,74,18,5
1110,1,1,0,0,1,41,33,74,18,5
1111,1,0,1,1,0,41,33,74,18,5
1112,0,0,0,0,0,41,33,74,18,5
1113,0,0,0,0,0,41,33,74,18,5
1114,0,0,0,0,0,41,33,74,18,5
1115,0,1,1,1,1,41,33,74,18,5
1116,1,1,0,0,1,41,33,74,18,5
1117,1,2,0,0,1,41,33,74,18,5
1118,1,0,1,1,0,41,33,74,18,5
1119,0,2,0,0,0,41,33,74,18,5
1120,0,0,0,0,0,41,33,74,18,5
1121,0,1,1,1,1,41,33,74,18,5
1122,1,2,0,0,1,41,33,74,18,5
1123,1,1,0,0,1,41,33,74,18,5
1124,1,2,0,0,1,41,33,74,18,5
1125,1,1,0,0,1,41,33,74,18,5
1126,1,1,0,0,1,41,33,74,18,5
1127,1,0,1,1,0,41,33,74,18,5
1128,0,1,1,1,1,41,33,74,18,5
1129,1,2,0,0,1,41,33,74,18,5
1130,1,0,1,1,0,41,33,74,18,5
1131,0,0,0,0,0,41,33,74,18,5
1132,0,2,0,0,0,41,33,74,18,5
1133,0,0,0,0,0,41,33,74,18,5
1134,0,0,0,0,0,41,33,74,18,5
1135,0,2,0,0,0,41,33,74,18,5
1136,0,2,0,0,0,41,33,74,18,5
1137,0,0,0,0,0,41,33,74,18,5
1138,0,2,0,0,0,41,33,74,18,5
1139,0,1,1,1,1,41,33,74,18,5
1140,1,0,1,1,0,41,33,74,18,5
1141,0,1,1,1,1,41,33,74,18,5
1142,1,1,0,0,1,41,33,74,18,5
1143,1,0,1,1,0,41,33,74,18,5
1144,0,2,0,0,0,41,33,74,18,5
1145,0,2,0,0,0,41,33,74,18,5
1146,0,0,0,0,0,41,33,74,18,5
1147,0,1,1,1,1,41,33,74,18,5
1148,1,1,0,0,1,41,33,74,18,5
1149,1,0,1,1,0,41,33,74,18,5
1150,0,1,1,1,1,41,33,74,18,5
1151,1,0,1,1,0,41,33,74,18,5
1152,0,1,1,1,1,41,33,74,18,5
1153,1,1,0,0,1,41,33,74,18,5
1154,1,1,0,0,1,41,33,74,18,5
1155,1,1,0,0,1,41,33,74,18,5
1156,1,1,0,0,1,41,33,74,18,5
1157,1,2,0,0,1,41,33,74,18,5
1158,1,1,0,0,1,41,33,74,18,5
1159,1,2,0,0,1,41,33,74,18,5
1160,1,0,1,1,0,41,33,74,18,5
1161,0,1,1,1,1,41,33,74,18,5
1162,1,1,0,0,1,41,33,74,18,5
1163,1,1,0,0,1,41,33,74,18,5
1164,1,2,0,0,1,41,33,74,18,5
1165,1,1,0,0,1,41,33,74,18,5
1166,1,2,0,0,1,41,33,74,18,5
1167,1,2,0,0,1,41,33,74,18,5
1168,1,0,0,1,0,41,33,74,18,5
1169,0,0,0,0,0,41,33,74,18,5
1170,0,0,0,0,0,41,33,74,18,5
1171,0,2,0,0,0,41,33,74,18,5
1172,0,0,0,0,0,41,33,74,18,5
1173,0,2,0,0,0,41,33,74,18,5
1174,0,0,0,0,0,41,33,74,18,5
1175,0,1,1,1,1,41,33,74,18,5
1176,1,0,1,1,0,41,33,74,18,5
1177,0,0,0,0,0,41,33,74,18,5
1178,0,1,1,1,1,41,33,74,18,5
1179,1,0,1,1,0,41,33,74,18,5
1180,0,2,0,0,0,41,33,74,18,5
1181,0,2,0,0,0,41,33,74,18,5
1182,0,1,1,1,1,41,33,74,18,5
1183,1,2,0,0,1,41,33,74,18,5
1184,1,0,1,1,0,41,33,74,18,5
1185,0,0,0,0,0,41,33,74,18,5
1186,0,1,1,1,1,41,33,74,18,5
1187,1,2,0,0,1,41,33,74,18,5
1188,1,2,0,0,1,41,33,74,18,5
1189,1,2,0,0,1,41,33,74,18,5
1190,1,1,1,0,1,41,33,74,18,5
1191,1,2,0,0,1,41,33,74,18,5
1192,1,1,0,0,1,41,33,74,18,5
1193,1,0,1,1,0,41,33,74,18,5
1194,0,2,0,0,0,41,33,74,18,5
1195,0,0,0,0,0,41,33,74,18,5
1196,0,1,1,1,1,41,33,74,18,5
1197,1,1,0,0,1,41,33,74,18,5
1198,1,0,1,1,0,41,33,74,18,5
1199,0,1,1,1,1,41,33,74,18,5
1200,1,0,1,1,0,41,33,74,18,5
1201,0,1,1,1,1,41,33,74,18,5
1202,1,1,0,0,1,41,33,74,18,5
1203,1,0,1,1,0,41,33,74,18,5
1204,0,1,1,1,1,41,33,74,18,5
1205,1,1,0,0,1,41,33,74,18,5
1206,1,2,0,0,1,41,33,74,18,5
1207,1,1,0,0,1,41,33,74,18,5
1208,1,0,1,1,0,41,33,74,18,5
1209,0,0,0,0,0,41,33,74,18,5
1210,0,2,0,0,0,41,33,74,18,5
1211,0,2,0,0,0,41,33,74,18,5
1212,0,2,0,0,0,41,33,74,18,5
1213,0,0,0,0,0,41,34,75,18,5
1214,0,1,1,1,1,41,34,75,18,5
1215,1,0,1,1,0,41,34,75,18,5
1216,0,2,0,0,0,41,34,75,18,5
1217,0,1,1,1,1,41,34,75,18,5
1218,1,2,0,0,1,41,34,75,18,5
1219,1,1,0,0,1,41,34,75,18,5
1220,1,0,1,1,0,41,34,75,18,5
1221,0,2,0,0,0,41,34,75,18,5
1222,0,1,1,1,1,41,34,75,18,5
1223,1,0,1,1,0,41,34,75,18,5
1224,0,0,0,0,0,41,34,75,18,5
1225,0,1,1,1,1,41,34,75,18,5
1226,1,0,1,1,0,41,34,75,18,5
1227,0,1,1,1,1,41,34,75,18,5
1228,1,0,1,1,0,41,34,75,18,5
1229,0,0,0,0,0,41,34,75,18,5
1230,0,2,0,0,0,41,34,75,18,5
1231,0,1,1,1,1,41,34,75,18,5
1232,1,0,1,1,0,41,34,75,18,5
1233,0,2,0,0,0,41,34,75,18,5
1234,0,1,1,1,1,41,34,75,18,5
1235,1,2,0,0,1,41,34,75,18,5
1236,1,1,0,0,1,41,34,75,18,5
1237,1,2,0,0,1,41,34,75,18,5
1238,1,2,0,0,1,41,34,75,18,5
1239,1,0,1,1,0,41,34,75,18,5
1240,0,0,0,0,0,41,34,75,18,5
1241,0,0,0,0,0,41,34,75,18,5
1242,0,0,0,0,0,41,34,75,18,5
1243,0,0,0,0,0,41,34,75,18,5
1244,0,0,0,0,0,41,34,75,18,5
1245,0,2,0,0,0,41,34,75,18,5
1246,0,1,1,1,1,41,34,75,18,5
1247,1,2,0,0,1,41,34,75,18,5
1248,1,0,1,1,0,41,34,75,18,5
1249,0,1,1,1,1,41,34,75,18,5
1250,1,0,1,1,0,41,34,75,18,5
1251,0,2,0,0,0,41,34,75,18,5
1252,0,0,0,0,0,41,34,75,18,5
1253,0,1,1,1,1,41,34,75,18,5
1254,1,2,0,0,1,41,34,75,18,5
1255,1,2,0,0,1,41,34,75,18,5
1256,1,0,1,1,0,41,34,75,18,5
1257,0,2,0,0,0,41,34,75,18,5
1258,0,1,1,1,1,41,34,75,18,5
1259,1,0,1,1,0,41,34,75,18,5
1260,0,2,0,0,0,41,34,75,18,5
1261,0,0,0,0,0,41,34,75,18,5
1262,0,1,1,1,1,41,34,75,18,5
1263,1,2,0,0,1,41,34,75,18,5
1264,1,2,0,0,1,41,34,75,18,5
1265,1,1,0,0,1,41,34,75,18,5
1266,1,0,1,1,0,41,34,75,18,5
1267,0,1,1,1,1,41,34,75,18,5
1268,1,2,0,0,1,41,34,75,18,5
1269,1,0,1,1,0,41,34,75,18,5
1270,0,0,0,0,0,41,34,75,18,5
1271,0,0,0,0,0,41,34,75,18,5
1272,0,1,1,1,1,41,34,75,18,5
1273,1,1,0,0,1,41,34,75,18,5
1274,1,0,1,1,0,41,34,75,18,5
1275,0,1,1,1,1,41,34,75,18,5
1276,1,1,0,0,1,41,34,75,18,5
1277,1,2,0,0,1,41,34,75,18,5
1278,1,1,0,0,1,41,34,75,18,5
1279,1,1,0,0,1,41,34,75,18,5
1280,1,1,0,0,1,41,34,75,18,5
1281,1,0,1,1,0,41,34,75,18,5
1282,0,1,1,1,1,41,34,75,18,5
1283,1,1,0,0,1,41,34,75,18,5
1284,1,1,0,0,1,41,34,75,18,5
1285,1,1,0,0,1,41,34,75,18,5
1286,1,2,0,0,1,41,34,75,18,5
1287,1,2,0,0,1,41,34,75,18,5
1288,1,2,0,0,1,41,34,75,18,5
1289,1,1,1,0,1,42,34,76,18,5
1290,1,0,1,1,0,42,34,76,18,5
1291,0,1,1,1,1,42,34,76,18,5
1292,1,1,0,0,1,42,34,76,18,5
1293,1,0,1,1,0,42,34,76,18,5
1294,0,0,0,0,0,42,34,76,18,5
1295,0,0,0,0,0,42,34,76,18,5
1296,0,2,0,0,0,42,34,76,18,5
1297,0,2,0,0,0,42,34,76,18,5
1298,0,0,0,0,0,42,34,76,18,5
1299,0,2,0,0,0,42,34,76,18,5
1300,0,0,0,0,0,42,34,76,18,5
1301,0,2,0,0,0,42,34,76,18,5
1302,0,0,0,0,0,42,34,76,18,5
1303,0,1,1,1,1,42,34,76,18,5
1304,1,2,0,0,1,42,34,76,18,5
1305,1,1,0,0,1,42,34,76,18,5
1306,1,2,0,0,1,42,34,76,18,5
1307,1,2,0,0,1,42,34,76,18,5
1308,1,1,0,0,1,42,34,76,18,5
1309,1,0,1,1,0,42,34,76,18,5
1310,0,1,1,1,1,42,34,76,18,5
1311,1,1,0,0,1,42,34,76,18,5
1312,1,1,0,0,1,42,34,76,18,5
1313,1,2,0,0,1,42,34,76,18,5
1314,1,0,1,1,0,42,34,76,18,5
1315,0,1,1,1,1,42,34,76,18,5
1316,1,2,0,0,1,42,34,76,18,5
1317,1,1,0,0,1,42,34,76,18,5
1318,1,1,0,0,1,42,34,76,18,5
1319,1,2,0,0,1,42,34,76,18,5
1320,1,1,0,0,1,42,34,76,18,5
1321,1,2,0,0,1,42,34,76,18,5
1322,1,0,1,1,0,42,34,76,18,5
1323,0,2,0,0,0,42,34,76,18,5
1324,0,0,0,0,0,42,34,76,18,5
1325,0,1,1,1,1,42,34,76,18,5
1326,1,0,1,1,0,42,34,76,18,5
1327,0,1,1,1,1,42,34,76,18,5
1328,1,0,1,1,0,42,34,76,18,5
1329,0,1,1,1,1,42,34,76,18,5
1330,1,2,0,0,1,42,34,76,18,5
1331,1,0,1,1,0,42,34,76,18,5
1332,0,2,0,0,0,42,34,76,18,5
1333,0,1,1,1,1,42,34,76,18,5
1334,1,0,1,1,0,42,34,76,18,5
1335,0,1,1,1,1,42,34,76,18,5
1336,1,0,1,1,0,42,34,76,18,5
1337,0,1,1,1,1,42,34,76,18,5
1338,1,1,0,0,1,42,34,76,18,5
1339,1,0,1,1,0,42,34,76,18,5
1340,0,2,0,0,0,42,34,76,18,5
1341,0,2,0,0,0,42,34,76,18,5
1342,0,2,0,0,0,42,34,76,18,5
1343,0,1,0,1,1,42,34,76,18,5
1344,1,1,0,0,1,42,34,76,18,5
1345,1,0,1,1,0,42,34,76,18,5
1346,0,0,0,0,0,42,34,76,18,5
1347,0,0,0,0,0,42,34,76,18,5
1348,0,1,1,1,1,42,34,76,18,5
1349,1,2,0,0,1,42,34,76,18,5
1350,1,1,0,0,1,42,34,76,18,5
1351,1,2,0,0,1,42,34,76,18,5
1352,1,2,0,0,1,42,34,76,18,5
1353,1,2,0,0,1,42,34,76,18,5
1354,1,1,1,0,1,42,34,76,18,5
1355,1,0,1,1,0,42,34,76,18,5
1356,0,2,0,0,0,42,34,76,18,5
1357,0,2,0,0,0,42,34,76,18,5
1358,0,1,1,1,1,42,34,76,18,5
1359,1,2,0,0,1,42,34,76,18,5
1360,1,2,0,0,1,42,34,76,18,5
1361,1,1,0,0,1,42,34,76,18,5
1362,1,1,0,0,1,42,34,76,18,5
1363,1,0,1,1,0,42,34,76,18,5
1364,0,2,0,0,0,42,34,76,18,5
1365,0,2,0,0,0,42,34,76,18,5
1366,0,2,0,0,0,42,34,76,18,5
1367,0,2,0,0,0,42,34,76,18,5
1368,0,0,1,0,0,42,35,77,18,5
1369,0,2,0,0,0,42,35,77,18,5
1370,0,2,0,0,0,42,35,77,18,5
1371,0,1,1,1,1,42,35,77,18,5
1372,1,2,0,0,1,42,35,77,18,5
1373,1,1,0,0,1,42,35,77,18,5
1374,1,2,0,0,1,42,35,77,18,5
1375,1,2,0,0,1,42,35,77,18,5
1376,1,2,0,0,1,42,35,77,18,5
1377,1,2,0,0,1,42,35,77,18,5
1378,1,0,0,1,0,43,35,78,18,5
1379,0,0,0,0,0,43,35,78,18,5
1380,0,1,1,1,1,43,35,78,18,5
1381,1,2,0,0,1,43,35,78,18,5
1382,1,2,0,0,1,43,35,78,18,5
1383,1,1,0,0,1,43,35,78,18,5
1384,1,2,0,0,1,43,35,78,18,5
1385,1,1,0,0,1,43,35,78,18,5
1386,1,0,1,1,0,43,35,78,18,5
1387,0,1,1,1,1,43,35,78,18,5
1388,1,2,0,0,1,43,35,78,18,5
1389,1,0,1,1,0,43,35,78,18,5
1390,0,2,0,0,0,43,35,78,18,5
1391,0,1,1,1,1,43,35,78,18,5
1392,1,1,0,0,1,43,35,78,18,5
1393,1,2,0,0,1,43,35,78,18,5
1394,1,0,1,1,0,43,35,78,18,5
1395,0,2,0,0,0,43,35,78,18,5
1396,0,2,0,0,0,43,35,78,18,5
1397,0,1,1,1,1,43,35,78,18,5
1398,1,0,1,1,0,43,35,78,18,5
1399,0,1,1,1,1,43,35,78,18,5
1400,1,1,0,0,1,43,35,78,18,5
1401,1,0,1,1,0,43,35,78,18,5
1402,0,1,1,1,1,43,35,78,18,5
1403,1,2,0,0,1,43,35,78,18,5
1404,1,2,0,0,1,43,35,78,18,5
1405,1,1,0,0,1,43,35,78,18,5
1406,1,2,0,0,1,43,35,78,18,5
1407,1,0,1,1,0,43,35,78,18,5
1408,0,2,0,0,0,43,35,78,18,5
1409,0,2,0,0,0,43,35,78,18,5
1410,0,0,0,0,0,43,35,78,18,5
1411,0,2,0,0,0,43,35,78,18,5
1412,0,2,0,0,0,43,35,78,18,5
1413,0,2,0,0,0,43,35,78,18,5
1414,0,1,1,1,1,44,35,79,18,5
1415,1,1,0,0,1,44,35,79,18,5
1416,1,0,1,1,0,44,35,79,18,5
1417,0,2,0,0,0,44,35,79,18,5
1418,0,1,1,1,1,44,35,79,18,5
1419,1,0,1,1,0,44,35,79,18,5
1420,0,0,0,0,0,44,35,79,18,5
1421,0,1,1,1,1,44,35,79,18,5
1422,1,2,0,0,1,44,35,79,18,5
1423,1,1,0,0,1,44,35,79,18,5
1424,1,2,0,0,1,44,35,79,18,5
1425,1,2,0,0,1,44,35,79,18,5
1426,1,0,1,1,0,44,35,79,18,5
1427,0,1,1,1,1,44,35,79,18,5
1428,1,1,0,0,1,44,35,79,18,5
1429,1,1,0,0,1,44,35,79,18,5
1430,1,1,0,0,1,44,35,79,18,5
1431,1,1,0,0,1,44,35,79,18,5
1432,1,0,1,1,0,44,35,79,18,5
1433,0,2,0,0,0,44,35,79,18,5
1434,0,1,1,1,1,44,35,79,18,5
1435,1,1,0,0,1,44,35,79,18,5
1436,1,1,0,0,1,44,35,79,18,5
1437,1,0,1,1,0,44,35,79,18,5
1438,0,1,1,1,1,44,35,79,18,5
1439,1,0,1,1,0,44,35,79,18,5
1440,0,2,0,0,0,44,35,79,18,5
1441,0,2,0,0,0,44,35,79,18,5
1442,0,0,0,0,0,44,35,79,18,5
1443,0,0,0,0,0,44,35,79,18,5
1444,0,0,0,0,0,44,35,79,18,5
1445,0,1,1,1,1,44,35,79,18,5
1446,1,2,0,0,1,44,35,79,18,5
1447,1,1,0,0,1,44,35,79,18,5
1448,1,0,1,1,0,44,35,79,18,5
1449,0,0,0,0,0,44,35,79,18,5
1450,0,0,0,0,0,44,35,79,18,5
1451,0,0,0,0,0,44,35,79,18,5
1452,0,2,0,0,0,44,35,79,18,5
1453,0,0,0,0,0,44,35,79,18,5
1454,0,2,0,0,0,44,35,79,18,5
1455,0,2,0,0,0,44,35,79,18,5
1456,0,0,0,0,0,44,35,79,18,5
1457,0,1,1,1,1,44,35,79,18,5
1458,1,0,1,1,0,44,35,79,18,5
1459,0,2,0,0,0,44,35,79,18,5
1460,0,1,1,1,1,44,35,79,18,5
1461,1,2,0,0,1,44,35,79,18,5
1462,1,1,0,0,1,44,35,79,18,5
1463,1,2,0,0,1,44,35,79,18,5
1464,1,2,0,0,1,44,35,79,18,5
1465,1,1,0,0,1,44,35,79,18,5
1466,1,2,0,0,1,44,35,79,18,5
1467,1,1,0,0,1,44,35,79,18,5
1468,1,0,1,1,0,44,35,79,18,5
1469,0,0,0,0,0,44,35,79,18,5
1470,0,0,0,0,0,44,35,79,18,5
1471,0,2,0,0,0,44,35,79,18,5
1472,0,0,0,0,0,44,35,79,18,5
1473,0,0,0,0,0,44,35,79,18,5
1474,0,1,1,1,1,44,35,79,18,5
1475,1,2,0,0,1,44,35,79,18,5
1476,1,1,0,0,1,44,35,79,18,5
1477,1,1,0,0,1,44,35,79,18,5
1478,1,0,1,1,0,44,35,79,18,5
1479,0,1,1,1,1,44,35,79,18,5
1480,1,0,1,1,0,44,35,79,18,5
1481,0,1,1,1,1,44,35,79,18,5
1482,1,1,0,0,1,44,35,79,18,5
1483,1,2,0,0,1,44,35,79,18,5
1484,1,0,1,1,0,44,35,79,18,5
1485,0,2,0,0,0,44,35,79,18,5
1486,0,2,0,0,0,44,35,79,18,5
1487,0,1,1,1,1,44,35,79,18,5
1488,1,2,0,0,1,44,35,79,18,5
1489,1,1,0,0,1,44,35,79,18,5
1490,1,1,0,0,1,44,35,79,18,5
1491,1,0,1,1,0,44,35,79,18,5
1492,0,2,0,0,0,44,35,79,18,5
1493,0,1,1,1,1,44,35,79,18,5
1494,1,1,0,0,1,44,35,79,18,5
1495,1,1,0,0,1,44,35,79,18,5
1496,1,1,0,0,1,44,35,79,18,5
1497,1,1,0,0,1,44,35,79,18,5
1498,1,2,0,0,1,44,35,79,18,5
1499,1,1,0,0,1,44,35,79,18,5
1500,1,1,0,0,1,44,35,79,18,5
1501,1,1,0,0,1,44,35,79,18,5
1502,1,2,0,0,1,44,35,79,18,5
1503,1,2,0,0,1,44,35,79,18,5
1504,1,2,0,0,1,44,35,79,18,5
1505,1,1,1,0,1,44,35,79,18,5
1506,1,0,1,1,0,44,35,79,18,5
1507,0,1,1,1,1,44,35,79,18,5
1508,1,1,0,0,1,44,35,79,18,5
1509,1,0,1,1,0,44,35,79,18,5
1510,0,0,0,0,0,44,35,79,18,5
1511,0,2,0,0,0,44,35,79,18,5
1512,0,1,1,1,1,44,35,79,18,5
1513,1,0,1,1,0,44,35,79,18,5
1514,0,1,1,1,1,44,35,79,18,5
1515,1,1,0,0,1,44,35,79,18,5
1516,1,1,0,0,1,44,35,79,18,5
1517,1,2,0,0,1,44,35,79,18,5
1518,1,2,0,0,1,44,35,79,18,5
1519,1,1,0,0,1,44,35,79,18,5
1520,1,1,0,0,1,44,35,79,18,5
1521,1,2,0,0,1,44,35,79,18,5
1522,1,1,0,0,1,44,35,79,18,5
1523,1,1,0,0,1,44,35,79,18,5
1524,1,0,1,1,0,44,35,79,18,5
1525,0,2,0,0,0,44,35,79,18,5
1526,0,0,0,0,0,44,35,79,18,5
1527,0,0,0,0,0,44,35,79,18,5
1528,0,2,0,0,0,44,35,79,18,5
1529,0,0,0,0,0,44,35,79,18,5
1530,0,2,0,0,0,44,35,79,18,5
1531,0,2,0,0,0,44,35,79,18,5
1532,0,1,1,1,1,44,35,79,18,5
1533,1,0,1,1,0,44,35,79,18,5
1534,0,0,0,0,0,44,35,79,18,5
1535,0,0,0,0,0,44,35,79,18,5
1536,0,0,0,0,0,44,35,79,18,5
1537,0,0,0,0,0,44,35,79,18,5
1538,0,2,0,0,0,44,35,79,18,5
1539,0,1,1,1,1,44,35,79,18,5
1540,1,0,1,1,0,44,35,79,18,5
1541,0,0,0,0,0,44,35,79,18,5
1542,0,1,1,1,1,44,35,79,18,5
1543,1,0,1,1,0,44,35,79,18,5
1544,0,0,0,0,0,44,35,79,18,5
1545,0,1,1,1,1,44,35,79,18,5
1546,1,2,0,0,1,44,35,79,18,5
1547,1,0,1,1,0,44,35,79,18,5
1548,0,2,0,0,0,44,35,79,18,5
1549,0,0,0,0,0,44,35,79,18,5
1550,0,0,0,0,0,44,35,79,18,5
1551,0,2,0,0,0,44,35,79,18,5
1552,0,2,0,0,0,44,35,79,18,5
1553,0,0,0,0,0,44,35,79,18,5
1554,0,0,0,0,0,44,35,79,18,5
1555,0,0,0,0,0,44,35,79,18,5
1556,0,2,0,0,0,44,35,79,18,5
1557,0,1,1,1,1,44,35,79,18,5
1558,1,2,0,0,1,44,35,79,18,5
1559,1,1,0,0,1,44,35,79,18,5
1560,1,1,0,0,1,44,35,79,18,5
1561,1,2,0,0,1,44,35,79,18,5
1562,1,1,0,0,1,44,35,79,18,5
1563,1,0,1,1,0,44,35,79,18,5
1564,0,1,1,1,1,44,35,79,18,5
1565,1,2,0,0,1,44,35,79,18,5
1566,1,2,0,0,1,44,35,79,18,5
1567,1,2,0,0,1,44,35,79,18,5
1568,1,1,0,0,1,44,35,79,18,5
1569,1,1,0,0,1,44,35,79,18,5
1570,1,0,1,1,0,44,35,79,19,5
1571,0,2,0,0,0,44,35,79,19,5
1572,0,2,0,0,0,44,35,79,19,5
1573,0,0,0,0,0,44,35,79,19,5
1574,0,2,0,0,0,44,35,79,19,5
1575,0,1,1,1,1,44,35,79,19,5
1576,1,1,0,0,1,44,35,79,19,5
1577,1,1,0,0,1,44,35,79,19,5
1578,1,1,0,0,1,44,35,79,19,5
1579,1,1,0,0,1,44,35,79,19,5
1580,1,0,1,1,0,44,35,79,19,5
1581,0,1,1,1,1,44,35,79,19,5
1582,1,0,1,1,0,44,35,79,19,5
1583,0,0,0,0,0,44,35,79,19,5
1584,0,2,0,0,0,44,35,79,19,5
1585,0,0,0,0,0,44,35,79,19,5
1586,0,2,0,0,0,44,35,79,19,5
1587,0,1,1,1,1,44,35,79,19,5
1588,1,1,0,0,1,44,35,79,19,5
1589,1,1,0,0,1,44,35,79,19,5
1590,1,1,0,0,1,44,35,79,19,5
1591,1,1,0,0,1,44,35,79,19,5
1592,1,1,0,0,1,44,35,79,19,5
1593,1,1,0,0,1,44,35,79,19,5
1594,1,2,0,0,1,44,35,79,19,5
1595,1,0,1,1,0,44,35,79,19,5
1596,0,0,0,0,0,44,35,79,19,5
1597,0,1,1,1,1,44,35,79,19,5
1598,1,2,0,0,1,44,35,79,19,5
1599,1,0,1,1,0,44,35,79,19,5
1600,0,2,0,0,0,44,35,79,19,5
1601,0,0,0,0,0,44,35,79,19,5
1602,0,1,1,1,1,44,35,79,19,5
1603,1,2,0,0,1,44,35,79,19,5
1604,1,1,0,0,1,44,35,79,19,5
1605,1,1,0,0,1,44,35,79,19,5
1606,1,0,1,1,0,44,35,79,19,5
1607,0,1,1,1,1,44,35,79,19,5
1608,1,0,1,1,0,44,35,79,19,5
1609,0,0,0,0,0,44,35,79,19,5
1610,0,1,1,1,1,44,35,79,19,5
1611,1,1,0,0,1,44,35,79,19,5
1612,1,2,0,0,1,44,35,79,19,5
1613,1,2,0,0,1,44,35,79,19,5
1614,1,1,0,0,1,44,35,79,19,5
1615,1,0,1,1,0,44,35,79,19,5
1616,0,0,0,0,0,44,35,79,19,5
1617,0,1,1,1,1,44,35,79,19,5
1618,1,2,0,0,1,44,35,79,19,5
1619,1,2,0,0,1,44,35,79,19,5
1620,1,0,1,1,0,44,35,79,19,5
1621,0,0,0,0,0,44,35,79,19,5
1622,0,2,0,0,0,44,35,79,19,5
1623,0,2,0,0,0,44,35,79,19,5
1624,0,2,0,0,0,44,35,79,19,5
1625,0,1,0,1,1,44,36,80,19,5
1626,1,2,0,0,1,44,36,80,19,5
1627,1,1,0,0,1,44,36,80,19,5
1628,1,0,1,1,0,44,36,80,19,5
1629,0,1,1,1,1,44,36,80,19,5
1630,1,2,0,0,1,44,36,80,19,5
1631,1,2,0,0,1,44,36,80,19,5
1632,1,2,0,0,1,44,36,80,19,5
1633,1,2,0,0,1,44,36,80,19,5
1634,1,2,0,0,1,44,36,80,19,5
1635,1,1,1,0,1,45,37,82,19,5
1636,1,2,0,0,1,45,37,82,19,5
1637,1,0,1,1,0,45,37,82,19,5
1638,0,2,0,0,0,45,37,82,19,5
1639,0,2,0,0,0,45,37,82,19,5
1640,0,1,1,1,1,45,37,82,19,5
1641,1,1,0,0,1,45,37,82,19,5
1642,1,1,0,0,1,45,37,82,19,5
1643,1,1,0,0,1,45,37,82,19,5
1644,1,2,0,0,1,45,37,82,19,5
1645,1,1,0,0,1,45,37,82,19,5
1646,1,0,1,1,0,45,37,82,19,5
1647,0,1,1,1,1,45,37,82,19,5
1648,1,0,1,1,0,45,37,82,19,5
1649,0,2,0,0,0,45,37,82,19,5
1650,0,2,0,0,0,45,37,82,19,5
1651,0,1,1,1,1,45,37,82,19,5
1652,1,0,1,1,0,45,37,82,19,5
1653,0,0,0,0,0,45,37,82,19,5
1654,0,0,0,0,0,45,37,82,19,5
1655,0,1,1,1,1,45,37,82,19,5
1656,1,2,0,0,1,45,37,82,19,5
1657,1,0,1,1,0,45,37,82,19,5
1658,0,2,0,0,0,45,37,82,19,5
1659,0,2,0,0,0,45,37,82,19,5
1660,0,2,0,0,0,45,37,82,19,5
1661,0,1,0,1,1,45,38,83,19,5
1662,1,1,0,0,1,45,38,83,19,5
1663,1,2,0,0,1,45,38,83,19,5
1664,1,2,0,0,1,45,38,83,19,5
1665,1,1,0,0,1,45,38,83,19,5
1666,1,2,0,0,1,45,38,83,19,5
1667,1,0,1,1,0,45,38,83,19,5
1668,0,1,1,1,1,45,38,83,19,5
1669,1,1,0,0,1,45,38,83,19,5
1670,1,1,0,0,1,45,38,83,19,5
1671,1,1,0,0,1,45,38,83,19,5
1672,1,1,0,0,1,45,38,83,19,5
1673,1,2,0,0,1,45,38,83,19,5
1674,1,1,0,0,1,45,38,83,19,5
1675,1,0,1,1,0,45,38,83,19,5
1676,0,2,0,0,0,45,38,83,19,5
1677,0,2,0,0,0,45,38,83,19,5
1678,0,2,0,0,0,45,38,83,19,5
1679,0,1,1,1,1,45,38,83,19,5
1680,1,1,0,0,1,45,38,83,19,5
1681,1,1,0,0,1,45,38,83,19,5
1682,1,2,0,0,1,45,38,83,19,5
1683,1,2,0,0,1,45,38,83,19,5
1684,1,0,1,1,0,45,38,83,19,5
1685,0,0,0,0,0,45,38,83,19,5
1686,0,2,0,0,0,45,38,83,19,5
1687,0,1,1,1,1,45,38,83,19,5
1688,1,2,0,0,1,45,38,83,19,5
1689,1,1,0,0,1,45,38,83,19,5
1690,1,0,1,1,0,45,38,83,19,5
1691,0,0,0,0,0,45,38,83,19,5
1692,0,2,0,0,0,45,38,83,19,5
1693,0,0,0,0,0,45,38,83,19,5
1694,0,1,1,1,1,45,38,83,19,5
1695,1,1,0,0,1,45,38,83,19,5
1696,1,1,0,0,1,45,38,83,19,5
1697,1,1,0,0,1,45,38,83,19,5
1698,1,0,1,1,0,45,38,83,19,5
1699,0,2,0,0,0,45,38,83,19,5
1700,0,1,1,1,1,45,38,83,19,5
1701,1,0,1,1,0,45,38,83,19,5
1702,0,1,1,1,1,45,38,83,19,5
1703,1,2,0,0,1,45,38,83,19,5
1704,1,0,1,1,0,45,38,83,19,5
1705,0,2,0,0,0,45,38,83,19,5
1706,0,2,0,0,0,45,38,83,19,5
1707,0,0,0,0,0,45,38,83,19,5
1708,0,2,0,0,0,45,38,83,19,5
1709,0,0,0,0,0,45,38,83,19,5
1710,0,2,0,0,0,45,38,83,19,5
1711,0,1,1,1,1,45,38,83,19,5
1712,1,0,1,1,0,45,38,83,19,5
1713,0,0,0,0,0,45,38,83,19,5
1714,0,1,1,1,1,45,38,83,19,5
1715,1,0,1,1,0,45,38,83,19,5
1716,0,2,0,0,0,45,38,83,19,5
1717,0,0,0,0,0,45,38,83,19,5
1718,0,1,1,1,1,45,38,83,19,5
1719,1,1,0,0,1,45,38,83,19,5
1720,1,1,0,0,1,45,38,83,19,5
1721,1,2,0,0,1,45,38,83,19,5
1722,1,0,1,1,0,45,38,83,19,5
1723,0,0,0,0,0,45,38,83,19,5
1724,0,0,0,0,0,45,38,83,19,5
1725,0,1,1,1,1,45,38,83,19,5
1726,1,1,0,0,1,45,38,83,19,5
1727,1,0,1,1,0,45,38,83,19,5
1728,0,2,0,0,0,45,38,83,19,5
1729,0,1,1,1,1,45,38,83,19,5
1730,1,0,1,1,0,45,38,83,19,5
1731,0,2,0,0,0,45,38,83,19,5
1732,0,0,0,0,0,45,38,83,19,5
1733,0,1,1,1,1,45,38,83,19,5
1734,1,1,0,0,1,45,38,83,19,5
1735,1,2,0,0,1,45,38,83,19,5
1736,1,2,0,0,1,45,38,83,19,5
1737,1,2,0,0,1,45,38,83,19,5
1738,1,0,1,1,0,45,39,84,19,5
1739,0,1,1,1,1,45,39,84,19,5
1740,1,0,1,1,0,45,39,84,19,5
1741,0,0,0,0,0,45,39,84,19,5
1742,0,1,1,1,1,45,39,84,19,5
1743,1,1,0,0,1,45,39,84,19,5
1744,1,1,0,0,1,45,39,84,19,5
1745,1,2,0,0,1,45,39,84,19,5
1746,1,0,1,1,0,45,39,84,19,5
1747,0,2,0,0,0,45,39,84,19,5
1748,0,1,1,1,1,45,39,84,19,5
1749,1,1,0,0,1,45,39,84,19,5
1750,1,1,0,0,1,45,39,84,19,5
1751,1,0,1,1,0,45,39,84,19,5
1752,0,1,1,1,1,45,39,84,19,5
1753,1,0,1,1,0,45,39,84,19,5
1754,0,2,0,0,0,45,39,84,19,5
1755,0,0,0,0,0,45,39,84,19,5
1756,0,1,1,1,1,45,39,84,19,5
1757,1,2,0,0,1,45,39,84,19,5
1758,1,1,0,0,1,45,39,84,19,5
1759,1,1,0,0,1,45,39,84,19,5
1760,1,2,0,0,1,45,39,84,19,5
1761,1,0,1,1,0,45,39,84,19,5
1762,0,1,1,1,1,45,39,84,19,5
1763,1,1,0,0,1,45,39,84,19,5
1764,1,2,0,0,1,45,39,84,19,5
1765,1,1,0,0,1,45,39,84,19,5
1766,1,1,0,0,1,45,39,84,19,5
1767,1,1,0,0,1,45,39,84,19,5
1768,1,2,0,0,1,45,39,84,19,5
1769,1,1,0,0,1,45,39,84,19,5
1770,1,1,0,0,1,45,39,84,19,5
1771,1,2,0,0,1,45,39,84,19,5
1772,1,2,0,0,1,45,39,84,19,5
1773,1,2,0,0,1,45,39,84,19,5
1774,1,2,0,0,1,45,39,84,19,5
1775,1,1,1,0,1,45,39,84,19,5
1776,1,1,0,0,1,45,39,84,19,5
1777,1,2,0,0,1,45,39,84,19,5
1778,1,1,0,0,1,45,39,84,19,5
1779,1,0,1,1,0,45,39,84,19,5
1780,0,2,0,0,0,45,39,84,19,5
1781,0,1,1,1,1,45,39,84,19,5
1782,1,2,0,0,1,45,39,84,19,5
1783,1,2,0,0,1,45,39,84,19,5
1784,1,0,1,1,0,45,39,84,19,5
1785,0,2,0,0,0,45,39,84,19,5
1786,0,2,0,0,0,45,39,84,19,5
1787,0,0,0,0,0,45,39,84,19,5
1788,0,1,1,1,1,45,39,84,19,5
1789,1,2,0,0,1,45,39,84,19,5
1790,1,0,1,1,0,45,39,84,19,5
1791,0,2,0,0,0,45,39,84,19,5
1792,0,0,0,0,0,45,39,84,19,5
1793,0,2,0,0,0,45,39,84,19,5
1794,0,2,0,0,0,45,39,84,19,5
1795,0,0,0,0,0,45,39,84,19,5
1796,0,1,1,1,1,45,39,84,19,5
1797,1,0,1,1,0,45,39,84,19,5
1798,0,0,0,0,0,45,39,84,19,5
1799,0,2,0,0,0,45,39,84,19,5
1800,0,2,0,0,0,45,39,84,19,5
1801,0,1,1,1,1,45,39,84,19,5
1802,1,1,0,0,1,45,39,84,19,5
1803,1,1,0,0,1,45,39,84,19,5
1804,1,1,0,0,1,45,39,84,19,5
1805,1,1,0,0,1,45,39,84,19,5
1806,1,1,0,0,1,45,39,84,19,5
1807,1,0,1,1,0,45,39,84,19,5
1808,0,2,0,0,0,45,39,84,19,5
1809,0,2,0,0,0,45,39,84,19,5
1810,0,0,0,0,0,45,39,84,19,5
1811,0,0,0,0,0,45,39,84,19,5
1812,0,1,1,1,1,45,39,84,19,5
1813,1,2,0,0,1,45,39,84,19,5
1814,1,0,1,1,0,45,39,84,19,5
1815,0,2,0,0,0,45,39,84,19,5
1816,0,1,1,1,1,45,39,84,19,5
1817,1,0,1,1,0,45,39,84,19,5
1818,0,2,0,0,0,45,39,84,19,5
1819,0,1,1,1,1,45,39,84,19,5
1820,1,0,1,1,0,45,39,84,19,5
1821,0,1,1,1,1,45,39,84,19,5
1822,1,2,0,0,1,45,39,84,19,5
1823,1,0,1,1,0,45,39,84,19,5
1824,0,2,0,0,0,45,39,84,19,5
1825,0,2,0,0,0,45,39,84,19,5
1826,0,2,0,0,0,45,39,84,19,5
1827,0,0,0,0,0,45,40,85,19,5
1828,0,1,1,1,1,45,40,85,19,5
1829,1,2,0,0,1,45,40,85,19,5
1830,1,1,0,0,1,45,40,85,19,5
1831,1,1,0,0,1,45,40,85,19,5
1832,1,0,1,1,0,45,40,85,19,5
1833,0,0,0,0,0,45,40,85,19,5
1834,0,2,0,0,0,45,40,85,19,5
1835,0,1,1,1,1,45,40,85,19,5
1836,1,1,0,0,1,45,40,85,19,5
1837,1,0,1,1,0,45,40,85,19,5
1838,0,1,1,1,1,45,40,85,19,5
1839,1,1,0,0,1,45,40,85,19,5
1840,1,0,1,1,0,45,40,85,19,5
1841,0,2,0,0,0,45,40,85,19,5
1842,0,1,1,1,1,45,40,85,19,5
1843,1,0,1,1,0,45,40,85,19,5
1844,0,0,0,0,0,45,40,85,19,5
1845,0,2,0,0,0,45,40,85,19,5
1846,0,2,0,0,0,45,40,85,19,5
1847,0,2,0,0,0,45,40,85,19,5
1848,0,0,0,0,0,45,40,85,19,5
1849,0,2,0,0,0,45,40,85,19,5
1850,0,1,1,1,1,45,40,85,19,5
1851,1,0,1,1,0,45,40,85,19,5
1852,0,0,0,0,0,45,40,85,19,5
1853,0,0,0,0,0,45,40,85,19,5
1854,0,1,1,1,1,45,40,85,19,5
1855,1,1,0,0,1,45,40,85,19,5
1856,1,2,0,0,1,45,40,85,19,5
1857,1,0,1,1,0,45,40,85,19,5
1858,0,2,0,0,0,45,40,85,19,5
1859,0,2,0,0,0,45,40,85,19,5
1860,0,1,1,1,1,45,40,85,19,5
1861,1,0,1,1,0,45,40,85,19,5
1862,0,0,0,0,0,45,40,85,19,5
1863,0,0,0,0,0,45,40,85,19,5
1864,0,0,0,0,0,45,40,85,19,5
1865,0,1,1,1,1,45,40,85,19,5
1866,1,0,1,1,0,45,40,85,19,5
1867,0,0,0,0,0,45,40,85,19,5
1868,0,0,0,0,0,45,40,85,19,5
1869,0,2,0,0,0,45,40,85,19,5
1870,0,1,1,1,1,45,40,85,19,5
1871,1,2,0,0,1,45,40,85,19,5
1872,1,2,0,0,1,45,40,85,19,5
1873,1,0,1,1,0,45,40,85,19,5
1874,0,1,1,1,1,45,40,85,19,5
1875,1,2,0,0,1,45,40,85,19,5
1876,1,1,0,0,1,45,40,85,19,5
1877,1,0,1,1,0,45,40,85,19,5
1878,0,0,0,0,0,45,40,85,19,5
1879,0,2,0,0,0,45,40,85,19,5
1880,0,0,0,0,0,45,40,85,19,5
1881,0,2,0,0,0,45,40,85,19,5
1882,0,2,0,0,0,45,40,85,19,5
1883,0,2,0,0,0,45,40,85,19,5
1884,0,2,0,0,0,45,40,85,19,5
1885,0,2,0,0,0,45,40,85,19,5
1886,0,2,0,0,0,45,40,85,19,5
1887,0,0,1,0,0,46,40,86,19,5
1888,0,0,0,0,0,46,40,86,19,5
1889,0,1,1,1,1,46,40,86,19,5
1890,1,0,1,1,0,46,40,86,19,5
1891,0,1,1,1,1,46,40,86,19,5
1892,1,1,0,0,1,46,40,86,19,5
1893,1,0,1,1,0,46,40,86,19,5
1894,0,0,0,0,0,46,40,86,19,5
1895,0,0,0,0,0,46,40,86,19,5
1896,0,2,0,0,0,46,40,86,19,5
1897,0,0,0,0,0,46,40,86,19,5
1898,0,2,0,0,0,46,40,86,19,5
1899,0,2,0,0,0,46,40,86,19,5
1900,0,2,0,0,0,46,40,86,19,5
1901,0,1,1,1,1,46,40,86,19,5
1902,1,0,1,1,0,46,40,86,19,5
1903,0,1,1,1,1,46,40,86,19,5
1904,1,1,0,0,1,46,40,86,19,5
1905,1,1,0,0,1,46,40,86,19,5
1906,1,2,0,0,1,46,40,86,19,5
1907,1,2,0,0,1,46,40,86,19,5
1908,1,0,1,1,0,46,40,86,19,5
1909,0,0,0,0,0,46,40,86,19,5
1910,0,0,0,0,0,46,40,86,19,5
1911,0,0,0,0,0,46,40,86,19,5
1912,0,2,0,0,0,46,40,86,19,5
1913,0,1,1,1,1,46,40,86,19,5
1914,1,0,1,1,0,46,40,86,19,5
1915,0,1,1,1,1,46,40,86,19,5
1916,1,1,0,0,1,46,40,86,19,5
1917,1,2,0,0,1,46,40,86,19,5
1918,1,2,0,0,1,46,40,86,19,5
1919,1,0,1,1,0,46,40,86,19,5
1920,0,1,1,1,1,46,40,86,19,5
1921,1,1,0,0,1,46,40,86,19,5
1922,1,0,1,1,0,46,40,86,19,5
1923,0,0,0,0,0,46,40,86,19,5
1924,0,2,0,0,0,46,40,86,19,5
1925,0,1,1,1,1,46,40,86,19,5
1926,1,2,0,0,1,46,40,86,19,5
1927,1,1,0,0,1,46,40,86,19,5
1928,1,2,0,0,1,46,40,86,19,5
1929,1,0,1,1,0,46,40,86,19,5
1930,0,1,1,1,1,46,40,86,19,5
1931,1,2,0,0,1,46,40,86,19,5
1932,1,2,0,0,1,46,40,86,19,5
1933,1,0,1,1,0,46,40,86,19,5
1934,0,1,1,1,1,46,40,86,19,5
1935,1,1,0,0,1,46,40,86,19,5
1936,1,1,0,0,1,46,40,86,19,5
1937,1,1,0,0,1,46,40,86,19,5
1938,1,0,1,1,0,46,40,86,19,5
1939,0,2,0,0,0,46,40,86,19,5
1940,0,2,0,0,0,46,40,86,19,5
1941,0,1,1,1,1,46,40,86,19,5
1942,1,1,0,0,1,46,40,86,19,5
1943,1,1,0,0,1,46,40,86,19,5
1944,1,1,0,0,1,46,40,86,19,5
1945,1,2,0,0,1,46,40,86,19,5
1946,1,1,0,0,1,46,40,86,19,5
1947,1,2,0,0,1,46,40,86,19,5
1948,1,2,0,0,1,46,40,86,19,5
1949,1,2,0,0,1,46,40,86,19,5
1950,1,0,0,1,0,46,40,86,19,5
1951,0,0,0,0,0,46,40,86,19,5
1952,0,1,1,1,1,46,40,86,19,5
1953,1,1,0,0,1,46,40,86,19,5
1954,1,2,0,0,1,46,40,86,19,5
1955,1,1,0,0,1,46,40,86,19,5
1956,1,2,0,0,1,46,40,86,19,5
1957,1,2,0,0,1,46,40,86,19,5
1958,1,1,0,0,1,46,40,86,19,5
1959,1,2,0,0,1,46,40,86,19,5
1960,1,1,0,0,1,46,40,86,19,5
1961,1,1,0,0,1,46,40,86,19,5
1962,1,1,0,0,1,46,40,86,19,5
1963,1,1,0,0,1,46,40,86,19,5
1964,1,1,0,0,1,46,40,86,19,5
1965,1,0,1,1,0,46,40,86,19,5
1966,0,2,0,0,0,46,40,86,19,5
1967,0,2,0,0,0,46,40,86,19,5
1968,0,1,1,1,1,46,40,86,19,5
1969,1,0,1,1,0,46,40,86,19,5
1970,0,0,0,0,0,46,40,86,19,5
1971,0,0,0,0,0,46,40,86,19,5
1972,0,0,0,0,0,46,40,86,19,5
1973,0,2,0,0,0,46,40,86,19,5
1974,0,0,0,0,0,46,40,86,19,5
1975,0,2,0,0,0,46,40,86,19,5
1976,0,2,0,0,0,46,40,86,19,5
1977,0,0,0,0,0,46,40,86,19,5
1978,0,0,0,0,0,46,40,86,19,5
1979,0,2,0,0,0,46,40,86,19,5
1980,0,1,1,1,1,46,40,86,19,5
1981,1,2,0,0,1,46,40,86,19,5
1982,1,0,1,1,0,46,40,86,19,5
1983,0,2,0,0,0,46,40,86,19,5
1984,0,0,0,0,0,46,40,86,19,5
1985,0,1,1,1,1,46,40,86,19,5
1986,1,2,0,0,1,46,40,86,19,5
1987,1,2,0,0,1,46,40,86,19,5
1988,1,0,1,1,0,46,40,86,19,5
1989,0,2,0,0,0,46,40,86,19,5
1990,0,1,1,1,1,46,40,86,19,5
1991,1,1,0,0,1,46,40,86,19,5
1992,1,1,0,0,1,46,40,86,19,5
1993,1,1,0,0,1,46,40,86,19,5
1994,1,1,0,0,1,46,40,86,19,5
1995,1,2,0,0,1,46,40,86,19,5
1996,1,2,0,0,1,46,40,86,19,5
1997,1,2,0,0,1,46,40,86,19,5
1998,1,0,1,1,0,46,40,86,19,5
1999,0,1,1,1,1,46,40,86,19,5
2000,1,1,0,0,1,46,40,86,19,5
2001,1,0,1,1,0,46,40,86,19,5
2002,0,2,0,0,0,46,40,86,19,5
2003,0,0,0,0,0,46,40,86,19,5
2004,0,0,0,0,0,46,40,86,19,5
2005,0,0,0,0,0,46,40,86,19,5
2006,0,1,1,1,1,46,40,86,19,5
2007,1,1,0,0,1,46,40,86,19,5
2008,1,1,0,0,1,46,40,86,19,5
2009,1,1,0,0,1,46,40,86,19,5
2010,1,2,0,0,1,46,40,86,19,5
2011,1,2,0,0,1,46,40,86,19,5
2012,1,2,0,0,1,46,40,86,19,5
2013,1,0,1,1,0,46,40,86,19,5
2014,0,2,0,0,0,46,40,86,19,5
2015,0,0,0,0,0,46,40,86,19,5
2016,0,1,1,1,1,46,40,86,19,5
2017,1,2,0,0,1,46,40,86,19,5
2018,1,1,0,0,1,46,40,86,19,5
2019,1,1,0,0,1,46,40,86,19,5
2020,1,0,1,1,0,46,40,86,19,5
2021,0,2,0,0,0,46,40,86,19,5
2022,0,2,0,0,0,46,40,86,19,5
2023,0,1,1,1,1,46,40,86,19,5
2024,1,2,0,0,1,46,40,86,19,5
2025,1,1,0,0,1,46,40,86,19,5
2026,1,0,1,1,0,46,40,86,19,5
2027,0,2,0,0,0,46,40,86,19,5
2028,0,1,1,1,1,46,40,86,19,5
2029,1,0,1,1,0,46,40,86,19,5
2030,0,2,0,0,0,46,40,86,19,5
2031,0,1,1,1,1,46,40,86,19,5
2032,1,0,1,1,0,46,40,86,19,5
2033,0,2,0,0,0,46,40,86,19,5
2034,0,0,0,0,0,46,40,86,19,5
2035,0,2,0,0,0,46,40,86,19,5
2036,0,0,0,0,0,46,40,86,19,5
2037,0,0,0,0,0,46,40,86,19,5
2038,0,0,0,0,0,46,40,86,19,5
2039,0,2,0,0,0,46,40,86,19,5
2040,0,1,1,1,1,46,40,86,19,5
2041,1,1,0,0,1,46,40,86,19,5
2042,1,0,1,1,0,46,40,86,19,5
2043,0,2,0,0,0,46,40,86,19,5
2044,0,2,0,0,0,46,40,86,19,5
2045,0,2,0,0,0,46,40,86,19,5
2046,0,2,0,0,0,46,40,86,19,5
2047,0,2,0,0,0,46,40,86,19,5
2048,0,0,1,0,0,46,40,86,19,5
2049,0,2,0,0,0,46,40,86,19,5
2050,0,2,0,0,0,46,40,86,19,5
2051,0,2,0,0,0,46,40,86,19,5
2052,0,1,1,1,1,46,40,86,19,5
2053,1,2,0,0,1,46,40,86,19,5
2054,1,0,1,1,0,46,40,86,19,5
2055,0,2,0,0,0,46,40,86,19,5
2056,0,0,0,0,0,46,40,86,19,5
2057,0,2,0,0,0,46,40,86,19,5
2058,0,1,1,1,1,46,40,86,19,5
2059,1,1,0,0,1,46,40,86,19,5
2060,1,1,0,0,1,46,40,86,19,5
2061,1,0,1,1,0,46,40,86,19,5
2062,0,0,0,0,0,46,40,86,19,5
2063,0,0,0,0,0,46,40,86,19,5
2064,0,2,0,0,0,46,40,86,19,5
2065,0,0,0,0,0,46,40,86,19,5
2066,0,0,0,0,0,46,40,86,19,5
2067,0,1,1,1,1,46,40,86,19,5
2068,1,2,0,0,1,46,40,86,19,5
2069,1,2,0,0,1,46,40,86,19,5
2070,1,0,1,1,0,46,40,86,19,5
2071,0,2,0,0,0,46,40,86,19,5
2072,0,0,0,0,0,46,40,86,19,5
2073,0,1,1,1,1,46,40,86,19,5
2074,1,1,0,0,1,46,40,86,19,5
2075,1,2,0,0,1,46,40,86,19,5
2076,1,0,1,1,0,46,40,86,19,5
2077,0,1,1,1,1,46,40,86,19,5
2078,1,2,0,0,1,46,40,86,19,5
2079,1,0,1,1,0,46,40,86,19,5
2080,0,1,1,1,1,46,40,86,19,5
2081,1,1,0,0,1,46,40,86,19,5
2082,1,1,0,0,1,46,40,86,19,5
2083,1,2,0,0,1,46,40,86,19,5
2084,1,1,0,0,1,46,40,86,19,5
2085,1,2,0,0,1,46,40,86,19,5
2086,1,2,0,0,1,46,40,86,19,5
2087,1,2,0,0,1,46,40,86,19,5
2088,1,0,1,1,0,46,40,86,19,5
2089,0,2,0,0,0,46,40,86,19,5
2090,0,2,0,0,0,46,40,86,19,5
2091,0,0,0,0,0,46,40,86,19,5
2092,0,2,0,0,0,46,40,86,19,5
2093,0,0,0,0,0,46,40,86,19,5
2094,0,0,0,0,0,46,40,86,19,5
2095,0,2,0,0,0,46,40,86,19,5
2096,0,2,0,0,0,46,40,86,19,5
2097,0,1,1,1,1,46,40,86,19,5
2098,1,0,1,1,0,46,40,86,19,5
2099,0,0,0,0,0,46,40,86,19,5
2100,0,1,1,1,1,46,40,86,19,5
2101,1,0,1,1,0,46,40,86,19,5
2102,0,1,1,1,1,46,40,86,19,5
2103,1,0,1,1,0,46,40,86,19,5
2104,0,2,0,0,0,46,40,86,19,5
2105,0,0,0,0,0,46,40,86,19,5
2106,0,0,0,0,0,46,40,86,19,5
2107,0,0,0,0,0,46,40,86,19,5
2108,0,2,0,0,0,46,40,86,19,5
2109,0,2,0,0,0,46,40,86,19,5
2110,0,1,1,1,1,46,40,86,19,5
2111,1,2,0,0,1,46,40,86,19,5
2112,1,0,1,1,0,46,40,86,19,5
2113,0,0,0,0,0,46,40,86,19,5
2114,0,2,0,0,0,46,40,86,19,5
2115,0,0,0,0,0,46,40,86,19,5
2116,0,0,0,0,0,46,40,86,19,5
2117,0,1,1,1,1,46,40,86,19,5
2118,1,0,1,1,0,46,40,86,19,5
2119,0,1,1,1,1,46,40,86,19,5
2120,1,0,1,1,0,46,40,86,19,5
2121,0,0,0,0,0,46,40,86,19,5
2122,0,1,1,1,1,46,40,86,19,5
2123,1,1,0,0,1,46,40,86,19,5
2124,1,0,1,1,0,46,40,86,19,5
2125,0,0,0,0,0,46,40,86,19,5
2126,0,1,1,1,1,46,40,86,19,5
2127,1,1,0,0,1,46,40,86,19,5
2128,1,1,0,0,1,46,40,86,19,5
2129,1,1,0,0,1,46,40,86,19,5
2130,1,0,1,1,0,46,40,86,19,5
2131,0,0,0,0,0,46,40,86,19,5
2132,0,1,1,1,1,46,40,86,19,5
2133,1,2,0,0,1,46,40,86,19,5
2134,1,1,0,0,1,46,40,86,19,5
2135,1,0,1,1,0,46,40,86,19,5
2136,0,0,0,0,0,46,40,86,19,5
2137,0,0,0,0,0,46,40,86,19,5
2138,0,1,1,1,1,46,40,86,19,5
2139,1,1,0,0,1,46,40,86,19,5
2140,1,1,0,0,1,46,40,86,19,5
2141,1,1,0,0,1,46,40,86,19,5
2142,1,1,0,0,1,46,40,86,19,5
2143,1,1,0,0,1,46,40,86,19,5
2144,1,1,0,0,1,46,40,86,19,5
2145,1,2,0,0,1,46,40,86,19,5
2146,1,1,0,0,1,46,40,86,19,5
2147,1,2,0,0,1,46,40,86,19,5
2148,1,2,0,0,1,46,40,86,19,5
2149,1,2,0,0,1,46,40,86,19,5
2150,1,1,1,0,1,46,41,87,19,5
2151,1,1,0,0,1,46,41,87,19,5
2152,1,2,0,0,1,46,41,87,19,5
2153,1,0,1,1,0,46,41,87,19,5
2154,0,1,1,1,1,46,41,87,19,5
2155,1,2,0,0,1,46,41,87,19,5
2156,1,1,0,0,1,46,41,87,19,5
2157,1,1,0,0,1,46,41,87,19,5
2158,1,0,1,1,0,46,41,87,19,5
2159,0,0,0,0,0,46,41,87,19,5
2160,0,0,0,0,0,46,41,87,19,5
2161,0,1,1,1,1,46,41,87,19,5
2162,1,1,0,0,1,46,41,87,19,5
2163,1,1,0,0,1,46,41,87,19,5
2164,1,1,0,0,1,46,41,87,19,5
2165,1,0,1,1,0,46,41,87,19,5
2166,0,0,0,0,0,46,41,87,19,5
2167,0,1,1,1,1,46,41,87,19,5
2168,1,2,0,0,1,46,41,87,19,5
2169,1,0,1,1,0,46,41,87,19,5
2170,0,0,0,0,0,46,41,87,19,5
2171,0,1,1,1,1,46,41,87,19,5
2172,1,2,0,0,1,46,41,87,19,5
2173,1,2,0,0,1,46,41,87,19,5
2174,1,0,1,1,0,46,41,87,19,5
2175,0,1,1,1,1,46,41,87,19,5
2176,1,0,1,1,0,46,41,87,19,5
2177,0,1,1,1,1,46,41,87,19,5
2178,1,2,0,0,1,46,41,87,19,5
2179,1,2,0,0,1,46,41,87,19,5
2180,1,2,0,0,1,46,41,87,19,5
2181,1,2,0,0,1,46,41,87,19,5
2182,1,2,0,0,1,46,41,87,19,5
2183,1,0,1,1,0,46,41,87,19,5
2184,0,0,0,0,0,46,41,87,19,5
2185,0,2,0,0,0,46,41,87,20,6
2186,0,1,1,1,1,46,41,87,20,6
2187,1,2,0,0,1,46,41,87,20,6
2188,1,0,1,1,0,46,41,87,20,6
2189,0,1,1,1,1,46,41,87,20,6
2190,1,0,1,1,0,46,41,87,20,6
2191,0,2,0,0,0,46,41,87,20,6
2192,0,1,1,1,1,46,41,87,20,6
2193,1,2,0,0,1,46,41,87,20,6
2194,1,2,0,0,1,46,41,87,20,6
2195,1,2,0,0,1,46,41,87,20,6
2196,1,1,0,0,1,46,42,88,20,6
2197,1,2,0,0,1,46,42,88,20,6
2198,1,0,1,1,0,46,42,88,20,6
2199,0,1,1,1,1,46,42,88,20,6
2200,1,1,0,0,1,46,42,88,20,6
2201,1,2,0,0,1,46,42,88,20,6
2202,1,1,0,0,1,46,42,88,20,6
2203,1,2,0,0,1,46,42,88,20,6
2204,1,1,0,0,1,46,42,88,20,6
2205,1,1,0,0,1,46,42,88,20,6
2206,1,1,0,0,1,46,42,88,20,6
2207,1,1,0,0,1,46,42,88,20,6
2208,1,0,1,1,0,46,42,88,20,6
2209,0,0,0,0,0,46,42,88,20,6
2210,0,2,0,0,0,46,42,88,20,6
2211,0,1,1,1,1,46,42,88,20,6
2212,1,2,0,0,1,46,42,88,20,6
2213,1,2,0,0,1,46,42,88,20,6
2214,1,2,0,0,1,46,42,88,20,6
2215,1,0,1,1,0,47,43,90,20,6
2216,0,1,1,1,1,47,43,90,20,6
2217,1,1,0,0,1,47,43,90,20,6
2218,1,0,1,1,0,47,43,90,20,6
2219,0,0,0,0,0,47,43,90,20,6
2220,0,2,0,0,0,47,43,90,20,6
2221,0,1,1,1,1,47,43,90,20,6
2222,1,1,0,0,1,47,43,90,20,6
2223,1,2,0,0,1,47,43,90,20,6
2224,1,0,1,1,0,47,43,90,20,6
2225,0,2,0,0,0,47,43,90,20,6
2226,0,1,1,1,1,47,43,90,20,6
2227,1,2,0,0,1,47,43,90,20,6
2228,1,1,0,0,1,47,43,90,20,6
2229,1,1,0,0,1,47,43,90,20,6
2230,1,2,0,0,1,47,43,90,20,6
2231,1,0,1,1,0,47,43,90,20,6
2232,0,1,1,1,1,47,43,90,20,6
2233,1,0,1,1,0,47,43,90,20,6
2234,0,1,1,1,1,47,43,90,20,6
2235,1,1,0,0,1,47,43,90,20,6
2236,1,1,0,0,1,47,43,90,20,6
2237,1,1,0,0,1,47,43,90,20,6
2238,1,2,0,0,1,47,43,90,20,6
2239,1,0,1,1,0,47,43,90,20,6
2240,0,2,0,0,0,47,43,90,20,6
2241,0,1,1,1,1,47,43,90,20,6
2242,1,0,1,1,0,47,43,90,20,6
2243,0,1,1,1,1,47,43,90,20,6
2244,1,0,1,1,0,47,43,90,20,6
2245,0,1,1,1,1,47,43,90,20,6
2246,1,2,0,0,1,47,43,90,20,6
2247,1,1,0,0,1,47,43,90,20,6
2248,1,0,1,1,0,47,43,90,20,6
2249,0,2,0,0,0,47,43,90,20,6
2250,0,2,0,0,0,47,43,90,20,6
2251,0,2,0,0,0,47,43,90,20,6
2252,0,1,1,1,1,47,43,90,20,6
2253,1,2,0,0,1,47,43,90,20,6
2254,1,0,1,1,0,47,43,90,20,6
2255,0,0,0,0,0,47,43,90,20,6
2256,0,2,0,0,0,47,43,90,20,6
2257,0,2,0,0,0,47,43,90,20,6
2258,0,1,1,1,1,47,43,90,20,6
2259,1,1,0,0,1,47,43,90,20,6
2260,1,0,1,1,0,47,43,90,20,6
2261,0,2,0,0,0,47,43,90,20,6
2262,0,2,0,0,0,47,43,90,20,6
2263,0,1,1,1,1,47,43,90,20,6
2264,1,0,1,1,0,47,43,90,20,6
2265,0,2,0,0,0,47,43,90,20,6
2266,0,2,0,0,0,47,43,90,20,6
2267,0,2,0,0,0,47,43,90,20,6
2268,0,2,0,0,0,47,43,90,20,6
2269,0,0,1,0,0,47,43,90,20,6
2270,0,2,0,0,0,47,43,90,20,6
2271,0,2,0,0,0,47,43,90,20,6
2272,0,1,1,1,1,47,43,90,20,6
2273,1,0,1,1,0,47,43,90,20,6
2274,0,2,0,0,0,47,43,90,20,6
2275,0,1,1,1,1,47,43,90,20,6
2276,1,0,1,1,0,47,43,90,20,6
2277,0,1,1,1,1,47,43,90,20,6
2278,1,0,1,1,0,47,43,90,20,6
2279,0,2,0,0,0,47,43,90,20,6
2280,0,2,0,0,0,47,43,90,20,6
2281,0,2,0,0,0,47,43,90,20,6
2282,0,0,0,0,0,47,43,90,20,6
2283,0,1,1,1,1,47,43,90,20,6
2284,1,1,0,0,1,47,43,90,20,6
2285,1,0,1,1,0,47,43,90,20,6
2286,0,2,0,0,0,47,43,90,20,6
2287,0,2,0,0,0,47,43,90,20,6
2288,0,2,0,0,0,47,43,90,20,6
2289,0,1,1,1,1,47,43,90,20,6
2290,1,2,0,0,1,47,43,90,20,6
2291,1,0,1,1,0,47,43,90,20,6
2292,0,0,0,0,0,47,43,90,20,6
2293,0,2,0,0,0,47,43,90,20,6
2294,0,1,1,1,1,47,43,90,20,6
2295,1,0,1,1,0,47,43,90,20,6
2296,0,0,0,0,0,47,43,90,20,6
2297,0,0,0,0,0,47,43,90,20,6
2298,0,1,1,1,1,47,43,90,20,6
2299,1,0,1,1,0,47,43,90,20,6
2300,0,2,0,0,0,47,43,90,20,6
2301,0,0,0,0,0,47,43,90,20,6
2302,0,0,0,0,0,47,43,90,20,6
2303,0,2,0,0,0,47,43,90,20,6
2304,0,1,1,1,1,47,43,90,20,6
2305,1,2,0,0,1,47,43,90,20,6
2306,1,0,1,1,0,47,43,90,20,6
2307,0,2,0,0,0,47,43,90,20,6
2308,0,0,0,0,0,47,43,90,20,6
2309,0,1,1,1,1,47,43,90,20,6
2310,1,1,0,0,1,47,43,90,20,6
2311,1,0,1,1,0,47,43,90,20,6
2312,0,2,0,0,0,47,43,90,20,6
2313,0,0,0,0,0,47,43,90,20,6
2314,0,2,0,0,0,47,43,90,20,6
2315,0,2,0,0,0,47,43,90,20,6
2316,0,2,0,0,0,47,43,90,20,6
2317,0,2,0,0,0,47,43,90,20,6
2318,0,2,0,0,0,47,43,90,20,6
2319,0,2,0,0,0,47,43,90,20,6
2320,0,0,1,0,0,48,43,91,20,6
2321,0,0,0,0,0,48,43,91,20,6
2322,0,0,0,0,0,48,43,91,20,6
2323,0,1,1,1,1,48,43,91,20,6
2324,1,0,1,1,0,48,43,91,20,6
2325,0,0,0,0,0,48,43,91,20,6
2326,0,1,1,1,1,48,43,91,20,6
2327,1,0,1,1,0,48,43,91,20,6
2328,0,0,0,0,0,48,43,91,20,6
2329,0,0,0,0,0,48,43,91,20,6
2330,0,0,0,0,0,48,43,91,20,6
2331,0,0,0,0,0,48,43,91,20,6
2332,0,2,0,0,0,48,43,91,20,6
2333,0,0,0,0,0,48,43,91,20,6
2334,0,1,1,1,1,48,43,91,20,6
2335,1,2,0,0,1,48,43,91,20,6
2336,1,2,0,0,1,48,43,91,20,6
2337,1,0,1,1,0,48,43,91,20,6
2338,0,1,1,1,1,48,43,91,20,6
2339,1,0,1,1,0,48,43,91,20,6
2340,0,1,1,1,1,48,43,91,20,6
2341,1,2,0,0,1,48,43,91,20,6
2342,1,0,1,1,0,48,43,91,20,6
2343,0,1,1,1,1,48,43,91,20,6
2344,1,0,1,1,0,48,43,91,20,6
2345,0,1,1,1,1,48,43,91,20,6
2346,1,2,0,0,1,48,43,91,20,6
2347,1,2,0,0,1,48,43,91,20,6
2348,1,0,1,1,0,48,43,91,20,6
2349,0,2,0,0,0,48,43,91,20,6
2350,0,2,0,0,0,48,43,91,20,6
2351,0,2,0,0,0,48,43,91,20,6
2352,0,1,1,1,1,48,43,91,20,6
2353,1,1,0,0,1,48,43,91,20,6
2354,1,2,0,0,1,48,43,91,20,6
2355,1,1,0,0,1,48,43,91,20,6
2356,1,2,0,0,1,48,43,91,20,6
2357,1,0,1,1,0,48,43,91,20,6
2358,0,0,0,0,0,48,43,91,20,6
2359,0,1,1,1,1,48,43,91,20,6
2360,1,0,1,1,0,48,43,91,20,6
2361,0,1,1,1,1,48,43,91,20,6
2362,1,1,0,0,1,48,43,91,20,6
2363,1,2,0,0,1,48,43,91,20,6
2364,1,2,0,0,1,48,43,91,20,6
2365,1,1,0,0,1,48,43,91,20,6
2366,1,0,1,1,0,48,43,91,20,6
2367,0,2,0,0,0,48,43,91,20,6
2368,0,1,1,1,1,48,43,91,20,6
2369,1,0,1,1,0,48,43,91,20,6
2370,0,0,0,0,0,48,43,91,20,6
2371,0,1,1,1,1,48,43,91,20,6
2372,1,1,0,0,1,48,43,91,20,6
2373,1,1,0,0,1,48,43,91,20,6
2374,1,1,0,0,1,48,43,91,20,6
2375,1,1,0,0,1,48,43,91,20,6
2376,1,1,0,0,1,48,43,91,20,6
2377,1,0,1,1,0,48,43,91,20,6
2378,0,1,1,1,1,48,43,91,20,6
2379,1,0,1,1,0,48,43,91,20,6
2380,0,2,0,0,0,48,43,91,20,6
2381,0,2,0,0,0,48,43,91,20,6
2382,0,0,0,0,0,48,43,91,20,6
2383,0,0,0,0,0,48,43,91,20,6
2384,0,0,0,0,0,48,43,91,20,6
2385,0,1,1,1,1,48,43,91,20,6
2386,1,1,0,0,1,48,43,91,20,6
2387,1,2,0,0,1,48,43,91,20,6
2388,1,1,0,0,1,48,43,91,20,6
2389,1,1,0,0,1,48,43,91,20,6
2390,1,0,1,1,0,48,43,91,20,6
2391,0,0,0,0,0,48,43,91,20,6
2392,0,2,0,0,0,48,43,91,20,6
2393,0,0,0,0,0,48,43,91,20,6
2394,0,0,0,0,0,48,43,91,20,6
2395,0,0,0,0,0,48,43,91,20,6
2396,0,1,1,1,1,48,43,91,20,6
2397,1,1,0,0,1,48,43,91,20,6
2398,1,1,0,0,1,48,43,91,20,6
2399,1,1,0,0,1,48,43,91,20,6
2400,1,1,0,0,1,48,43,91,20,6
2401,1,0,1,1,0,48,43,91,20,6
2402,0,2,0,0,0,48,43,91,20,6
2403,0,1,1,1,1,48,43,91,20,6
2404,1,1,0,0,1,48,43,91,20,6
2405,1,0,1,1,0,48,43,91,20,6
2406,0,1,1,1,1,48,43,91,20,6
2407,1,2,0,0,1,48,43,91,20,6
2408,1,0,1,1,0,48,43,91,20,6
2409,0,1,1,1,1,48,43,91,20,6
2410,1,2,0,0,1,48,43,91,20,6
2411,1,1,0,0,1,48,43,91,20,6
2412,1,1,0,0,1,48,43,91,20,6
2413,1,0,1,1,0,48,43,91,20,6
2414,0,0,0,0,0,48,43,91,20,6
2415,0,0,0,0,0,48,43,91,20,6
2416,0,1,1,1,1,48,43,91,20,6
2417,1,1,0,0,1,48,43,91,20,6
2418,1,2,0,0,1,48,43,91,20,6
2419,1,0,1,1,0,48,43,91,20,6
2420,0,0,0,0,0,48,43,91,20,6
2421,0,2,0,0,0,48,43,91,20,6
2422,0,1,1,1,1,48,43,91,20,6
2423,1,2,0,0,1,48,43,91,20,6
2424,1,2,0,0,1,48,43,91,20,6
2425,1,0,1,1,0,48,43,91,20,6
2426,0,0,0,0,0,48,43,91,20,6
2427,0,1,1,1,1,48,43,91,20,6
2428,1,1,0,0,1,48,43,91,20,6
2429,1,1,0,0,1,48,43,91,20,6
2430,1,0,1,1,0,48,43,91,20,6
2431,0,0,0,0,0,48,43,91,20,6
2432,0,2,0,0,0,48,43,91,20,6
2433,0,0,0,0,0,48,43,91,20,6
2434,0,0,0,0,0,48,43,91,20,6
2435,0,0,0,0,0,48,43,91,20,6
2436,0,1,1,1,1,48,43,91,20,6
2437,1,1,0,0,1,48,43,91,20,6
2438,1,2,0,0,1,48,43,91,20,6
2439,1,0,1,1,0,48,43,91,20,6
2440,0,1,1,1,1,48,43,91,20,6
2441,1,0,1,1,0,48,43,91,20,6
2442,0,2,0,0,0,48,43,91,20,6
2443,0,1,1,1,1,48,43,91,20,6
2444,1,2,0,0,1,48,43,91,20,6
2445,1,0,1,1,0,48,43,91,20,6
2446,0,2,0,0,0,48,43,91,20,6
2447,0,1,1,1,1,48,43,91,20,6
2448,1,1,0,0,1,48,43,91,20,6
2449,1,2,0,0,1,48,43,91,20,6
2450,1,1,0,0,1,48,43,91,20,6
2451,1,0,1,1,0,48,43,91,20,6
2452,0,1,1,1,1,48,43,91,20,6
2453,1,0,1,1,0,48,43,91,20,6
2454,0,1,1,1,1,48,43,91,20,6
2455,1,1,0,0,1,48,43,91,20,6
2456,1,2,0,0,1,48,43,91,20,6
2457,1,1,0,0,1,48,43,91,20,6
2458,1,0,1,1,0,48,43,91,20,6
2459,0,0,0,0,0,48,43,91,20,6
2460,0,1,1,1,1,48,43,91,20,6
2461,1,0,1,1,0,48,43,91,20,6
2462,0,0,0,0,0,48,43,91,20,6
2463,0,2,0,0,0,48,43,91,20,6
2464,0,0,0,0,0,48,43,91,20,6
2465,0,2,0,0,0,48,43,91,20,6
2466,0,1,1,1,1,48,43,91,20,6
2467,1,2,0,0,1,48,43,91,20,6
2468,1,2,0,0,1,48,43,91,20,6
2469,1,0,1,1,0,48,43,91,20,6
2470,0,1,1,1,1,48,43,91,20,6
2471,1,0,1,1,0,48,43,91,20,6
2472,0,1,1,1,1,48,43,91,20,6
2473,1,2,0,0,1,48,43,91,20,6
2474,1,0,1,1,0,48,43,91,20,6
2475,0,0,0,0,0,48,43,91,20,6
2476,0,0,0,0,0,48,43,91,20,6
2477,0,2,0,0,0,48,43,91,20,6
2478,0,2,0,0,0,48,43,91,20,6
2479,0,1,1,1,1,48,43,91,20,6
2480,1,1,0,0,1,48,43,91,20,6
2481,1,0,1,1,0,48,43,91,20,6
2482,0,1,1,1,1,48,43,91,20,6
2483,1,2,0,0,1,48,43,91,20,6
2484,1,2,0,0,1,48,43,91,20,6
2485,1,0,1,1,0,48,43,91,20,6
2486,0,1,1,1,1,48,43,91,20,6
2487,1,2,0,0,1,48,43,91,20,6
2488,1,1,0,0,1,48,43,91,20,6
2489,1,2,0,0,1,48,43,91,20,6
2490,1,1,0,0,1,48,43,91,20,6
2491,1,2,0,0,1,48,43,91,20,6
2492,1,1,0,0,1,48,43,91,20,6
2493,1,1,0,0,1,48,43,91,20,6
2494,1,0,1,1,0,48,43,91,20,6
2495,0,0,0,0,0,48,43,91,20,6
2496,0,1,1,1,1,48,43,91,20,6
2497,1,2,0,0,1,48,43,91,20,6
2498,1,0,1,1,0,48,43,91,20,6
2499,0,1,1,1,1,48,43,91,20,6
2500,1,0,1,1,0,48,43,91,20,6
