decision-cycle,state,dir,prediction,outcome,next-state,predict-yes-rulecount,predict-no-rulecount,total-rulecount,template-count,template-depth
1,0,0,1,0,0,1,1,2,2,0
2,0,2,0,0,0,2,2,4,2,0
3,0,2,1,0,0,2,2,4,2,0
4,0,0,1,0,0,2,2,4,2,0
5,0,1,0,1,1,3,3,6,2,0
6,1,1,1,0,1,3,3,6,2,0
7,1,1,1,0,1,3,3,6,2,0
8,1,2,0,0,1,3,3,6,2,0
9,1,0,0,1,0,3,3,6,2,0
10,0,0,0,0,0,3,3,6,2,0
11,0,2,0,0,0,3,3,6,2,0
12,0,1,1,1,1,3,3,6,2,0
13,1,2,0,0,1,3,3,6,2,0
14,1,0,0,1,0,3,3,6,2,0
15,0,1,0,1,1,3,3,6,2,0
16,1,2,0,0,1,3,3,6,2,0
17,1,0,1,1,0,3,3,6,2,0
18,0,2,0,0,0,3,3,6,2,0
19,0,2,0,0,0,3,3,6,2,0
20,0,0,1,0,0,3,3,6,2,0
21,0,0,1,0,0,3,3,6,2,0
22,0,1,1,1,1,3,3,6,2,0
23,1,2,0,0,1,3,3,6,2,0
24,1,1,1,0,1,3,3,6,2,0
25,1,0,0,1,0,3,3,6,2,0
26,0,1,0,1,1,3,3,6,2,0
27,1,0,1,1,0,3,3,6,2,0
28,0,0,1,0,0,3,3,6,2,0
29,0,1,1,1,1,3,3,6,2,0
30,1,1,0,0,1,3,3,6,2,0
31,1,0,1,1,0,3,3,6,2,0
32,0,0,1,0,0,3,3,6,2,0
33,0,0,1,0,0,3,3,6,2,0
34,0,1,1,1,1,3,3,6,2,0
35,1,0,1,1,0,3,3,6,2,0
36,0,0,0,0,0,3,3,6,2,0
37,0,2,1,0,0,3,3,6,2,0
38,0,1,0,1,1,3,3,6,2,0
39,1,1,1,0,1,3,3,6,2,0
40,1,0,1,1,0,3,3,6,2,0
41,0,2,1,0,0,3,3,6,2,0
42,0,2,0,0,0,3,3,6,2,0
43,0,0,1,0,0,3,3,6,2,0
44,0,0,1,0,0,3,3,6,2,0
45,0,2,0,0,0,3,3,6,2,0
46,0,2,0,0,0,3,3,6,2,0
47,0,2,0,0,0,3,3,6,2,0
48,0,1,1,1,1,3,3,6,2,0
49,1,2,0,0,1,3,3,6,2,0
50,1,2,0,0,1,3,3,6,2,0
51,1,0,0,1,0,4,4,8,6,1
52,0,1,1,1,1,5,5,10,6,1
53,1,2,0,0,1,5,5,10,6,1
54,1,2,1,0,1,5,5,10,6,1
55,1,1,1,0,1,6,6,12,6,1
56,1,1,1,0,1,7,7,14,6,1
57,1,0,0,1,0,8,8,16,6,1
58,0,0,0,0,0,9,9,18,6,1
59,0,2,0,0,0,9,9,18,6,1
60,0,1,1,1,1,10,10,20,6,1
61,1,0,1,1,0,10,10,20,6,1
62,0,1,1,1,1,10,10,20,6,1
63,1,2,0,0,1,10,10,20,6,1
64,1,2,0,0,1,10,10,20,6,1
65,1,1,0,0,1,10,10,20,6,1
66,1,1,1,0,1,10,10,20,6,1
67,1,1,1,0,1,10,10,20,6,1
68,1,2,1,0,1,10,10,20,6,1
69,1,1,0,0,1,10,10,20,6,1
70,1,1,0,0,1,10,10,20,6,1
71,1,1,0,0,1,10,10,20,6,1
72,1,0,1,1,0,10,10,20,6,1
73,0,0,1,0,0,10,10,20,6,1
74,0,2,0,0,0,10,10,20,6,1
75,0,2,0,0,0,10,10,20,6,1
76,0,1,0,1,1,10,10,20,6,1
77,1,1,0,0,1,10,10,20,6,1
78,1,0,1,1,0,10,10,20,6,1
79,0,1,1,1,1,10,10,20,6,1
80,1,2,0,0,1,10,10,20,6,1
81,1,2,1,0,1,10,10,20,6,1
82,1,1,0,0,1,10,10,20,6,1
83,1,2,0,0,1,10,10,20,6,1
84,1,0,0,1,0,10,10,20,6,1
85,0,1,1,1,1,10,10,20,6,1
86,1,2,0,0,1,10,10,20,6,1
87,1,1,0,0,1,10,10,20,6,1
88,1,1,0,0,1,10,10,20,6,1
89,1,0,1,1,0,10,10,20,6,1
90,0,1,1,1,1,10,10,20,6,1
91,1,2,0,0,1,10,10,20,6,1
92,1,0,1,1,0,10,10,20,6,1
93,0,2,0,0,0,10,10,20,6,1
94,0,2,0,0,0,10,10,20,6,1
95,0,2,0,0,0,10,10,20,6,1
96,0,2,1,0,0,10,10,20,6,1
97,0,2,0,0,0,10,10,20,6,1
98,0,1,0,1,1,10,10,20,6,1
99,1,1,0,0,1,10,10,20,6,1
100,1,1,0,0,1,10,10,20,6,1
101,1,0,1,1,0,10,10,20,6,1
102,0,2,1,0,0,10,10,20,6,1
103,0,1,1,1,1,10,10,20,6,1
104,1,0,1,1,0,10,10,20,6,1
105,0,1,1,1,1,10,10,20,6,1
106,1,1,1,0,1,10,10,20,6,1
107,1,1,1,0,1,10,10,20,6,1
108,1,1,0,0,1,10,10,20,6,1
109,1,1,0,0,1,10,10,20,6,1
110,1,1,0,0,1,10,10,20,6,1
111,1,1,0,0,1,10,10,20,6,1
112,1,1,1,0,1,10,10,20,6,1
113,1,0,1,1,0,10,10,20,6,1
114,0,0,1,0,0,10,10,20,6,1
115,0,0,1,0,0,11,11,22,6,1
116,0,1,1,1,1,11,11,22,6,1
117,1,2,0,0,1,11,11,22,6,1
118,1,2,0,0,1,11,11,22,6,1
119,1,2,0,0,1,11,11,22,6,1
120,1,2,1,0,1,11,11,22,6,1
121,1,0,1,1,0,11,11,22,6,1
122,0,2,0,0,0,11,11,22,6,1
123,0,2,0,0,0,11,11,22,6,1
124,0,0,0,0,0,11,11,22,6,1
125,0,0,0,0,0,11,11,22,6,1
126,0,0,0,0,0,11,11,22,6,1
127,0,2,0,0,0,11,11,22,6,1
128,0,0,0,0,0,11,11,22,6,1
129,0,0,0,0,0,11,11,22,6,1
130,0,1,1,1,1,11,11,22,6,1
131,1,1,0,0,1,11,11,22,6,1
132,1,0,1,1,0,11,11,22,6,1
133,0,0,0,0,0,11,11,22,6,1
134,0,1,1,1,1,11,11,22,6,1
135,1,0,0,1,0,11,11,22,6,1
136,0,0,0,0,0,11,11,22,6,1
137,0,2,0,0,0,11,11,22,6,1
138,0,1,0,1,1,11,11,22,6,1
139,1,0,1,1,0,11,11,22,6,1
140,0,1,1,1,1,11,11,22,6,1
141,1,0,0,1,0,11,11,22,6,1
142,0,1,1,1,1,11,11,22,6,1
143,1,1,0,0,1,11,11,22,6,1
144,1,0,1,1,0,11,11,22,6,1
145,0,0,0,0,0,11,11,22,6,1
146,0,2,0,0,0,11,11,22,6,1
147,0,1,1,1,1,11,11,22,6,1
148,1,0,1,1,0,11,11,22,6,1
149,0,1,1,1,1,11,11,22,6,1
150,1,2,0,0,1,11,11,22,6,1
151,1,0,1,1,0,11,11,22,6,1
152,0,0,0,0,0,11,11,22,6,1
153,0,0,1,0,0,11,11,22,6,1
154,0,2,0,0,0,11,11,22,6,1
155,0,0,0,0,0,11,11,22,6,1
156,0,2,0,0,0,11,11,22,6,1
157,0,2,0,0,0,11,11,22,6,1
158,0,1,1,1,1,11,11,22,6,1
159,1,0,1,1,0,11,11,22,6,1
160,0,2,0,0,0,11,11,22,6,1
161,0,2,0,0,0,11,11,22,6,1
162,0,1,1,1,1,11,11,22,6,1
163,1,0,1,1,0,11,11,22,6,1
164,0,1,1,1,1,11,11,22,6,1
165,1,1,0,0,1,11,11,22,6,1
166,1,1,1,0,1,11,11,22,6,1
167,1,0,1,1,0,11,11,22,6,1
168,0,1,1,1,1,11,11,22,6,1
169,1,0,1,1,0,11,11,22,6,1
170,0,0,0,0,0,11,11,22,6,1
171,0,2,0,0,0,11,11,22,6,1
172,0,2,1,0,0,11,11,22,6,1
173,0,0,0,0,0,11,11,22,6,1
174,0,2,1,0,0,11,11,22,6,1
175,0,0,0,0,0,11,11,22,6,1
176,0,2,0,0,0,11,11,22,6,1
177,0,2,0,0,0,11,11,22,6,1
178,0,1,0,1,1,11,11,22,6,1
179,1,0,1,1,0,11,11,22,6,1
180,0,0,0,0,0,11,11,22,6,1
181,0,2,0,0,0,11,11,22,6,1
182,0,0,0,0,0,11,11,22,6,1
183,0,2,0,0,0,11,11,22,6,1
184,0,2,1,0,0,11,11,22,6,1
185,0,1,1,1,1,11,11,22,6,1
186,1,0,1,1,0,11,11,22,6,1
187,0,2,0,0,0,11,11,22,6,1
188,0,2,0,0,0,11,11,22,6,1
189,0,2,0,0,0,11,11,22,6,1
190,0,1,1,1,1,11,11,22,6,1
191,1,1,1,0,1,11,11,22,6,1
192,1,1,0,0,1,11,11,22,6,1
193,1,0,1,1,0,11,11,22,6,1
194,0,2,0,0,0,11,11,22,6,1
195,0,1,1,1,1,11,11,22,6,1
196,1,0,1,1,0,11,11,22,6,1
197,0,0,0,0,0,11,11,22,6,1
198,0,1,1,1,1,11,11,22,6,1
199,1,0,0,1,0,11,11,22,6,1
200,0,1,1,1,1,11,11,22,6,1
201,1,0,1,1,0,11,11,22,6,1
202,0,2,0,0,0,11,11,22,6,1
203,0,2,0,0,0,11,11,22,6,1
204,0,0,0,0,0,11,11,22,6,1
205,0,0,0,0,0,11,11,22,6,1
206,0,0,0,0,0,11,11,22,6,1
207,0,2,1,0,0,11,11,22,6,1
208,0,2,0,0,0,11,11,22,6,1
209,0,1,1,1,1,11,11,22,6,1
210,1,0,1,1,0,11,11,22,6,1
211,0,2,0,0,0,11,11,22,6,1
212,0,2,0,0,0,11,11,22,6,1
213,0,2,0,0,0,11,11,22,6,1
214,0,1,1,1,1,11,11,22,6,1
215,1,2,0,0,1,11,11,22,6,1
216,1,2,0,0,1,11,11,22,6,1
217,1,1,0,0,1,11,11,22,6,1
218,1,2,0,0,1,11,11,22,6,1
219,1,0,1,1,0,11,11,22,6,1
220,0,2,0,0,0,11,11,22,6,1
221,0,0,0,0,0,11,11,22,6,1
222,0,0,1,0,0,11,11,22,6,1
223,0,2,0,0,0,11,11,22,6,1
224,0,0,0,0,0,11,11,22,6,1
225,0,2,1,0,0,11,11,22,6,1
226,0,1,0,1,1,11,11,22,6,1
227,1,2,0,0,1,11,11,22,6,1
228,1,1,0,0,1,11,11,22,6,1
229,1,1,0,0,1,11,11,22,6,1
230,1,0,1,1,0,11,11,22,6,1
231,0,2,0,0,0,11,11,22,6,1
232,0,1,1,1,1,11,11,22,6,1
233,1,2,1,0,1,11,11,22,6,1
234,1,2,0,0,1,11,11,22,6,1
235,1,0,1,1,0,11,11,22,6,1
236,0,1,1,1,1,11,11,22,6,1
237,1,0,1,1,0,11,11,22,6,1
238,0,0,0,0,0,11,11,22,6,1
239,0,0,0,0,0,11,11,22,6,1
240,0,2,1,0,0,11,11,22,6,1
241,0,2,0,0,0,11,11,22,6,1
242,0,2,0,0,0,11,11,22,6,1
243,0,1,1,1,1,11,11,22,6,1
244,1,1,0,0,1,11,11,22,6,1
245,1,2,0,0,1,11,11,22,6,1
246,1,1,0,0,1,11,11,22,6,1
247,1,1,1,0,1,11,11,22,6,1
248,1,0,1,1,0,11,11,22,6,1
249,0,0,0,0,0,11,11,22,6,1
250,0,0,0,0,0,11,11,22,6,1
251,0,2,0,0,0,11,11,22,6,1
252,0,1,1,1,1,11,11,22,6,1
253,1,2,0,0,1,11,11,22,6,1
254,1,1,0,0,1,11,11,22,6,1
255,1,0,1,1,0,11,11,22,6,1
256,0,2,0,0,0,11,11,22,6,1
257,0,2,0,0,0,11,11,22,6,1
258,0,0,0,0,0,11,11,22,6,1
259,0,2,0,0,0,11,11,22,6,1
260,0,0,1,0,0,11,11,22,6,1
261,0,0,0,0,0,11,11,22,6,1
262,0,2,0,0,0,11,11,22,6,1
263,0,0,0,0,0,11,11,22,6,1
264,0,0,0,0,0,11,11,22,6,1
265,0,2,0,0,0,11,11,22,6,1
266,0,1,1,1,1,11,11,22,6,1
267,1,0,1,1,0,11,11,22,6,1
268,0,0,0,0,0,11,11,22,6,1
269,0,0,0,0,0,11,11,22,6,1
270,0,2,0,0,0,11,11,22,6,1
271,0,0,0,0,0,11,11,22,6,1
272,0,2,0,0,0,11,11,22,6,1
273,0,1,1,1,1,11,11,22,6,1
274,1,2,0,0,1,11,11,22,6,1
275,1,2,0,0,1,11,11,22,6,1
276,1,0,1,1,0,11,11,22,6,1
277,0,0,0,0,0,11,11,22,6,1
278,0,1,1,1,1,11,11,22,6,1
279,1,0,1,1,0,11,11,22,6,1
280,0,1,1,1,1,11,11,22,6,1
281,1,0,1,1,0,11,11,22,6,1
282,0,0,0,0,0,11,11,22,6,1
283,0,2,0,0,0,11,11,22,6,1
284,0,0,0,0,0,11,11,22,6,1
285,0,1,1,1,1,11,11,22,6,1
286,1,1,1,0,1,11,11,22,6,1
287,1,0,1,1,0,11,11,22,6,1
288,0,0,0,0,0,11,11,22,6,1
289,0,2,0,0,0,11,11,22,6,1
290,0,2,0,0,0,11,11,22,6,1
291,0,2,0,0,0,11,11,22,6,1
292,0,0,0,0,0,11,11,22,6,1
293,0,0,0,0,0,11,11,22,6,1
294,0,1,1,1,1,11,11,22,6,1
295,1,2,0,0,1,11,11,22,6,1
296,1,1,0,0,1,11,11,22,6,1
297,1,2,0,0,1,11,11,22,6,1
298,1,1,0,0,1,11,11,22,6,1
299,1,0,1,1,0,11,11,22,6,1
300,0,1,1,1,1,11,11,22,6,1
301,1,0,1,1,0,11,11,22,6,1
302,0,0,0,0,0,11,11,22,6,1
303,0,0,0,0,0,11,11,22,6,1
304,0,0,0,0,0,11,11,22,6,1
305,0,2,0,0,0,11,11,22,6,1
306,0,1,1,1,1,11,11,22,6,1
307,1,1,0,0,1,11,11,22,6,1
308,1,1,0,0,1,11,11,22,6,1
309,1,2,0,0,1,11,11,22,6,1
310,1,1,0,0,1,11,11,22,6,1
311,1,0,1,1,0,11,11,22,6,1
312,0,0,0,0,0,11,11,22,6,1
313,0,0,0,0,0,11,11,22,6,1
314,0,2,0,0,0,11,11,22,6,1
315,0,2,0,0,0,11,11,22,6,1
316,0,0,0,0,0,11,11,22,6,1
317,0,1,1,1,1,11,11,22,6,1
318,1,1,0,0,1,11,11,22,6,1
319,1,1,0,0,1,11,11,22,6,1
320,1,1,0,0,1,11,11,22,6,1
321,1,0,1,1,0,11,11,22,6,1
322,0,0,0,0,0,11,11,22,6,1
323,0,0,0,0,0,11,11,22,6,1
324,0,0,0,0,0,11,11,22,6,1
325,0,1,1,1,1,11,11,22,6,1
326,1,0,1,1,0,11,11,22,6,1
327,0,0,0,0,0,11,11,22,6,1
328,0,1,1,1,1,11,11,22,6,1
329,1,0,1,1,0,11,11,22,6,1
330,0,2,0,0,0,11,11,22,6,1
331,0,1,1,1,1,11,11,22,6,1
332,1,2,0,0,1,11,11,22,6,1
333,1,0,1,1,0,11,11,22,6,1
334,0,1,1,1,1,11,11,22,6,1
335,1,2,0,0,1,11,11,22,6,1
336,1,0,1,1,0,11,11,22,6,1
337,0,2,0,0,0,11,11,22,6,1
338,0,0,0,0,0,11,11,22,6,1
339,0,2,0,0,0,11,11,22,6,1
340,0,2,1,0,0,11,11,22,6,1
341,0,2,0,0,0,11,11,22,6,1
342,0,0,0,0,0,11,11,22,6,1
343,0,0,1,0,0,11,11,22,6,1
344,0,1,1,1,1,11,11,22,6,1
345,1,2,0,0,1,11,11,22,6,1
346,1,0,1,1,0,11,11,22,6,1
347,0,2,0,0,0,11,11,22,6,1
348,0,0,0,0,0,11,11,22,6,1
349,0,2,0,0,0,11,11,22,6,1
350,0,0,0,0,0,11,11,22,6,1
351,0,0,0,0,0,11,11,22,6,1
352,0,2,0,0,0,11,11,22,6,1
353,0,2,0,0,0,11,11,22,6,1
354,0,2,0,0,0,11,11,22,6,1
355,0,2,0,0,0,11,11,22,6,1
356,0,2,0,0,0,11,11,22,6,1
357,0,2,0,0,0,11,11,22,6,1
358,0,0,0,0,0,11,11,22,6,1
359,0,1,1,1,1,11,11,22,6,1
360,1,0,1,1,0,11,11,22,6,1
361,0,2,0,0,0,11,11,22,6,1
362,0,2,0,0,0,11,11,22,6,1
363,0,0,0,0,0,11,11,22,6,1
364,0,0,0,0,0,11,11,22,6,1
365,0,2,0,0,0,11,11,22,6,1
366,0,2,0,0,0,11,11,22,6,1
367,0,1,1,1,1,11,11,22,6,1
368,1,1,0,0,1,11,11,22,6,1
369,1,2,0,0,1,11,11,22,6,1
370,1,1,0,0,1,11,11,22,6,1
371,1,1,0,0,1,11,11,22,6,1
372,1,1,0,0,1,11,11,22,6,1
373,1,0,1,1,0,11,11,22,6,1
374,0,0,0,0,0,11,11,22,6,1
375,0,1,1,1,1,11,11,22,6,1
376,1,1,0,0,1,11,11,22,6,1
377,1,1,0,0,1,11,11,22,6,1
378,1,0,1,1,0,11,11,22,6,1
379,0,1,1,1,1,11,11,22,6,1
380,1,0,1,1,0,11,11,22,6,1
381,0,0,0,0,0,11,11,22,6,1
382,0,0,0,0,0,11,11,22,6,1
383,0,2,0,0,0,11,11,22,6,1
384,0,1,0,1,1,11,11,22,6,1
385,1,1,0,0,1,11,11,22,6,1
386,1,1,0,0,1,11,11,22,6,1
387,1,0,1,1,0,11,11,22,6,1
388,0,0,0,0,0,11,11,22,6,1
389,0,1,1,1,1,11,11,22,6,1
390,1,1,0,0,1,11,11,22,6,1
391,1,1,0,0,1,11,11,22,6,1
392,1,1,0,0,1,11,11,22,6,1
393,1,2,0,0,1,11,11,22,6,1
394,1,2,0,0,1,11,11,22,6,1
395,1,0,1,1,0,11,11,22,6,1
396,0,1,1,1,1,11,11,22,6,1
397,1,1,0,0,1,11,11,22,6,1
398,1,0,1,1,0,11,11,22,6,1
399,0,1,1,1,1,11,11,22,6,1
400,1,1,0,0,1,11,11,22,6,1
401,1,2,0,0,1,11,11,22,6,1
402,1,2,1,0,1,11,11,22,6,1
403,1,0,0,1,0,11,11,22,6,1
404,0,1,0,1,1,11,11,22,6,1
405,1,0,1,1,0,11,11,22,6,1
406,0,0,0,0,0,11,11,22,6,1
407,0,1,1,1,1,11,11,22,6,1
408,1,2,1,0,1,11,11,22,6,1
409,1,0,1,1,0,11,11,22,6,1
410,0,2,0,0,0,11,11,22,6,1
411,0,2,0,0,0,11,11,22,6,1
412,0,0,0,0,0,11,11,22,6,1
413,0,2,0,0,0,11,11,22,6,1
414,0,2,0,0,0,11,11,22,6,1
415,0,1,1,1,1,11,11,22,6,1
416,1,2,0,0,1,11,11,22,6,1
417,1,2,0,0,1,11,11,22,6,1
418,1,1,0,0,1,11,11,22,6,1
419,1,2,0,0,1,11,11,22,6,1
420,1,2,0,0,1,11,11,22,6,1
421,1,2,0,0,1,11,11,22,6,1
422,1,1,0,0,1,11,11,22,6,1
423,1,0,1,1,0,11,11,22,6,1
424,0,0,0,0,0,11,11,22,6,1
425,0,0,0,0,0,11,11,22,6,1
426,0,1,1,1,1,11,11,22,6,1
427,1,2,0,0,1,11,11,22,6,1
428,1,0,1,1,0,11,11,22,6,1
429,0,2,0,0,0,11,11,22,6,1
430,0,2,1,0,0,11,11,22,6,1
431,0,1,1,1,1,11,11,22,6,1
432,1,1,0,0,1,11,11,22,6,1
433,1,0,1,1,0,11,11,22,6,1
434,0,2,0,0,0,11,11,22,6,1
435,0,0,1,0,0,11,11,22,6,1
436,0,2,0,0,0,11,11,22,6,1
437,0,2,0,0,0,11,11,22,6,1
438,0,1,1,1,1,11,11,22,6,1
439,1,0,1,1,0,11,11,22,6,1
440,0,2,0,0,0,11,11,22,6,1
441,0,2,0,0,0,11,11,22,6,1
442,0,0,0,0,0,11,11,22,6,1
443,0,2,0,0,0,11,11,22,6,1
444,0,2,0,0,0,11,11,22,6,1
445,0,1,1,1,1,11,11,22,6,1
446,1,2,0,0,1,11,11,22,6,1
447,1,1,0,0,1,11,11,22,6,1
448,1,2,0,0,1,11,11,22,6,1
449,1,2,0,0,1,11,11,22,6,1
450,1,1,0,0,1,11,11,22,6,1
451,1,2,0,0,1,11,11,22,6,1
452,1,1,0,0,1,11,11,22,6,1
453,1,0,1,1,0,11,11,22,6,1
454,0,0,0,0,0,11,11,22,6,1
455,0,0,0,0,0,11,11,22,6,1
456,0,2,0,0,0,11,11,22,6,1
457,0,2,0,0,0,11,11,22,6,1
458,0,0,0,0,0,11,11,22,6,1
459,0,1,0,1,1,11,11,22,6,1
460,1,1,0,0,1,11,11,22,6,1
461,1,0,1,1,0,11,11,22,6,1
462,0,0,0,0,0,11,11,22,6,1
463,0,0,0,0,0,11,11,22,6,1
464,0,2,0,0,0,11,11,22,6,1
465,0,0,0,0,0,11,11,22,6,1
466,0,0,0,0,0,11,11,22,6,1
467,0,1,1,1,1,11,11,22,6,1
468,1,0,1,1,0,11,11,22,6,1
469,0,1,1,1,1,11,11,22,6,1
470,1,1,1,0,1,11,11,22,6,1
471,1,2,0,0,1,11,11,22,6,1
472,1,0,1,1,0,11,11,22,6,1
473,0,0,0,0,0,11,11,22,6,1
474,0,1,1,1,1,11,11,22,6,1
475,1,0,1,1,0,11,11,22,6,1
476,0,1,1,1,1,11,11,22,6,1
477,1,0,1,1,0,11,11,22,6,1
478,0,2,0,0,0,11,11,22,6,1
479,0,2,0,0,0,11,11,22,6,1
480,0,2,0,0,0,11,11,22,6,1
481,0,2,0,0,0,11,11,22,6,1
482,0,1,1,1,1,11,11,22,6,1
483,1,1,0,0,1,11,11,22,6,1
484,1,2,0,0,1,11,11,22,6,1
485,1,2,0,0,1,11,11,22,6,1
486,1,1,0,0,1,11,11,22,6,1
487,1,1,0,0,1,11,11,22,6,1
488,1,0,1,1,0,11,11,22,6,1
489,0,0,0,0,0,11,11,22,6,1
490,0,2,0,0,0,11,11,22,6,1
491,0,0,0,0,0,11,11,22,6,1
492,0,2,0,0,0,11,11,22,6,1
493,0,1,1,1,1,11,11,22,6,1
494,1,2,0,0,1,11,11,22,6,1
495,1,2,0,0,1,11,11,22,6,1
496,1,2,0,0,1,11,11,22,6,1
497,1,0,1,1,0,11,11,22,6,1
498,0,1,1,1,1,11,11,22,6,1
499,1,1,0,0,1,11,11,22,6,1
500,1,0,1,1,0,11,11,22,6,1
501,0,1,1,1,1,11,11,22,6,1
502,1,1,0,0,1,11,11,22,6,1
503,1,1,0,0,1,11,11,22,6,1
504,1,0,1,1,0,11,11,22,6,1
505,0,1,1,1,1,11,11,22,6,1
506,1,1,0,0,1,11,11,22,6,1
507,1,0,1,1,0,11,11,22,6,1
508,0,1,1,1,1,11,11,22,6,1
509,1,2,0,0,1,11,11,22,6,1
510,1,2,0,0,1,11,11,22,6,1
511,1,1,0,0,1,11,11,22,6,1
512,1,1,0,0,1,11,11,22,6,1
513,1,1,0,0,1,11,11,22,6,1
514,1,0,1,1,0,11,11,22,6,1
515,0,0,0,0,0,11,11,22,6,1
516,0,0,0,0,0,11,11,22,6,1
517,0,1,1,1,1,11,11,22,6,1
518,1,2,0,0,1,11,11,22,6,1
519,1,2,0,0,1,11,11,22,6,1
520,1,1,0,0,1,11,11,22,6,1
521,1,2,0,0,1,11,11,22,6,1
522,1,1,0,0,1,11,11,22,6,1
523,1,2,0,0,1,11,11,22,6,1
524,1,1,0,0,1,11,11,22,6,1
525,1,2,0,0,1,11,11,22,6,1
526,1,2,0,0,1,11,11,22,6,1
527,1,0,1,1,0,11,11,22,6,1
528,0,0,0,0,0,11,11,22,6,1
529,0,1,1,1,1,11,11,22,6,1
530,1,1,0,0,1,11,11,22,6,1
531,1,1,0,0,1,11,11,22,6,1
532,1,0,1,1,0,11,11,22,6,1
533,0,1,1,1,1,11,11,22,6,1
534,1,1,0,0,1,11,11,22,6,1
535,1,1,0,0,1,11,11,22,6,1
536,1,2,0,0,1,11,11,22,6,1
537,1,1,0,0,1,11,11,22,6,1
538,1,2,0,0,1,11,11,22,6,1
539,1,2,0,0,1,11,11,22,6,1
540,1,2,0,0,1,11,11,22,6,1
541,1,1,0,0,1,11,11,22,6,1
542,1,2,0,0,1,11,11,22,6,1
543,1,1,0,0,1,11,11,22,6,1
544,1,1,0,0,1,11,11,22,6,1
545,1,1,0,0,1,11,11,22,6,1
546,1,1,0,0,1,11,11,22,6,1
547,1,1,0,0,1,11,11,22,6,1
548,1,1,0,0,1,11,11,22,6,1
549,1,2,0,0,1,11,11,22,6,1
550,1,2,0,0,1,11,11,22,6,1
551,1,2,0,0,1,11,11,22,6,1
552,1,2,0,0,1,11,11,22,6,1
553,1,2,0,0,1,11,11,22,6,1
554,1,1,0,0,1,11,11,22,6,1
555,1,1,0,0,1,11,11,22,6,1
556,1,0,1,1,0,11,11,22,6,1
557,0,2,0,0,0,11,11,22,6,1
558,0,2,0,0,0,11,11,22,6,1
559,0,1,1,1,1,11,11,22,6,1
560,1,0,1,1,0,11,11,22,6,1
561,0,2,0,0,0,11,11,22,6,1
562,0,1,1,1,1,11,11,22,6,1
563,1,1,0,0,1,11,11,22,6,1
564,1,0,1,1,0,11,11,22,6,1
565,0,1,1,1,1,11,11,22,6,1
566,1,2,0,0,1,11,11,22,6,1
567,1,1,0,0,1,11,11,22,6,1
568,1,1,0,0,1,11,11,22,6,1
569,1,1,0,0,1,11,11,22,6,1
570,1,0,1,1,0,11,11,22,6,1
571,0,1,1,1,1,11,11,22,6,1
572,1,2,0,0,1,11,11,22,6,1
573,1,2,0,0,1,11,11,22,6,1
574,1,1,0,0,1,11,11,22,6,1
575,1,2,0,0,1,11,11,22,6,1
576,1,1,0,0,1,11,11,22,6,1
577,1,0,1,1,0,11,11,22,6,1
578,0,0,0,0,0,11,11,22,6,1
579,0,2,0,0,0,11,11,22,6,1
580,0,0,0,0,0,11,11,22,6,1
581,0,0,0,0,0,11,11,22,6,1
582,0,2,0,0,0,11,11,22,6,1
583,0,1,1,1,1,11,11,22,6,1
584,1,1,0,0,1,11,11,22,6,1
585,1,1,0,0,1,11,11,22,6,1
586,1,2,0,0,1,11,11,22,6,1
587,1,0,1,1,0,11,11,22,6,1
588,0,1,1,1,1,11,11,22,6,1
589,1,2,0,0,1,11,11,22,6,1
590,1,2,0,0,1,11,11,22,6,1
591,1,0,1,1,0,11,11,22,6,1
592,0,1,1,1,1,11,11,22,6,1
593,1,0,1,1,0,11,11,22,6,1
594,0,1,1,1,1,11,11,22,6,1
595,1,0,1,1,0,11,11,22,6,1
596,0,2,0,0,0,11,11,22,6,1
597,0,2,0,0,0,11,11,22,6,1
598,0,0,0,0,0,11,11,22,6,1
599,0,0,0,0,0,11,11,22,6,1
600,0,2,0,0,0,11,11,22,6,1
601,0,2,0,0,0,11,11,22,6,1
602,0,2,0,0,0,11,11,22,6,1
603,0,0,0,0,0,11,11,22,6,1
604,0,2,0,0,0,11,11,22,6,1
605,0,1,1,1,1,11,11,22,6,1
606,1,0,1,1,0,11,11,22,6,1
607,0,1,1,1,1,11,11,22,6,1
608,1,2,0,0,1,11,11,22,6,1
609,1,2,0,0,1,11,11,22,6,1
610,1,0,1,1,0,11,11,22,6,1
611,0,1,1,1,1,11,11,22,6,1
612,1,0,1,1,0,11,11,22,6,1
613,0,2,0,0,0,11,11,22,6,1
614,0,1,1,1,1,11,11,22,6,1
615,1,2,0,0,1,11,11,22,6,1
616,1,2,0,0,1,11,11,22,6,1
617,1,1,0,0,1,11,11,22,6,1
618,1,0,1,1,0,11,11,22,6,1
619,0,1,1,1,1,11,11,22,6,1
620,1,0,1,1,0,11,11,22,6,1
621,0,0,0,0,0,11,11,22,6,1
622,0,2,0,0,0,11,11,22,6,1
623,0,1,1,1,1,11,11,22,6,1
624,1,2,0,0,1,11,11,22,6,1
625,1,0,1,1,0,11,11,22,6,1
626,0,2,0,0,0,11,11,22,6,1
627,0,2,0,0,0,11,11,22,6,1
628,0,0,0,0,0,11,11,22,6,1
629,0,0,0,0,0,11,11,22,6,1
630,0,1,1,1,1,11,11,22,6,1
631,1,1,0,0,1,11,11,22,6,1
632,1,0,1,1,0,11,11,22,6,1
633,0,0,0,0,0,11,11,22,6,1
634,0,0,0,0,0,11,11,22,6,1
635,0,1,1,1,1,11,11,22,6,1
636,1,2,0,0,1,11,11,22,6,1
637,1,0,1,1,0,11,11,22,6,1
638,0,0,0,0,0,11,11,22,6,1
639,0,2,0,0,0,11,11,22,6,1
640,0,2,0,0,0,11,11,22,6,1
641,0,2,0,0,0,11,11,22,6,1
642,0,1,1,1,1,11,11,22,6,1
643,1,1,0,0,1,11,11,22,6,1
644,1,2,0,0,1,11,11,22,6,1
645,1,0,1,1,0,11,11,22,6,1
646,0,2,0,0,0,11,11,22,6,1
647,0,0,0,0,0,11,11,22,6,1
648,0,1,1,1,1,11,11,22,6,1
649,1,1,0,0,1,11,11,22,6,1
650,1,1,0,0,1,11,11,22,6,1
651,1,0,1,1,0,11,11,22,6,1
652,0,0,0,0,0,11,11,22,6,1
653,0,2,0,0,0,11,11,22,6,1
654,0,1,1,1,1,11,11,22,6,1
655,1,1,0,0,1,11,11,22,6,1
656,1,0,1,1,0,11,11,22,6,1
657,0,2,0,0,0,11,11,22,6,1
658,0,0,0,0,0,11,11,22,6,1
659,0,1,1,1,1,11,11,22,6,1
660,1,2,0,0,1,11,11,22,6,1
661,1,2,0,0,1,11,11,22,6,1
662,1,0,1,1,0,11,11,22,6,1
663,0,2,0,0,0,11,11,22,6,1
664,0,2,0,0,0,11,11,22,6,1
665,0,0,0,0,0,11,11,22,6,1
666,0,1,1,1,1,11,11,22,6,1
667,1,1,0,0,1,11,11,22,6,1
668,1,2,0,0,1,11,11,22,6,1
669,1,1,0,0,1,11,11,22,6,1
670,1,2,0,0,1,11,11,22,6,1
671,1,2,0,0,1,11,11,22,6,1
672,1,0,1,1,0,11,11,22,6,1
673,0,2,0,0,0,11,11,22,6,1
674,0,0,0,0,0,11,11,22,6,1
675,0,0,0,0,0,11,11,22,6,1
676,0,1,1,1,1,11,11,22,6,1
677,1,0,1,1,0,11,11,22,6,1
678,0,1,1,1,1,11,11,22,6,1
679,1,0,1,1,0,11,11,22,6,1
680,0,1,1,1,1,11,11,22,6,1
681,1,2,0,0,1,11,11,22,6,1
682,1,2,0,0,1,11,11,22,6,1
683,1,0,1,1,0,11,11,22,6,1
684,0,0,0,0,0,11,11,22,6,1
685,0,2,0,0,0,11,11,22,6,1
686,0,0,0,0,0,11,11,22,6,1
687,0,0,0,0,0,11,11,22,6,1
688,0,0,0,0,0,11,11,22,6,1
689,0,0,0,0,0,11,11,22,6,1
690,0,0,0,0,0,11,11,22,6,1
691,0,1,1,1,1,11,11,22,6,1
692,1,2,0,0,1,11,11,22,6,1
693,1,2,0,0,1,11,11,22,6,1
694,1,2,0,0,1,11,11,22,6,1
695,1,1,0,0,1,11,11,22,6,1
696,1,1,0,0,1,11,11,22,6,1
697,1,1,0,0,1,11,11,22,6,1
698,1,2,0,0,1,11,11,22,6,1
699,1,1,0,0,1,11,11,22,6,1
700,1,0,1,1,0,11,11,22,6,1
701,0,0,0,0,0,11,11,22,6,1
702,0,2,0,0,0,11,11,22,6,1
703,0,1,1,1,1,11,11,22,6,1
704,1,1,0,0,1,11,11,22,6,1
705,1,1,0,0,1,11,11,22,6,1
706,1,1,0,0,1,11,11,22,6,1
707,1,1,0,0,1,11,11,22,6,1
708,1,0,1,1,0,11,11,22,6,1
709,0,1,1,1,1,11,11,22,6,1
710,1,1,0,0,1,11,11,22,6,1
711,1,0,1,1,0,11,11,22,6,1
712,0,2,0,0,0,11,11,22,6,1
713,0,1,1,1,1,11,11,22,6,1
714,1,1,0,0,1,11,11,22,6,1
715,1,2,0,0,1,11,11,22,6,1
716,1,2,0,0,1,11,11,22,6,1
717,1,2,0,0,1,11,11,22,6,1
718,1,2,0,0,1,11,11,22,6,1
719,1,0,1,1,0,11,11,22,6,1
720,0,2,0,0,0,11,11,22,6,1
721,0,0,0,0,0,11,11,22,6,1
722,0,2,0,0,0,11,11,22,6,1
723,0,2,0,0,0,11,11,22,6,1
724,0,2,0,0,0,11,11,22,6,1
725,0,0,0,0,0,11,11,22,6,1
726,0,0,0,0,0,11,11,22,6,1
727,0,2,0,0,0,11,11,22,6,1
728,0,1,1,1,1,11,11,22,6,1
729,1,1,0,0,1,11,11,22,6,1
730,1,2,0,0,1,11,11,22,6,1
731,1,0,1,1,0,11,11,22,6,1
732,0,1,1,1,1,11,11,22,6,1
733,1,1,0,0,1,11,11,22,6,1
734,1,0,1,1,0,11,11,22,6,1
735,0,1,1,1,1,11,11,22,6,1
736,1,2,0,0,1,11,11,22,6,1
737,1,2,0,0,1,11,11,22,6,1
738,1,0,1,1,0,11,11,22,6,1
739,0,1,1,1,1,11,11,22,6,1
740,1,0,1,1,0,11,11,22,6,1
741,0,2,0,0,0,11,11,22,6,1
742,0,0,0,0,0,11,11,22,6,1
743,0,0,0,0,0,11,11,22,6,1
744,0,1,1,1,1,11,11,22,6,1
745,1,2,0,0,1,11,11,22,6,1
746,1,0,1,1,0,11,11,22,6,1
747,0,0,0,0,0,11,11,22,6,1
748,0,2,0,0,0,11,11,22,6,1
749,0,2,0,0,0,11,11,22,6,1
750,0,2,0,0,0,11,11,22,6,1
751,0,0,0,0,0,11,11,22,6,1
752,0,1,1,1,1,11,11,22,6,1
753,1,0,1,1,0,11,11,22,6,1
754,0,1,1,1,1,11,11,22,6,1
755,1,0,1,1,0,11,11,22,6,1
756,0,1,1,1,1,11,11,22,6,1
757,1,2,0,0,1,11,11,22,6,1
758,1,2,0,0,1,11,11,22,6,1
759,1,1,0,0,1,11,11,22,6,1
760,1,0,1,1,0,11,11,22,6,1
761,0,1,1,1,1,11,11,22,6,1
762,1,1,0,0,1,11,11,22,6,1
763,1,2,0,0,1,11,11,22,6,1
764,1,2,0,0,1,11,11,22,6,1
765,1,2,0,0,1,11,11,22,6,1
766,1,2,0,0,1,11,11,22,6,1
767,1,1,0,0,1,11,11,22,6,1
768,1,2,0,0,1,11,11,22,6,1
769,1,2,0,0,1,11,11,22,6,1
770,1,0,1,1,0,11,11,22,6,1
771,0,0,0,0,0,11,11,22,6,1
772,0,1,1,1,1,11,11,22,6,1
773,1,1,0,0,1,11,11,22,6,1
774,1,0,1,1,0,11,11,22,6,1
775,0,1,1,1,1,11,11,22,6,1
776,1,1,0,0,1,11,11,22,6,1
777,1,0,1,1,0,11,11,22,6,1
778,0,2,0,0,0,11,11,22,6,1
779,0,1,1,1,1,11,11,22,6,1
780,1,0,1,1,0,11,11,22,6,1
781,0,0,0,0,0,11,11,22,6,1
782,0,1,1,1,1,11,11,22,6,1
783,1,0,1,1,0,11,11,22,6,1
784,0,2,0,0,0,11,11,22,6,1
785,0,1,1,1,1,11,11,22,6,1
786,1,1,0,0,1,11,11,22,6,1
787,1,0,1,1,0,11,11,22,6,1
788,0,2,0,0,0,11,11,22,6,1
789,0,0,0,0,0,11,11,22,6,1
790,0,0,0,0,0,11,11,22,6,1
791,0,0,0,0,0,11,11,22,6,1
792,0,2,0,0,0,11,11,22,6,1
793,0,1,1,1,1,11,11,22,6,1
794,1,2,0,0,1,11,11,22,6,1
795,1,2,0,0,1,11,11,22,6,1
796,1,2,0,0,1,11,11,22,6,1
797,1,2,0,0,1,11,11,22,6,1
798,1,2,0,0,1,11,11,22,6,1
799,1,2,0,0,1,11,11,22,6,1
800,1,2,0,0,1,11,11,22,6,1
801,1,0,1,1,0,11,11,22,6,1
802,0,1,1,1,1,11,11,22,6,1
803,1,1,0,0,1,11,11,22,6,1
804,1,2,0,0,1,11,11,22,6,1
805,1,2,0,0,1,11,11,22,6,1
806,1,2,0,0,1,11,11,22,6,1
807,1,2,0,0,1,11,11,22,6,1
808,1,1,0,0,1,11,11,22,6,1
809,1,2,0,0,1,11,11,22,6,1
810,1,1,0,0,1,11,11,22,6,1
811,1,1,0,0,1,11,11,22,6,1
812,1,1,0,0,1,11,11,22,6,1
813,1,2,0,0,1,11,11,22,6,1
814,1,1,0,0,1,11,11,22,6,1
815,1,0,1,1,0,11,11,22,6,1
816,0,0,0,0,0,11,11,22,6,1
817,0,2,0,0,0,11,11,22,6,1
818,0,1,1,1,1,11,11,22,6,1
819,1,2,0,0,1,11,11,22,6,1
820,1,0,1,1,0,11,11,22,6,1
821,0,1,1,1,1,11,11,22,6,1
822,1,2,0,0,1,11,11,22,6,1
823,1,0,1,1,0,11,11,22,6,1
824,0,0,0,0,0,11,11,22,6,1
825,0,1,1,1,1,11,11,22,6,1
826,1,0,1,1,0,11,11,22,6,1
827,0,0,0,0,0,11,11,22,6,1
828,0,0,0,0,0,11,11,22,6,1
829,0,1,1,1,1,11,11,22,6,1
830,1,1,0,0,1,11,11,22,6,1
831,1,0,1,1,0,11,11,22,6,1
832,0,0,0,0,0,11,11,22,6,1
833,0,2,0,0,0,11,11,22,6,1
834,0,1,1,1,1,11,11,22,6,1
835,1,0,1,1,0,11,11,22,6,1
836,0,2,0,0,0,11,11,22,6,1
837,0,0,0,0,0,11,11,22,6,1
838,0,1,1,1,1,11,11,22,6,1
839,1,2,0,0,1,11,11,22,6,1
840,1,2,0,0,1,11,11,22,6,1
841,1,0,1,1,0,11,11,22,6,1
842,0,2,0,0,0,11,11,22,6,1
843,0,1,1,1,1,11,11,22,6,1
844,1,2,0,0,1,11,11,22,6,1
845,1,2,0,0,1,11,11,22,6,1
846,1,1,0,0,1,11,11,22,6,1
847,1,2,0,0,1,11,11,22,6,1
848,1,1,0,0,1,11,11,22,6,1
849,1,2,0,0,1,11,11,22,6,1
850,1,2,0,0,1,11,11,22,6,1
851,1,2,0,0,1,11,11,22,6,1
852,1,2,0,0,1,11,11,22,6,1
853,1,2,0,0,1,11,11,22,6,1
854,1,0,1,1,0,11,11,22,6,1
855,0,0,0,0,0,11,11,22,6,1
856,0,2,0,0,0,11,11,22,6,1
857,0,2,0,0,0,11,11,22,6,1
858,0,1,1,1,1,11,11,22,6,1
859,1,1,0,0,1,11,11,22,6,1
860,1,1,0,0,1,11,11,22,6,1
861,1,2,0,0,1,11,11,22,6,1
862,1,2,0,0,1,11,11,22,6,1
863,1,1,0,0,1,11,11,22,6,1
864,1,0,1,1,0,11,11,22,6,1
865,0,2,0,0,0,11,11,22,6,1
866,0,1,1,1,1,11,11,22,6,1
867,1,0,1,1,0,11,11,22,6,1
868,0,0,0,0,0,11,11,22,6,1
869,0,2,0,0,0,11,11,22,6,1
870,0,0,0,0,0,11,11,22,6,1
871,0,0,0,0,0,11,11,22,6,1
872,0,0,0,0,0,11,11,22,6,1
873,0,2,0,0,0,11,11,22,6,1
874,0,2,0,0,0,11,11,22,6,1
875,0,2,0,0,0,11,11,22,6,1
876,0,1,1,1,1,11,11,22,6,1
877,1,1,0,0,1,11,11,22,6,1
878,1,1,0,0,1,11,11,22,6,1
879,1,1,0,0,1,11,11,22,6,1
880,1,1,0,0,1,11,11,22,6,1
881,1,2,0,0,1,11,11,22,6,1
882,1,2,0,0,1,11,11,22,6,1
883,1,1,0,0,1,11,11,22,6,1
884,1,1,0,0,1,11,11,22,6,1
885,1,0,1,1,0,11,11,22,6,1
886,0,0,0,0,0,11,11,22,6,1
887,0,1,1,1,1,11,11,22,6,1
888,1,1,0,0,1,11,11,22,6,1
889,1,1,0,0,1,11,11,22,6,1
890,1,2,0,0,1,11,11,22,6,1
891,1,0,1,1,0,11,11,22,6,1
892,0,1,1,1,1,11,11,22,6,1
893,1,2,0,0,1,11,11,22,6,1
894,1,2,0,0,1,11,11,22,6,1
895,1,1,0,0,1,11,11,22,6,1
896,1,1,0,0,1,11,11,22,6,1
897,1,1,0,0,1,11,11,22,6,1
898,1,2,0,0,1,11,11,22,6,1
899,1,2,0,0,1,11,11,22,6,1
900,1,2,0,0,1,11,11,22,6,1
901,1,2,0,0,1,11,11,22,6,1
902,1,2,0,0,1,11,11,22,6,1
903,1,2,0,0,1,11,11,22,6,1
904,1,1,0,0,1,11,11,22,6,1
905,1,1,0,0,1,11,11,22,6,1
906,1,2,0,0,1,11,11,22,6,1
907,1,1,0,0,1,11,11,22,6,1
908,1,2,0,0,1,11,11,22,6,1
909,1,1,0,0,1,11,11,22,6,1
910,1,1,0,0,1,11,11,22,6,1
911,1,1,0,0,1,11,11,22,6,1
912,1,0,1,1,0,11,11,22,6,1
913,0,1,1,1,1,11,11,22,6,1
914,1,1,0,0,1,11,11,22,6,1
915,1,0,1,1,0,11,11,22,6,1
916,0,0,0,0,0,11,11,22,6,1
917,0,0,0,0,0,11,11,22,6,1
918,0,2,0,0,0,11,11,22,6,1
919,0,1,1,1,1,11,11,22,6,1
920,1,0,1,1,0,11,11,22,6,1
921,0,2,0,0,0,11,11,22,6,1
922,0,0,0,0,0,11,11,22,6,1
923,0,1,1,1,1,11,11,22,6,1
924,1,2,0,0,1,11,11,22,6,1
925,1,2,0,0,1,11,11,22,6,1
926,1,1,0,0,1,11,11,22,6,1
927,1,2,0,0,1,11,11,22,6,1
928,1,1,0,0,1,11,11,22,6,1
929,1,2,0,0,1,11,11,22,6,1
930,1,1,0,0,1,11,11,22,6,1
931,1,2,0,0,1,11,11,22,6,1
932,1,2,0,0,1,11,11,22,6,1
933,1,0,1,1,0,11,11,22,6,1
934,0,0,0,0,0,11,11,22,6,1
935,0,2,0,0,0,11,11,22,6,1
936,0,0,0,0,0,11,11,22,6,1
937,0,0,0,0,0,11,11,22,6,1
938,0,0,0,0,0,11,11,22,6,1
939,0,1,1,1,1,11,11,22,6,1
940,1,2,0,0,1,11,11,22,6,1
941,1,1,0,0,1,11,11,22,6,1
942,1,2,0,0,1,11,11,22,6,1
943,1,2,0,0,1,11,11,22,6,1
944,1,0,1,1,0,11,11,22,6,1
945,0,1,1,1,1,11,11,22,6,1
946,1,2,0,0,1,11,11,22,6,1
947,1,1,0,0,1,11,11,22,6,1
948,1,1,0,0,1,11,11,22,6,1
949,1,1,0,0,1,11,11,22,6,1
950,1,2,0,0,1,11,11,22,6,1
951,1,2,0,0,1,11,11,22,6,1
952,1,0,1,1,0,11,11,22,6,1
953,0,1,1,1,1,11,11,22,6,1
954,1,1,0,0,1,11,11,22,6,1
955,1,2,0,0,1,11,11,22,6,1
956,1,0,1,1,0,11,11,22,6,1
957,0,0,0,0,0,11,11,22,6,1
958,0,0,0,0,0,11,11,22,6,1
959,0,1,1,1,1,11,11,22,6,1
960,1,2,0,0,1,11,11,22,6,1
961,1,2,0,0,1,11,11,22,6,1
962,1,2,0,0,1,11,11,22,6,1
963,1,2,0,0,1,11,11,22,6,1
964,1,0,1,1,0,11,11,22,6,1
965,0,1,1,1,1,11,11,22,6,1
966,1,2,0,0,1,11,11,22,6,1
967,1,0,1,1,0,11,11,22,6,1
968,0,1,1,1,1,11,11,22,6,1
969,1,2,0,0,1,11,11,22,6,1
970,1,0,1,1,0,11,11,22,6,1
971,0,2,0,0,0,11,11,22,6,1
972,0,0,0,0,0,11,11,22,6,1
973,0,1,1,1,1,11,11,22,6,1
974,1,2,0,0,1,11,11,22,6,1
975,1,0,1,1,0,11,11,22,6,1
976,0,1,1,1,1,11,11,22,6,1
977,1,1,0,0,1,11,11,22,6,1
978,1,2,0,0,1,11,11,22,6,1
979,1,2,0,0,1,11,11,22,6,1
980,1,0,1,1,0,11,11,22,6,1
981,0,1,1,1,1,11,11,22,6,1
982,1,2,0,0,1,11,11,22,6,1
983,1,1,0,0,1,11,11,22,6,1
984,1,0,1,1,0,11,11,22,6,1
985,0,2,0,0,0,11,11,22,6,1
986,0,1,1,1,1,11,11,22,6,1
987,1,1,0,0,1,11,11,22,6,1
988,1,0,1,1,0,11,11,22,6,1
989,0,2,0,0,0,11,11,22,6,1
990,0,1,1,1,1,11,11,22,6,1
991,1,2,0,0,1,11,11,22,6,1
992,1,2,0,0,1,11,11,22,6,1
993,1,0,1,1,0,11,11,22,6,1
994,0,1,1,1,1,11,11,22,6,1
995,1,1,0,0,1,11,11,22,6,1
996,1,2,0,0,1,11,11,22,6,1
997,1,2,0,0,1,11,11,22,6,1
998,1,0,1,1,0,11,11,22,6,1
999,0,0,0,0,0,11,11,22,6,1
1000,0,2,0,0,0,11,11,22,6,1
1001,0,1,1,1,1,11,11,22,6,1
1002,1,0,1,1,0,11,11,22,6,1
1003,0,0,0,0,0,11,11,22,6,1
1004,0,1,1,1,1,11,11,22,6,1
1005,1,1,0,0,1,11,11,22,6,1
1006,1,2,0,0,1,11,11,22,6,1
1007,1,1,0,0,1,11,11,22,6,1
1008,1,1,0,0,1,11,11,22,6,1
1009,1,0,1,1,0,11,11,22,6,1
1010,0,1,1,1,1,11,11,22,6,1
1011,1,0,1,1,0,11,11,22,6,1
1012,0,2,0,0,0,11,11,22,6,1
1013,0,0,0,0,0,11,11,22,6,1
1014,0,0,0,0,0,11,11,22,6,1
1015,0,1,1,1,1,11,11,22,6,1
1016,1,1,0,0,1,11,11,22,6,1
1017,1,1,0,0,1,11,11,22,6,1
1018,1,1,0,0,1,11,11,22,6,1
1019,1,0,1,1,0,11,11,22,6,1
1020,0,2,0,0,0,11,11,22,6,1
1021,0,2,0,0,0,11,11,22,6,1
1022,0,1,1,1,1,11,11,22,6,1
1023,1,0,1,1,0,11,11,22,6,1
1024,0,0,0,0,0,11,11,22,6,1
1025,0,2,0,0,0,11,11,22,6,1
1026,0,1,1,1,1,11,11,22,6,1
1027,1,2,0,0,1,11,11,22,6,1
1028,1,2,0,0,1,11,11,22,6,1
1029,1,0,1,1,0,11,11,22,6,1
1030,0,1,1,1,1,11,11,22,6,1
1031,1,0,1,1,0,11,11,22,6,1
1032,0,0,0,0,0,11,11,22,6,1
1033,0,0,0,0,0,11,11,22,6,1
1034,0,0,0,0,0,11,11,22,6,1
1035,0,0,0,0,0,11,11,22,6,1
1036,0,1,1,1,1,11,11,22,6,1
1037,1,2,0,0,1,11,11,22,6,1
1038,1,1,0,0,1,11,11,22,6,1
1039,1,2,0,0,1,11,11,22,6,1
1040,1,0,1,1,0,11,11,22,6,1
1041,0,0,0,0,0,11,11,22,6,1
1042,0,1,1,1,1,11,11,22,6,1
1043,1,2,0,0,1,11,11,22,6,1
1044,1,1,0,0,1,11,11,22,6,1
1045,1,0,1,1,0,11,11,22,6,1
1046,0,0,0,0,0,11,11,22,6,1
1047,0,0,0,0,0,11,11,22,6,1
1048,0,1,1,1,1,11,11,22,6,1
1049,1,0,1,1,0,11,11,22,6,1
1050,0,0,0,0,0,11,11,22,6,1
1051,0,2,0,0,0,11,11,22,6,1
1052,0,2,0,0,0,11,11,22,6,1
1053,0,1,1,1,1,11,11,22,6,1
1054,1,1,0,0,1,11,11,22,6,1
1055,1,1,0,0,1,11,11,22,6,1
1056,1,0,1,1,0,11,11,22,6,1
1057,0,0,0,0,0,11,11,22,6,1
1058,0,0,0,0,0,11,11,22,6,1
1059,0,0,0,0,0,11,11,22,6,1
1060,0,2,0,0,0,11,11,22,6,1
1061,0,2,0,0,0,11,11,22,6,1
1062,0,0,0,0,0,11,11,22,6,1
1063,0,0,0,0,0,11,11,22,6,1
1064,0,2,0,0,0,11,11,22,6,1
1065,0,0,0,0,0,11,11,22,6,1
1066,0,0,0,0,0,11,11,22,6,1
1067,0,0,0,0,0,11,11,22,6,1
1068,0,0,0,0,0,11,11,22,6,1
1069,0,0,0,0,0,11,11,22,6,1
1070,0,0,0,0,0,11,11,22,6,1
1071,0,1,1,1,1,11,11,22,6,1
1072,1,2,0,0,1,11,11,22,6,1
1073,1,1,0,0,1,11,11,22,6,1
1074,1,0,1,1,0,11,11,22,6,1
1075,0,2,0,0,0,11,11,22,6,1
1076,0,0,0,0,0,11,11,22,6,1
1077,0,1,1,1,1,11,11,22,6,1
1078,1,0,1,1,0,11,11,22,6,1
1079,0,2,0,0,0,11,11,22,6,1
1080,0,1,1,1,1,11,11,22,6,1
1081,1,2,0,0,1,11,11,22,6,1
1082,1,1,0,0,1,11,11,22,6,1
1083,1,2,0,0,1,11,11,22,6,1
1084,1,1,0,0,1,11,11,22,6,1
1085,1,2,0,0,1,11,11,22,6,1
1086,1,1,0,0,1,11,11,22,6,1
1087,1,2,0,0,1,11,11,22,6,1
1088,1,1,0,0,1,11,11,22,6,1
1089,1,1,0,0,1,11,11,22,6,1
1090,1,1,0,0,1,11,11,22,6,1
1091,1,1,0,0,1,11,11,22,6,1
1092,1,1,0,0,1,11,11,22,6,1
1093,1,2,0,0,1,11,11,22,6,1
1094,1,1,0,0,1,11,11,22,6,1
1095,1,1,0,0,1,11,11,22,6,1
1096,1,0,1,1,0,11,11,22,6,1
1097,0,1,1,1,1,11,11,22,6,1
1098,1,0,1,1,0,11,11,22,6,1
1099,0,0,0,0,0,11,11,22,6,1
1100,0,1,1,1,1,11,11,22,6,1
1101,1,1,0,0,1,11,11,22,6,1
1102,1,0,1,1,0,11,11,22,6,1
1103,0,0,0,0,0,11,11,22,6,1
1104,0,1,1,1,1,11,11,22,6,1
1105,1,1,0,0,1,11,11,22,6,1
1106,1,1,0,0,1,11,11,22,6,1
1107,1,0,1,1,0,11,11,22,6,1
1108,0,1,1,1,1,11,11,22,6,1
1109,1,1,0,0,1,11,11,22,6,1
1110,1,1,0,0,1,11,11,22,6,1
1111,1,1,0,0,1,11,11,22,6,1
1112,1,2,0,0,1,11,11,22,6,1
1113,1,2,0,0,1,11,11,22,6,1
1114,1,2,0,0,1,11,11,22,6,1
1115,1,0,1,1,0,11,11,22,6,1
1116,0,0,0,0,0,11,11,22,6,1
1117,0,2,0,0,0,11,11,22,6,1
1118,0,0,0,0,0,11,11,22,6,1
1119,0,2,0,0,0,11,11,22,6,1
1120,0,0,0,0,0,11,11,22,6,1
1121,0,2,0,0,0,11,11,22,6,1
1122,0,0,0,0,0,11,11,22,6,1
1123,0,2,0,0,0,11,11,22,6,1
1124,0,2,0,0,0,11,11,22,6,1
1125,0,1,1,1,1,11,11,22,6,1
1126,1,2,0,0,1,11,11,22,6,1
1127,1,0,1,1,0,11,11,22,6,1
1128,0,2,0,0,0,11,11,22,6,1
1129,0,1,1,1,1,11,11,22,6,1
1130,1,1,0,0,1,11,11,22,6,1
1131,1,0,1,1,0,11,11,22,6,1
1132,0,1,1,1,1,11,11,22,6,1
1133,1,0,1,1,0,11,11,22,6,1
1134,0,2,0,0,0,11,11,22,6,1
1135,0,2,0,0,0,11,11,22,6,1
1136,0,1,1,1,1,11,11,22,6,1
1137,1,0,1,1,0,11,11,22,6,1
1138,0,2,0,0,0,11,11,22,6,1
1139,0,2,0,0,0,11,11,22,6,1
1140,0,1,1,1,1,11,11,22,6,1
1141,1,1,0,0,1,11,11,22,6,1
1142,1,1,0,0,1,11,11,22,6,1
1143,1,2,0,0,1,11,11,22,6,1
1144,1,1,0,0,1,11,11,22,6,1
1145,1,2,0,0,1,11,11,22,6,1
1146,1,1,0,0,1,11,11,22,6,1
1147,1,1,0,0,1,11,11,22,6,1
1148,1,2,0,0,1,11,11,22,6,1
1149,1,1,0,0,1,11,11,22,6,1
1150,1,1,0,0,1,11,11,22,6,1
1151,1,0,1,1,0,11,11,22,6,1
1152,0,1,1,1,1,11,11,22,6,1
1153,1,0,1,1,0,11,11,22,6,1
1154,0,2,0,0,0,11,11,22,6,1
1155,0,0,0,0,0,11,11,22,6,1
1156,0,0,0,0,0,11,11,22,6,1
1157,0,0,0,0,0,11,11,22,6,1
1158,0,0,0,0,0,11,11,22,6,1
1159,0,1,1,1,1,11,11,22,6,1
1160,1,1,0,0,1,11,11,22,6,1
1161,1,0,1,1,0,11,11,22,6,1
1162,0,2,0,0,0,11,11,22,6,1
1163,0,2,0,0,0,11,11,22,6,1
1164,0,1,1,1,1,11,11,22,6,1
1165,1,2,0,0,1,11,11,22,6,1
1166,1,2,0,0,1,11,11,22,6,1
1167,1,0,1,1,0,11,11,22,6,1
1168,0,2,0,0,0,11,11,22,6,1
1169,0,0,0,0,0,11,11,22,6,1
1170,0,1,1,1,1,11,11,22,6,1
1171,1,1,0,0,1,11,11,22,6,1
1172,1,0,1,1,0,11,11,22,6,1
1173,0,2,0,0,0,11,11,22,6,1
1174,0,2,0,0,0,11,11,22,6,1
1175,0,0,0,0,0,11,11,22,6,1
1176,0,2,0,0,0,11,11,22,6,1
1177,0,1,1,1,1,11,11,22,6,1
1178,1,1,0,0,1,11,11,22,6,1
1179,1,2,0,0,1,11,11,22,6,1
1180,1,2,0,0,1,11,11,22,6,1
1181,1,0,1,1,0,11,11,22,6,1
1182,0,1,1,1,1,11,11,22,6,1
1183,1,1,0,0,1,11,11,22,6,1
1184,1,0,1,1,0,11,11,22,6,1
1185,0,2,0,0,0,11,11,22,6,1
1186,0,1,1,1,1,11,11,22,6,1
1187,1,2,0,0,1,11,11,22,6,1
1188,1,1,0,0,1,11,11,22,6,1
1189,1,1,0,0,1,11,11,22,6,1
1190,1,0,1,1,0,11,11,22,6,1
1191,0,2,0,0,0,11,11,22,6,1
1192,0,2,0,0,0,11,11,22,6,1
1193,0,0,0,0,0,11,11,22,6,1
1194,0,1,1,1,1,11,11,22,6,1
1195,1,1,0,0,1,11,11,22,6,1
1196,1,1,0,0,1,11,11,22,6,1
1197,1,2,0,0,1,11,11,22,6,1
1198,1,2,0,0,1,11,11,22,6,1
1199,1,0,1,1,0,11,11,22,6,1
1200,0,2,0,0,0,11,11,22,6,1
1201,0,1,1,1,1,11,11,22,6,1
1202,1,2,0,0,1,11,11,22,6,1
1203,1,0,1,1,0,11,11,22,6,1
1204,0,2,0,0,0,11,11,22,6,1
1205,0,0,0,0,0,11,11,22,6,1
1206,0,1,1,1,1,11,11,22,6,1
1207,1,2,0,0,1,11,11,22,6,1
1208,1,1,0,0,1,11,11,22,6,1
1209,1,2,0,0,1,11,11,22,6,1
1210,1,1,0,0,1,11,11,22,6,1
1211,1,1,0,0,1,11,11,22,6,1
1212,1,1,0,0,1,11,11,22,6,1
1213,1,2,0,0,1,11,11,22,6,1
1214,1,2,0,0,1,11,11,22,6,1
1215,1,0,1,1,0,11,11,22,6,1
1216,0,1,1,1,1,11,11,22,6,1
1217,1,1,0,0,1,11,11,22,6,1
1218,1,1,0,0,1,11,11,22,6,1
1219,1,2,0,0,1,11,11,22,6,1
1220,1,2,0,0,1,11,11,22,6,1
1221,1,0,1,1,0,11,11,22,6,1
1222,0,1,1,1,1,11,11,22,6,1
1223,1,0,1,1,0,11,11,22,6,1
1224,0,0,0,0,0,11,11,22,6,1
1225,0,0,0,0,0,11,11,22,6,1
1226,0,0,0,0,0,11,11,22,6,1
1227,0,2,0,0,0,11,11,22,6,1
1228,0,2,0,0,0,11,11,22,6,1
1229,0,2,0,0,0,11,11,22,6,1
1230,0,0,0,0,0,11,11,22,6,1
1231,0,0,0,0,0,11,11,22,6,1
1232,0,2,0,0,0,11,11,22,6,1
1233,0,2,0,0,0,11,11,22,6,1
1234,0,2,0,0,0,11,11,22,6,1
1235,0,0,0,0,0,11,11,22,6,1
1236,0,1,1,1,1,11,11,22,6,1
1237,1,1,0,0,1,11,11,22,6,1
1238,1,2,0,0,1,11,11,22,6,1
1239,1,2,0,0,1,11,11,22,6,1
1240,1,1,0,0,1,11,11,22,6,1
1241,1,1,0,0,1,11,11,22,6,1
1242,1,0,1,1,0,11,11,22,6,1
1243,0,2,0,0,0,11,11,22,6,1
1244,0,2,0,0,0,11,11,22,6,1
1245,0,2,0,0,0,11,11,22,6,1
1246,0,1,1,1,1,11,11,22,6,1
1247,1,1,0,0,1,11,11,22,6,1
1248,1,0,1,1,0,11,11,22,6,1
1249,0,2,0,0,0,11,11,22,6,1
1250,0,2,0,0,0,11,11,22,6,1
1251,0,2,0,0,0,11,11,22,6,1
1252,0,0,0,0,0,11,11,22,6,1
1253,0,1,1,1,1,11,11,22,6,1
1254,1,1,0,0,1,11,11,22,6,1
1255,1,1,0,0,1,11,11,22,6,1
1256,1,2,0,0,1,11,11,22,6,1
1257,1,2,0,0,1,11,11,22,6,1
1258,1,2,0,0,1,11,11,22,6,1
1259,1,2,0,0,1,11,11,22,6,1
1260,1,2,0,0,1,11,11,22,6,1
1261,1,1,0,0,1,11,11,22,6,1
1262,1,1,0,0,1,11,11,22,6,1
1263,1,0,1,1,0,11,11,22,6,1
1264,0,2,0,0,0,11,11,22,6,1
1265,0,0,0,0,0,11,11,22,6,1
1266,0,1,1,1,1,11,11,22,6,1
1267,1,1,0,0,1,11,11,22,6,1
1268,1,1,0,0,1,11,11,22,6,1
1269,1,1,0,0,1,11,11,22,6,1
1270,1,1,0,0,1,11,11,22,6,1
1271,1,2,0,0,1,11,11,22,6,1
1272,1,0,1,1,0,11,11,22,6,1
1273,0,0,0,0,0,11,11,22,6,1
1274,0,2,0,0,0,11,11,22,6,1
1275,0,0,0,0,0,11,11,22,6,1
1276,0,0,0,0,0,11,11,22,6,1
1277,0,1,1,1,1,11,11,22,6,1
1278,1,1,0,0,1,11,11,22,6,1
1279,1,2,0,0,1,11,11,22,6,1
1280,1,2,0,0,1,11,11,22,6,1
1281,1,0,1,1,0,11,11,22,6,1
1282,0,1,1,1,1,11,11,22,6,1
1283,1,1,0,0,1,11,11,22,6,1
1284,1,1,0,0,1,11,11,22,6,1
1285,1,1,0,0,1,11,11,22,6,1
1286,1,0,1,1,0,11,11,22,6,1
1287,0,1,1,1,1,11,11,22,6,1
1288,1,1,0,0,1,11,11,22,6,1
1289,1,0,1,1,0,11,11,22,6,1
1290,0,2,0,0,0,11,11,22,6,1
1291,0,1,1,1,1,11,11,22,6,1
1292,1,0,1,1,0,11,11,22,6,1
1293,0,1,1,1,1,11,11,22,6,1
1294,1,2,0,0,1,11,11,22,6,1
1295,1,2,0,0,1,11,11,22,6,1
1296,1,1,0,0,1,11,11,22,6,1
1297,1,2,0,0,1,11,11,22,6,1
1298,1,1,0,0,1,11,11,22,6,1
1299,1,0,1,1,0,11,11,22,6,1
1300,0,0,0,0,0,11,11,22,6,1
1301,0,1,1,1,1,11,11,22,6,1
1302,1,0,1,1,0,11,11,22,6,1
1303,0,1,1,1,1,11,11,22,6,1
1304,1,0,1,1,0,11,11,22,6,1
1305,0,0,0,0,0,11,11,22,6,1
1306,0,0,0,0,0,11,11,22,6,1
1307,0,0,0,0,0,11,11,22,6,1
1308,0,2,0,0,0,11,11,22,6,1
1309,0,1,1,1,1,11,11,22,6,1
1310,1,0,1,1,0,11,11,22,6,1
1311,0,1,1,1,1,11,11,22,6,1
1312,1,2,0,0,1,11,11,22,6,1
1313,1,1,0,0,1,11,11,22,6,1
1314,1,1,0,0,1,11,11,22,6,1
1315,1,1,0,0,1,11,11,22,6,1
1316,1,0,1,1,0,11,11,22,6,1
1317,0,1,1,1,1,11,11,22,6,1
1318,1,0,1,1,0,11,11,22,6,1
1319,0,2,0,0,0,11,11,22,6,1
1320,0,0,0,0,0,11,11,22,6,1
1321,0,2,0,0,0,11,11,22,6,1
1322,0,1,1,1,1,11,11,22,6,1
1323,1,2,0,0,1,11,11,22,6,1
1324,1,1,0,0,1,11,11,22,6,1
1325,1,0,1,1,0,11,11,22,6,1
1326,0,1,1,1,1,11,11,22,6,1
1327,1,0,1,1,0,11,11,22,6,1
1328,0,0,0,0,0,11,11,22,6,1
1329,0,1,1,1,1,11,11,22,6,1
1330,1,0,1,1,0,11,11,22,6,1
1331,0,1,1,1,1,11,11,22,6,1
1332,1,2,0,0,1,11,11,22,6,1
1333,1,1,0,0,1,11,11,22,6,1
1334,1,2,0,0,1,11,11,22,6,1
1335,1,0,1,1,0,11,11,22,6,1
1336,0,2,0,0,0,11,11,22,6,1
1337,0,1,1,1,1,11,11,22,6,1
1338,1,1,0,0,1,11,11,22,6,1
1339,1,0,1,1,0,11,11,22,6,1
1340,0,2,0,0,0,11,11,22,6,1
1341,0,0,0,0,0,11,11,22,6,1
1342,0,1,1,1,1,11,11,22,6,1
1343,1,0,1,1,0,11,11,22,6,1
1344,0,2,0,0,0,11,11,22,6,1
1345,0,1,1,1,1,11,11,22,6,1
1346,1,1,0,0,1,11,11,22,6,1
1347,1,2,0,0,1,11,11,22,6,1
1348,1,0,1,1,0,11,11,22,6,1
1349,0,0,0,0,0,11,11,22,6,1
1350,0,2,0,0,0,11,11,22,6,1
1351,0,0,0,0,0,11,11,22,6,1
1352,0,2,0,0,0,11,11,22,6,1
1353,0,2,0,0,0,11,11,22,6,1
1354,0,1,1,1,1,11,11,22,6,1
1355,1,0,1,1,0,11,11,22,6,1
1356,0,2,0,0,0,11,11,22,6,1
1357,0,1,1,1,1,11,11,22,6,1
1358,1,0,1,1,0,11,11,22,6,1
1359,0,0,0,0,0,11,11,22,6,1
1360,0,1,1,1,1,11,11,22,6,1
1361,1,0,1,1,0,11,11,22,6,1
1362,0,2,0,0,0,11,11,22,6,1
1363,0,2,0,0,0,11,11,22,6,1
1364,0,2,0,0,0,11,11,22,6,1
1365,0,1,1,1,1,11,11,22,6,1
1366,1,2,0,0,1,11,11,22,6,1
1367,1,0,1,1,0,11,11,22,6,1
1368,0,2,0,0,0,11,11,22,6,1
1369,0,0,0,0,0,11,11,22,6,1
1370,0,0,0,0,0,11,11,22,6,1
1371,0,0,0,0,0,11,11,22,6,1
1372,0,0,0,0,0,11,11,22,6,1
1373,0,2,0,0,0,11,11,22,6,1
1374,0,1,1,1,1,11,11,22,6,1
1375,1,1,0,0,1,11,11,22,6,1
1376,1,1,0,0,1,11,11,22,6,1
1377,1,0,1,1,0,11,11,22,6,1
1378,0,1,1,1,1,11,11,22,6,1
1379,1,2,0,0,1,11,11,22,6,1
1380,1,2,0,0,1,11,11,22,6,1
1381,1,1,0,0,1,11,11,22,6,1
1382,1,2,0,0,1,11,11,22,6,1
1383,1,2,0,0,1,11,11,22,6,1
1384,1,2,0,0,1,11,11,22,6,1
1385,1,1,0,0,1,11,11,22,6,1
1386,1,0,1,1,0,11,11,22,6,1
1387,0,0,0,0,0,11,11,22,6,1
1388,0,2,0,0,0,11,11,22,6,1
1389,0,0,0,0,0,11,11,22,6,1
1390,0,1,1,1,1,11,11,22,6,1
1391,1,1,0,0,1,11,11,22,6,1
1392,1,0,1,1,0,11,11,22,6,1
1393,0,0,0,0,0,11,11,22,6,1
1394,0,2,0,0,0,11,11,22,6,1
1395,0,1,1,1,1,11,11,22,6,1
1396,1,2,0,0,1,11,11,22,6,1
1397,1,2,0,0,1,11,11,22,6,1
1398,1,0,1,1,0,11,11,22,6,1
1399,0,2,0,0,0,11,11,22,6,1
1400,0,0,0,0,0,11,11,22,6,1
1401,0,1,1,1,1,11,11,22,6,1
1402,1,1,0,0,1,11,11,22,6,1
1403,1,2,0,0,1,11,11,22,6,1
1404,1,1,0,0,1,11,11,22,6,1
1405,1,0,1,1,0,11,11,22,6,1
1406,0,1,1,1,1,11,11,22,6,1
1407,1,1,0,0,1,11,11,22,6,1
1408,1,0,1,1,0,11,11,22,6,1
1409,0,1,1,1,1,11,11,22,6,1
1410,1,2,0,0,1,11,11,22,6,1
1411,1,2,0,0,1,11,11,22,6,1
1412,1,2,0,0,1,11,11,22,6,1
1413,1,0,1,1,0,11,11,22,6,1
1414,0,2,0,0,0,11,11,22,6,1
1415,0,1,1,1,1,11,11,22,6,1
1416,1,2,0,0,1,11,11,22,6,1
1417,1,0,1,1,0,11,11,22,6,1
1418,0,0,0,0,0,11,11,22,6,1
1419,0,2,0,0,0,11,11,22,6,1
1420,0,0,0,0,0,11,11,22,6,1
1421,0,0,0,0,0,11,11,22,6,1
1422,0,1,1,1,1,11,11,22,6,1
1423,1,2,0,0,1,11,11,22,6,1
1424,1,2,0,0,1,11,11,22,6,1
1425,1,1,0,0,1,11,11,22,6,1
1426,1,2,0,0,1,11,11,22,6,1
1427,1,2,0,0,1,11,11,22,6,1
1428,1,2,0,0,1,11,11,22,6,1
1429,1,1,0,0,1,11,11,22,6,1
1430,1,1,0,0,1,11,11,22,6,1
1431,1,2,0,0,1,11,11,22,6,1
1432,1,1,0,0,1,11,11,22,6,1
1433,1,2,0,0,1,11,11,22,6,1
1434,1,1,0,0,1,11,11,22,6,1
1435,1,2,0,0,1,11,11,22,6,1
1436,1,1,0,0,1,11,11,22,6,1
1437,1,1,0,0,1,11,11,22,6,1
1438,1,1,0,0,1,11,11,22,6,1
1439,1,0,1,1,0,11,11,22,6,1
1440,0,0,0,0,0,11,11,22,6,1
1441,0,1,1,1,1,11,11,22,6,1
1442,1,2,0,0,1,11,11,22,6,1
1443,1,0,1,1,0,11,11,22,6,1
1444,0,2,0,0,0,11,11,22,6,1
1445,0,2,0,0,0,11,11,22,6,1
1446,0,2,0,0,0,11,11,22,6,1
1447,0,1,1,1,1,11,11,22,6,1
1448,1,2,0,0,1,11,11,22,6,1
1449,1,2,0,0,1,11,11,22,6,1
1450,1,1,0,0,1,11,11,22,6,1
1451,1,0,1,1,0,11,11,22,6,1
1452,0,1,1,1,1,11,11,22,6,1
1453,1,0,1,1,0,11,11,22,6,1
1454,0,2,0,0,0,11,11,22,6,1
1455,0,1,1,1,1,11,11,22,6,1
1456,1,1,0,0,1,11,11,22,6,1
1457,1,1,0,0,1,11,11,22,6,1
1458,1,1,0,0,1,11,11,22,6,1
1459,1,1,0,0,1,11,11,22,6,1
1460,1,1,0,0,1,11,11,22,6,1
1461,1,1,0,0,1,11,11,22,6,1
1462,1,2,0,0,1,11,11,22,6,1
1463,1,1,0,0,1,11,11,22,6,1
1464,1,1,0,0,1,11,11,22,6,1
1465,1,2,0,0,1,11,11,22,6,1
1466,1,0,1,1,0,11,11,22,6,1
1467,0,0,0,0,0,11,11,22,6,1
1468,0,0,0,0,0,11,11,22,6,1
1469,0,0,0,0,0,11,11,22,6,1
1470,0,2,0,0,0,11,11,22,6,1
1471,0,0,0,0,0,11,11,22,6,1
1472,0,0,0,0,0,11,11,22,6,1
1473,0,0,0,0,0,11,11,22,6,1
1474,0,1,1,1,1,11,11,22,6,1
1475,1,2,0,0,1,11,11,22,6,1
1476,1,2,0,0,1,11,11,22,6,1
1477,1,2,0,0,1,11,11,22,6,1
1478,1,1,0,0,1,11,11,22,6,1
1479,1,0,1,1,0,11,11,22,6,1
1480,0,0,0,0,0,11,11,22,6,1
1481,0,1,1,1,1,11,11,22,6,1
1482,1,2,0,0,1,11,11,22,6,1
1483,1,0,1,1,0,11,11,22,6,1
1484,0,2,0,0,0,11,11,22,6,1
1485,0,1,1,1,1,11,11,22,6,1
1486,1,1,0,0,1,11,11,22,6,1
1487,1,1,0,0,1,11,11,22,6,1
1488,1,0,1,1,0,11,11,22,6,1
1489,0,0,0,0,0,11,11,22,6,1
1490,0,2,0,0,0,11,11,22,6,1
1491,0,0,0,0,0,11,11,22,6,1
1492,0,0,0,0,0,11,11,22,6,1
1493,0,0,0,0,0,11,11,22,6,1
1494,0,2,0,0,0,11,11,22,6,1
1495,0,0,0,0,0,11,11,22,6,1
1496,0,0,0,0,0,11,11,22,6,1
1497,0,0,0,0,0,11,11,22,6,1
1498,0,1,1,1,1,11,11,22,6,1
1499,1,2,0,0,1,11,11,22,6,1
1500,1,0,1,1,0,11,11,22,6,1
1501,0,2,0,0,0,11,11,22,6,1
1502,0,2,0,0,0,11,11,22,6,1
1503,0,2,0,0,0,11,11,22,6,1
1504,0,0,0,0,0,11,11,22,6,1
1505,0,0,0,0,0,11,11,22,6,1
1506,0,2,0,0,0,11,11,22,6,1
1507,0,2,0,0,0,11,11,22,6,1
1508,0,0,0,0,0,11,11,22,6,1
1509,0,1,1,1,1,11,11,22,6,1
1510,1,1,0,0,1,11,11,22,6,1
1511,1,2,0,0,1,11,11,22,6,1
1512,1,0,1,1,0,11,11,22,6,1
1513,0,0,0,0,0,11,11,22,6,1
1514,0,2,0,0,0,11,11,22,6,1
1515,0,2,0,0,0,11,11,22,6,1
1516,0,0,0,0,0,11,11,22,6,1
1517,0,1,1,1,1,11,11,22,6,1
1518,1,1,0,0,1,11,11,22,6,1
1519,1,2,0,0,1,11,11,22,6,1
1520,1,1,0,0,1,11,11,22,6,1
1521,1,2,0,0,1,11,11,22,6,1
1522,1,0,1,1,0,11,11,22,6,1
1523,0,0,0,0,0,11,11,22,6,1
1524,0,0,0,0,0,11,11,22,6,1
1525,0,1,1,1,1,11,11,22,6,1
1526,1,0,1,1,0,11,11,22,6,1
1527,0,0,0,0,0,11,11,22,6,1
1528,0,0,0,0,0,11,11,22,6,1
1529,0,0,0,0,0,11,11,22,6,1
1530,0,2,0,0,0,11,11,22,6,1
1531,0,1,1,1,1,11,11,22,6,1
1532,1,2,0,0,1,11,11,22,6,1
1533,1,2,0,0,1,11,11,22,6,1
1534,1,0,1,1,0,11,11,22,6,1
1535,0,2,0,0,0,11,11,22,6,1
1536,0,0,0,0,0,11,11,22,6,1
1537,0,2,0,0,0,11,11,22,6,1
1538,0,0,0,0,0,11,11,22,6,1
1539,0,0,0,0,0,11,11,22,6,1
1540,0,1,1,1,1,11,11,22,6,1
1541,1,0,1,1,0,11,11,22,6,1
1542,0,2,0,0,0,11,11,22,6,1
1543,0,0,0,0,0,11,11,22,6,1
1544,0,2,0,0,0,11,11,22,6,1
1545,0,0,0,0,0,11,11,22,6,1
1546,0,1,1,1,1,11,11,22,6,1
1547,1,0,1,1,0,11,11,22,6,1
1548,0,0,0,0,0,11,11,22,6,1
1549,0,1,1,1,1,11,11,22,6,1
1550,1,1,0,0,1,11,11,22,6,1
1551,1,1,0,0,1,11,11,22,6,1
1552,1,1,0,0,1,11,11,22,6,1
1553,1,0,1,1,0,11,11,22,6,1
1554,0,0,0,0,0,11,11,22,6,1
1555,0,2,0,0,0,11,11,22,6,1
1556,0,0,0,0,0,11,11,22,6,1
1557,0,2,0,0,0,11,11,22,6,1
1558,0,1,1,1,1,11,11,22,6,1
1559,1,1,0,0,1,11,11,22,6,1
1560,1,0,1,1,0,11,11,22,6,1
1561,0,0,0,0,0,11,11,22,6,1
1562,0,0,0,0,0,11,11,22,6,1
1563,0,1,1,1,1,11,11,22,6,1
1564,1,1,0,0,1,11,11,22,6,1
1565,1,2,0,0,1,11,11,22,6,1
1566,1,1,0,0,1,11,11,22,6,1
1567,1,2,0,0,1,11,11,22,6,1
1568,1,1,0,0,1,11,11,22,6,1
1569,1,0,1,1,0,11,11,22,6,1
1570,0,1,1,1,1,11,11,22,6,1
1571,1,2,0,0,1,11,11,22,6,1
1572,1,2,0,0,1,11,11,22,6,1
1573,1,2,0,0,1,11,11,22,6,1
1574,1,2,0,0,1,11,11,22,6,1
1575,1,1,0,0,1,11,11,22,6,1
1576,1,1,0,0,1,11,11,22,6,1
1577,1,1,0,0,1,11,11,22,6,1
1578,1,1,0,0,1,11,11,22,6,1
1579,1,2,0,0,1,11,11,22,6,1
1580,1,1,0,0,1,11,11,22,6,1
1581,1,2,0,0,1,11,11,22,6,1
1582,1,1,0,0,1,11,11,22,6,1
1583,1,1,0,0,1,11,11,22,6,1
1584,1,2,0,0,1,11,11,22,6,1
1585,1,2,0,0,1,11,11,22,6,1
1586,1,1,0,0,1,11,11,22,6,1
1587,1,1,0,0,1,11,11,22,6,1
1588,1,2,0,0,1,11,11,22,6,1
1589,1,1,0,0,1,11,11,22,6,1
1590,1,0,1,1,0,11,11,22,6,1
1591,0,0,0,0,0,11,11,22,6,1
1592,0,1,1,1,1,11,11,22,6,1
1593,1,0,1,1,0,11,11,22,6,1
1594,0,1,1,1,1,11,11,22,6,1
1595,1,2,0,0,1,11,11,22,6,1
1596,1,0,1,1,0,11,11,22,6,1
1597,0,1,1,1,1,11,11,22,6,1
1598,1,2,0,0,1,11,11,22,6,1
1599,1,2,0,0,1,11,11,22,6,1
1600,1,2,0,0,1,11,11,22,6,1
1601,1,1,0,0,1,11,11,22,6,1
1602,1,1,0,0,1,11,11,22,6,1
1603,1,1,0,0,1,11,11,22,6,1
1604,1,1,0,0,1,11,11,22,6,1
1605,1,1,0,0,1,11,11,22,6,1
1606,1,2,0,0,1,11,11,22,6,1
1607,1,0,1,1,0,11,11,22,6,1
1608,0,2,0,0,0,11,11,22,6,1
1609,0,2,0,0,0,11,11,22,6,1
1610,0,0,0,0,0,11,11,22,6,1
1611,0,0,0,0,0,11,11,22,6,1
1612,0,1,1,1,1,11,11,22,6,1
1613,1,1,0,0,1,11,11,22,6,1
1614,1,2,0,0,1,11,11,22,6,1
1615,1,2,0,0,1,11,11,22,6,1
1616,1,0,1,1,0,11,11,22,6,1
1617,0,0,0,0,0,11,11,22,6,1
1618,0,0,0,0,0,11,11,22,6,1
1619,0,2,0,0,0,11,11,22,6,1
1620,0,1,1,1,1,11,11,22,6,1
1621,1,0,1,1,0,11,11,22,6,1
1622,0,2,0,0,0,11,11,22,6,1
1623,0,2,0,0,0,11,11,22,6,1
1624,0,1,1,1,1,11,11,22,6,1
1625,1,0,1,1,0,11,11,22,6,1
1626,0,2,0,0,0,11,11,22,6,1
1627,0,2,0,0,0,11,11,22,6,1
1628,0,0,0,0,0,11,11,22,6,1
1629,0,2,0,0,0,11,11,22,6,1
1630,0,1,1,1,1,11,11,22,6,1
1631,1,1,0,0,1,11,11,22,6,1
1632,1,1,0,0,1,11,11,22,6,1
1633,1,0,1,1,0,11,11,22,6,1
1634,0,1,1,1,1,11,11,22,6,1
1635,1,1,0,0,1,11,11,22,6,1
1636,1,1,0,0,1,11,11,22,6,1
1637,1,2,0,0,1,11,11,22,6,1
1638,1,0,1,1,0,11,11,22,6,1
1639,0,0,0,0,0,11,11,22,6,1
1640,0,2,0,0,0,11,11,22,6,1
1641,0,1,1,1,1,11,11,22,6,1
1642,1,1,0,0,1,11,11,22,6,1
1643,1,1,0,0,1,11,11,22,6,1
1644,1,0,1,1,0,11,11,22,6,1
1645,0,1,1,1,1,11,11,22,6,1
1646,1,0,1,1,0,11,11,22,6,1
1647,0,0,0,0,0,11,11,22,6,1
1648,0,2,0,0,0,11,11,22,6,1
1649,0,2,0,0,0,11,11,22,6,1
1650,0,2,0,0,0,11,11,22,6,1
1651,0,0,0,0,0,11,11,22,6,1
1652,0,2,0,0,0,11,11,22,6,1
1653,0,0,0,0,0,11,11,22,6,1
1654,0,1,1,1,1,11,11,22,6,1
1655,1,2,0,0,1,11,11,22,6,1
1656,1,0,1,1,0,11,11,22,6,1
1657,0,1,1,1,1,11,11,22,6,1
1658,1,1,0,0,1,11,11,22,6,1
1659,1,2,0,0,1,11,11,22,6,1
1660,1,1,0,0,1,11,11,22,6,1
1661,1,0,1,1,0,11,11,22,6,1
1662,0,1,1,1,1,11,11,22,6,1
1663,1,1,0,0,1,11,11,22,6,1
1664,1,0,1,1,0,11,11,22,6,1
1665,0,1,1,1,1,11,11,22,6,1
1666,1,0,1,1,0,11,11,22,6,1
1667,0,0,0,0,0,11,11,22,6,1
1668,0,0,0,0,0,11,11,22,6,1
1669,0,0,0,0,0,11,11,22,6,1
1670,0,1,1,1,1,11,11,22,6,1
1671,1,1,0,0,1,11,11,22,6,1
1672,1,2,0,0,1,11,11,22,6,1
1673,1,2,0,0,1,11,11,22,6,1
1674,1,2,0,0,1,11,11,22,6,1
1675,1,2,0,0,1,11,11,22,6,1
1676,1,0,1,1,0,11,11,22,6,1
1677,0,1,1,1,1,11,11,22,6,1
1678,1,0,1,1,0,11,11,22,6,1
1679,0,0,0,0,0,11,11,22,6,1
1680,0,1,1,1,1,11,11,22,6,1
1681,1,1,0,0,1,11,11,22,6,1
1682,1,0,1,1,0,11,11,22,6,1
1683,0,2,0,0,0,11,11,22,6,1
1684,0,2,0,0,0,11,11,22,6,1
1685,0,0,0,0,0,11,11,22,6,1
1686,0,0,0,0,0,11,11,22,6,1
1687,0,0,0,0,0,11,11,22,6,1
1688,0,2,0,0,0,11,11,22,6,1
1689,0,2,0,0,0,11,11,22,6,1
1690,0,0,0,0,0,11,11,22,6,1
1691,0,0,0,0,0,11,11,22,6,1
1692,0,1,1,1,1,11,11,22,6,1
1693,1,0,1,1,0,11,11,22,6,1
1694,0,0,0,0,0,11,11,22,6,1
1695,0,0,0,0,0,11,11,22,6,1
1696,0,0,0,0,0,11,11,22,6,1
1697,0,0,0,0,0,11,11,22,6,1
1698,0,0,0,0,0,11,11,22,6,1
1699,0,1,1,1,1,11,11,22,6,1
1700,1,0,1,1,0,11,11,22,6,1
1701,0,0,0,0,0,11,11,22,6,1
1702,0,0,0,0,0,11,11,22,6,1
1703,0,2,0,0,0,11,11,22,6,1
1704,0,0,0,0,0,11,11,22,6,1
1705,0,1,1,1,1,11,11,22,6,1
1706,1,1,0,0,1,11,11,22,6,1
1707,1,0,1,1,0,11,11,22,6,1
1708,0,1,1,1,1,11,11,22,6,1
1709,1,0,1,1,0,11,11,22,6,1
1710,0,0,0,0,0,11,11,22,6,1
1711,0,1,1,1,1,11,11,22,6,1
1712,1,2,0,0,1,11,11,22,6,1
1713,1,0,1,1,0,11,11,22,6,1
1714,0,0,0,0,0,11,11,22,6,1
1715,0,2,0,0,0,11,11,22,6,1
1716,0,0,0,0,0,11,11,22,6,1
1717,0,2,0,0,0,11,11,22,6,1
1718,0,2,0,0,0,11,11,22,6,1
1719,0,0,0,0,0,11,11,22,6,1
1720,0,2,0,0,0,11,11,22,6,1
1721,0,0,0,0,0,11,11,22,6,1
1722,0,0,0,0,0,11,11,22,6,1
1723,0,0,0,0,0,11,11,22,6,1
1724,0,1,1,1,1,11,11,22,6,1
1725,1,1,0,0,1,11,11,22,6,1
1726,1,1,0,0,1,11,11,22,6,1
1727,1,2,0,0,1,11,11,22,6,1
1728,1,1,0,0,1,11,11,22,6,1
1729,1,0,1,1,0,11,11,22,6,1
1730,0,0,0,0,0,11,11,22,6,1
1731,0,2,0,0,0,11,11,22,6,1
1732,0,0,0,0,0,11,11,22,6,1
1733,0,2,0,0,0,11,11,22,6,1
1734,0,2,0,0,0,11,11,22,6,1
1735,0,0,0,0,0,11,11,22,6,1
1736,0,0,0,0,0,11,11,22,6,1
1737,0,0,0,0,0,11,11,22,6,1
1738,0,1,1,1,1,11,11,22,6,1
1739,1,0,1,1,0,11,11,22,6,1
1740,0,0,0,0,0,11,11,22,6,1
1741,0,0,0,0,0,11,11,22,6,1
1742,0,0,0,0,0,11,11,22,6,1
1743,0,1,1,1,1,11,11,22,6,1
1744,1,1,0,0,1,11,11,22,6,1
1745,1,2,0,0,1,11,11,22,6,1
1746,1,1,0,0,1,11,11,22,6,1
1747,1,1,0,0,1,11,11,22,6,1
1748,1,2,0,0,1,11,11,22,6,1
1749,1,1,0,0,1,11,11,22,6,1
1750,1,1,0,0,1,11,11,22,6,1
1751,1,0,1,1,0,11,11,22,6,1
1752,0,2,0,0,0,11,11,22,6,1
1753,0,2,0,0,0,11,11,22,6,1
1754,0,2,0,0,0,11,11,22,6,1
1755,0,1,1,1,1,11,11,22,6,1
1756,1,0,1,1,0,11,11,22,6,1
1757,0,0,0,0,0,11,11,22,6,1
1758,0,2,0,0,0,11,11,22,6,1
1759,0,2,0,0,0,11,11,22,6,1
1760,0,1,1,1,1,11,11,22,6,1
1761,1,2,0,0,1,11,11,22,6,1
1762,1,2,0,0,1,11,11,22,6,1
1763,1,2,0,0,1,11,11,22,6,1
1764,1,1,0,0,1,11,11,22,6,1
1765,1,1,0,0,1,11,11,22,6,1
1766,1,1,0,0,1,11,11,22,6,1
1767,1,1,0,0,1,11,11,22,6,1
1768,1,1,0,0,1,11,11,22,6,1
1769,1,0,1,1,0,11,11,22,6,1
1770,0,0,0,0,0,11,11,22,6,1
1771,0,0,0,0,0,11,11,22,6,1
1772,0,1,1,1,1,11,11,22,6,1
1773,1,2,0,0,1,11,11,22,6,1
1774,1,2,0,0,1,11,11,22,6,1
1775,1,0,1,1,0,11,11,22,6,1
1776,0,1,1,1,1,11,11,22,6,1
1777,1,1,0,0,1,11,11,22,6,1
1778,1,0,1,1,0,11,11,22,6,1
1779,0,0,0,0,0,11,11,22,6,1
1780,0,1,1,1,1,11,11,22,6,1
1781,1,0,1,1,0,11,11,22,6,1
1782,0,1,1,1,1,11,11,22,6,1
1783,1,0,1,1,0,11,11,22,6,1
1784,0,2,0,0,0,11,11,22,6,1
1785,0,0,0,0,0,11,11,22,6,1
1786,0,1,1,1,1,11,11,22,6,1
1787,1,1,0,0,1,11,11,22,6,1
1788,1,2,0,0,1,11,11,22,6,1
1789,1,2,0,0,1,11,11,22,6,1
1790,1,2,0,0,1,11,11,22,6,1
1791,1,2,0,0,1,11,11,22,6,1
1792,1,0,1,1,0,11,11,22,6,1
1793,0,0,0,0,0,11,11,22,6,1
1794,0,1,1,1,1,11,11,22,6,1
1795,1,2,0,0,1,11,11,22,6,1
1796,1,2,0,0,1,11,11,22,6,1
1797,1,0,1,1,0,11,11,22,6,1
1798,0,1,1,1,1,11,11,22,6,1
1799,1,2,0,0,1,11,11,22,6,1
1800,1,1,0,0,1,11,11,22,6,1
1801,1,2,0,0,1,11,11,22,6,1
1802,1,2,0,0,1,11,11,22,6,1
1803,1,2,0,0,1,11,11,22,6,1
1804,1,1,0,0,1,11,11,22,6,1
1805,1,1,0,0,1,11,11,22,6,1
1806,1,1,0,0,1,11,11,22,6,1
1807,1,0,1,1,0,11,11,22,6,1
1808,0,2,0,0,0,11,11,22,6,1
1809,0,0,0,0,0,11,11,22,6,1
1810,0,0,0,0,0,11,11,22,6,1
1811,0,1,1,1,1,11,11,22,6,1
1812,1,2,0,0,1,11,11,22,6,1
1813,1,0,1,1,0,11,11,22,6,1
1814,0,0,0,0,0,11,11,22,6,1
1815,0,2,0,0,0,11,11,22,6,1
1816,0,0,0,0,0,11,11,22,6,1
1817,0,1,1,1,1,11,11,22,6,1
1818,1,1,0,0,1,11,11,22,6,1
1819,1,0,1,1,0,11,11,22,6,1
1820,0,2,0,0,0,11,11,22,6,1
1821,0,2,0,0,0,11,11,22,6,1
1822,0,0,0,0,0,11,11,22,6,1
1823,0,0,0,0,0,11,11,22,6,1
1824,0,0,0,0,0,11,11,22,6,1
1825,0,1,1,1,1,11,11,22,6,1
1826,1,2,0,0,1,11,11,22,6,1
1827,1,0,1,1,0,11,11,22,6,1
1828,0,0,0,0,0,11,11,22,6,1
1829,0,0,0,0,0,11,11,22,6,1
1830,0,1,1,1,1,11,11,22,6,1
1831,1,2,0,0,1,11,11,22,6,1
1832,1,1,0,0,1,11,11,22,6,1
1833,1,2,0,0,1,11,11,22,6,1
1834,1,1,0,0,1,11,11,22,6,1
1835,1,1,0,0,1,11,11,22,6,1
1836,1,2,0,0,1,11,11,22,6,1
1837,1,1,0,0,1,11,11,22,6,1
1838,1,1,0,0,1,11,11,22,6,1
1839,1,1,0,0,1,11,11,22,6,1
1840,1,1,0,0,1,11,11,22,6,1
1841,1,1,0,0,1,11,11,22,6,1
1842,1,0,1,1,0,11,11,22,6,1
1843,0,0,0,0,0,11,11,22,6,1
1844,0,2,0,0,0,11,11,22,6,1
1845,0,0,0,0,0,11,11,22,6,1
1846,0,0,0,0,0,11,11,22,6,1
1847,0,0,0,0,0,11,11,22,6,1
1848,0,1,1,1,1,11,11,22,6,1
1849,1,0,1,1,0,11,11,22,6,1
1850,0,1,1,1,1,11,11,22,6,1
1851,1,1,0,0,1,11,11,22,6,1
1852,1,2,0,0,1,11,11,22,6,1
1853,1,2,0,0,1,11,11,22,6,1
1854,1,0,1,1,0,11,11,22,6,1
1855,0,1,1,1,1,11,11,22,6,1
1856,1,0,1,1,0,11,11,22,6,1
1857,0,1,1,1,1,11,11,22,6,1
1858,1,1,0,0,1,11,11,22,6,1
1859,1,2,0,0,1,11,11,22,6,1
1860,1,2,0,0,1,11,11,22,6,1
1861,1,2,0,0,1,11,11,22,6,1
1862,1,0,1,1,0,11,11,22,6,1
1863,0,0,0,0,0,11,11,22,6,1
1864,0,1,1,1,1,11,11,22,6,1
1865,1,0,1,1,0,11,11,22,6,1
1866,0,0,0,0,0,11,11,22,6,1
1867,0,1,1,1,1,11,11,22,6,1
1868,1,1,0,0,1,11,11,22,6,1
1869,1,0,1,1,0,11,11,22,6,1
1870,0,0,0,0,0,11,11,22,6,1
1871,0,0,0,0,0,11,11,22,6,1
1872,0,2,0,0,0,11,11,22,6,1
1873,0,1,1,1,1,11,11,22,6,1
1874,1,2,0,0,1,11,11,22,6,1
1875,1,1,0,0,1,11,11,22,6,1
1876,1,2,0,0,1,11,11,22,6,1
1877,1,1,0,0,1,11,11,22,6,1
1878,1,1,0,0,1,11,11,22,6,1
1879,1,1,0,0,1,11,11,22,6,1
1880,1,0,1,1,0,11,11,22,6,1
1881,0,0,0,0,0,11,11,22,6,1
1882,0,1,1,1,1,11,11,22,6,1
1883,1,2,0,0,1,11,11,22,6,1
1884,1,0,1,1,0,11,11,22,6,1
1885,0,0,0,0,0,11,11,22,6,1
1886,0,0,0,0,0,11,11,22,6,1
1887,0,0,0,0,0,11,11,22,6,1
1888,0,2,0,0,0,11,11,22,6,1
1889,0,0,0,0,0,11,11,22,6,1
1890,0,0,0,0,0,11,11,22,6,1
1891,0,1,1,1,1,11,11,22,6,1
1892,1,2,0,0,1,11,11,22,6,1
1893,1,0,1,1,0,11,11,22,6,1
1894,0,1,1,1,1,11,11,22,6,1
1895,1,0,1,1,0,11,11,22,6,1
1896,0,1,1,1,1,11,11,22,6,1
1897,1,2,0,0,1,11,11,22,6,1
1898,1,0,1,1,0,11,11,22,6,1
1899,0,1,1,1,1,11,11,22,6,1
1900,1,1,0,0,1,11,11,22,6,1
1901,1,1,0,0,1,11,11,22,6,1
1902,1,1,0,0,1,11,11,22,6,1
1903,1,1,0,0,1,11,11,22,6,1
1904,1,2,0,0,1,11,11,22,6,1
1905,1,0,1,1,0,11,11,22,6,1
1906,0,1,1,1,1,11,11,22,6,1
1907,1,1,0,0,1,11,11,22,6,1
1908,1,1,0,0,1,11,11,22,6,1
1909,1,1,0,0,1,11,11,22,6,1
1910,1,2,0,0,1,11,11,22,6,1
1911,1,1,0,0,1,11,11,22,6,1
1912,1,1,0,0,1,11,11,22,6,1
1913,1,2,0,0,1,11,11,22,6,1
1914,1,2,0,0,1,11,11,22,6,1
1915,1,0,1,1,0,11,11,22,6,1
1916,0,2,0,0,0,11,11,22,6,1
1917,0,0,0,0,0,11,11,22,6,1
1918,0,2,0,0,0,11,11,22,6,1
1919,0,0,0,0,0,11,11,22,6,1
1920,0,1,1,1,1,11,11,22,6,1
1921,1,1,0,0,1,11,11,22,6,1
1922,1,2,0,0,1,11,11,22,6,1
1923,1,2,0,0,1,11,11,22,6,1
1924,1,2,0,0,1,11,11,22,6,1
1925,1,1,0,0,1,11,11,22,6,1
1926,1,1,0,0,1,11,11,22,6,1
1927,1,0,1,1,0,11,11,22,6,1
1928,0,1,1,1,1,11,11,22,6,1
1929,1,1,0,0,1,11,11,22,6,1
1930,1,2,0,0,1,11,11,22,6,1
1931,1,0,1,1,0,11,11,22,6,1
1932,0,1,1,1,1,11,11,22,6,1
1933,1,0,1,1,0,11,11,22,6,1
1934,0,2,0,0,0,11,11,22,6,1
1935,0,2,0,0,0,11,11,22,6,1
1936,0,1,1,1,1,11,11,22,6,1
1937,1,2,0,0,1,11,11,22,6,1
1938,1,1,0,0,1,11,11,22,6,1
1939,1,0,1,1,0,11,11,22,6,1
1940,0,0,0,0,0,11,11,22,6,1
1941,0,2,0,0,0,11,11,22,6,1
1942,0,1,1,1,1,11,11,22,6,1
1943,1,0,1,1,0,11,11,22,6,1
1944,0,1,1,1,1,11,11,22,6,1
1945,1,2,0,0,1,11,11,22,6,1
1946,1,2,0,0,1,11,11,22,6,1
1947,1,1,0,0,1,11,11,22,6,1
1948,1,2,0,0,1,11,11,22,6,1
1949,1,0,1,1,0,11,11,22,6,1
1950,0,1,1,1,1,11,11,22,6,1
1951,1,0,1,1,0,11,11,22,6,1
1952,0,0,0,0,0,11,11,22,6,1
1953,0,2,0,0,0,11,11,22,6,1
1954,0,0,0,0,0,11,11,22,6,1
1955,0,1,1,1,1,11,11,22,6,1
1956,1,1,0,0,1,11,11,22,6,1
1957,1,2,0,0,1,11,11,22,6,1
1958,1,2,0,0,1,11,11,22,6,1
1959,1,0,1,1,0,11,11,22,6,1
1960,0,0,0,0,0,11,11,22,6,1
1961,0,2,0,0,0,11,11,22,6,1
1962,0,0,0,0,0,11,11,22,6,1
1963,0,0,0,0,0,11,11,22,6,1
1964,0,2,0,0,0,11,11,22,6,1
1965,0,1,1,1,1,11,11,22,6,1
1966,1,0,1,1,0,11,11,22,6,1
1967,0,1,1,1,1,11,11,22,6,1
1968,1,1,0,0,1,11,11,22,6,1
1969,1,1,0,0,1,11,11,22,6,1
1970,1,1,0,0,1,11,11,22,6,1
1971,1,0,1,1,0,11,11,22,6,1
1972,0,1,1,1,1,11,11,22,6,1
1973,1,2,0,0,1,11,11,22,6,1
1974,1,1,0,0,1,11,11,22,6,1
1975,1,2,0,0,1,11,11,22,6,1
1976,1,0,1,1,0,11,11,22,6,1
1977,0,0,0,0,0,11,11,22,6,1
1978,0,0,0,0,0,11,11,22,6,1
1979,0,2,0,0,0,11,11,22,6,1
1980,0,0,0,0,0,11,11,22,6,1
1981,0,1,1,1,1,11,11,22,6,1
1982,1,1,0,0,1,11,11,22,6,1
1983,1,2,0,0,1,11,11,22,6,1
1984,1,1,0,0,1,11,11,22,6,1
1985,1,1,0,0,1,11,11,22,6,1
1986,1,2,0,0,1,11,11,22,6,1
1987,1,1,0,0,1,11,11,22,6,1
1988,1,2,0,0,1,11,11,22,6,1
1989,1,0,1,1,0,11,11,22,6,1
1990,0,2,0,0,0,11,11,22,6,1
1991,0,0,0,0,0,11,11,22,6,1
1992,0,1,1,1,1,11,11,22,6,1
1993,1,1,0,0,1,11,11,22,6,1
1994,1,0,1,1,0,11,11,22,6,1
1995,0,1,1,1,1,11,11,22,6,1
1996,1,2,0,0,1,11,11,22,6,1
1997,1,0,1,1,0,11,11,22,6,1
1998,0,0,0,0,0,11,11,22,6,1
1999,0,2,0,0,0,11,11,22,6,1
2000,0,1,1,1,1,11,11,22,6,1
2001,1,1,0,0,1,11,11,22,6,1
2002,1,2,0,0,1,11,11,22,6,1
2003,1,2,0,0,1,11,11,22,6,1
2004,1,0,1,1,0,11,11,22,6,1
2005,0,1,1,1,1,11,11,22,6,1
2006,1,0,1,1,0,11,11,22,6,1
2007,0,2,0,0,0,11,11,22,6,1
2008,0,1,1,1,1,11,11,22,6,1
2009,1,2,0,0,1,11,11,22,6,1
2010,1,0,1,1,0,11,11,22,6,1
2011,0,2,0,0,0,11,11,22,6,1
2012,0,0,0,0,0,11,11,22,6,1
2013,0,2,0,0,0,11,11,22,6,1
2014,0,1,1,1,1,11,11,22,6,1
2015,1,2,0,0,1,11,11,22,6,1
2016,1,0,1,1,0,11,11,22,6,1
2017,0,0,0,0,0,11,11,22,6,1
2018,0,1,1,1,1,11,11,22,6,1
2019,1,2,0,0,1,11,11,22,6,1
2020,1,1,0,0,1,11,11,22,6,1
2021,1,1,0,0,1,11,11,22,6,1
2022,1,0,1,1,0,11,11,22,6,1
2023,0,1,1,1,1,11,11,22,6,1
2024,1,1,0,0,1,11,11,22,6,1
2025,1,2,0,0,1,11,11,22,6,1
2026,1,2,0,0,1,11,11,22,6,1
2027,1,1,0,0,1,11,11,22,6,1
2028,1,0,1,1,0,11,11,22,6,1
2029,0,0,0,0,0,11,11,22,6,1
2030,0,2,0,0,0,11,11,22,6,1
2031,0,1,1,1,1,11,11,22,6,1
2032,1,0,1,1,0,11,11,22,6,1
2033,0,2,0,0,0,11,11,22,6,1
2034,0,0,0,0,0,11,11,22,6,1
2035,0,1,1,1,1,11,11,22,6,1
2036,1,2,0,0,1,11,11,22,6,1
2037,1,0,1,1,0,11,11,22,6,1
2038,0,0,0,0,0,11,11,22,6,1
2039,0,0,0,0,0,11,11,22,6,1
2040,0,0,0,0,0,11,11,22,6,1
2041,0,1,1,1,1,11,11,22,6,1
2042,1,0,1,1,0,11,11,22,6,1
2043,0,0,0,0,0,11,11,22,6,1
2044,0,0,0,0,0,11,11,22,6,1
2045,0,1,1,1,1,11,11,22,6,1
2046,1,1,0,0,1,11,11,22,6,1
2047,1,2,0,0,1,11,11,22,6,1
2048,1,0,1,1,0,11,11,22,6,1
2049,0,1,1,1,1,11,11,22,6,1
2050,1,0,1,1,0,11,11,22,6,1
2051,0,2,0,0,0,11,11,22,6,1
2052,0,0,0,0,0,11,11,22,6,1
2053,0,1,1,1,1,11,11,22,6,1
2054,1,1,0,0,1,11,11,22,6,1
2055,1,1,0,0,1,11,11,22,6,1
2056,1,1,0,0,1,11,11,22,6,1
2057,1,1,0,0,1,11,11,22,6,1
2058,1,0,1,1,0,11,11,22,6,1
2059,0,2,0,0,0,11,11,22,6,1
2060,0,2,0,0,0,11,11,22,6,1
2061,0,1,1,1,1,11,11,22,6,1
2062,1,1,0,0,1,11,11,22,6,1
2063,1,2,0,0,1,11,11,22,6,1
2064,1,0,1,1,0,11,11,22,6,1
2065,0,1,1,1,1,11,11,22,6,1
2066,1,1,0,0,1,11,11,22,6,1
2067,1,1,0,0,1,11,11,22,6,1
2068,1,1,0,0,1,11,11,22,6,1
2069,1,1,0,0,1,11,11,22,6,1
2070,1,0,1,1,0,11,11,22,6,1
2071,0,0,0,0,0,11,11,22,6,1
2072,0,0,0,0,0,11,11,22,6,1
2073,0,1,1,1,1,11,11,22,6,1
2074,1,0,1,1,0,11,11,22,6,1
2075,0,2,0,0,0,11,11,22,6,1
2076,0,2,0,0,0,11,11,22,6,1
2077,0,2,0,0,0,11,11,22,6,1
2078,0,0,0,0,0,11,11,22,6,1
2079,0,2,0,0,0,11,11,22,6,1
2080,0,1,1,1,1,11,11,22,6,1
2081,1,1,0,0,1,11,11,22,6,1
2082,1,1,0,0,1,11,11,22,6,1
2083,1,1,0,0,1,11,11,22,6,1
2084,1,1,0,0,1,11,11,22,6,1
2085,1,2,0,0,1,11,11,22,6,1
2086,1,2,0,0,1,11,11,22,6,1
2087,1,0,1,1,0,11,11,22,6,1
2088,0,0,0,0,0,11,11,22,6,1
2089,0,1,1,1,1,11,11,22,6,1
2090,1,2,0,0,1,11,11,22,6,1
2091,1,2,0,0,1,11,11,22,6,1
2092,1,0,1,1,0,11,11,22,6,1
2093,0,1,1,1,1,11,11,22,6,1
2094,1,2,0,0,1,11,11,22,6,1
2095,1,2,0,0,1,11,11,22,6,1
2096,1,1,0,0,1,11,11,22,6,1
2097,1,2,0,0,1,11,11,22,6,1
2098,1,2,0,0,1,11,11,22,6,1
2099,1,0,1,1,0,11,11,22,6,1
2100,0,0,0,0,0,11,11,22,6,1
2101,0,1,1,1,1,11,11,22,6,1
2102,1,1,0,0,1,11,11,22,6,1
2103,1,2,0,0,1,11,11,22,6,1
2104,1,0,1,1,0,11,11,22,6,1
2105,0,1,1,1,1,11,11,22,6,1
2106,1,2,0,0,1,11,11,22,6,1
2107,1,0,1,1,0,11,11,22,6,1
2108,0,1,1,1,1,11,11,22,6,1
2109,1,0,1,1,0,11,11,22,6,1
2110,0,1,1,1,1,11,11,22,6,1
2111,1,2,0,0,1,11,11,22,6,1
2112,1,2,0,0,1,11,11,22,6,1
2113,1,2,0,0,1,11,11,22,6,1
2114,1,0,1,1,0,11,11,22,6,1
2115,0,1,1,1,1,11,11,22,6,1
2116,1,1,0,0,1,11,11,22,6,1
2117,1,1,0,0,1,11,11,22,6,1
2118,1,2,0,0,1,11,11,22,6,1
2119,1,2,0,0,1,11,11,22,6,1
2120,1,2,0,0,1,11,11,22,6,1
2121,1,0,1,1,0,11,11,22,6,1
2122,0,0,0,0,0,11,11,22,6,1
2123,0,2,0,0,0,11,11,22,6,1
2124,0,0,0,0,0,11,11,22,6,1
2125,0,2,0,0,0,11,11,22,6,1
2126,0,0,0,0,0,11,11,22,6,1
2127,0,1,1,1,1,11,11,22,6,1
2128,1,0,1,1,0,11,11,22,6,1
2129,0,0,0,0,0,11,11,22,6,1
2130,0,1,1,1,1,11,11,22,6,1
2131,1,2,0,0,1,11,11,22,6,1
2132,1,2,0,0,1,11,11,22,6,1
2133,1,0,1,1,0,11,11,22,6,1
2134,0,0,0,0,0,11,11,22,6,1
2135,0,1,1,1,1,11,11,22,6,1
2136,1,0,1,1,0,11,11,22,6,1
2137,0,0,0,0,0,11,11,22,6,1
2138,0,1,1,1,1,11,11,22,6,1
2139,1,1,0,0,1,11,11,22,6,1
2140,1,2,0,0,1,11,11,22,6,1
2141,1,0,1,1,0,11,11,22,6,1
2142,0,1,1,1,1,11,11,22,6,1
2143,1,1,0,0,1,11,11,22,6,1
2144,1,0,1,1,0,11,11,22,6,1
2145,0,1,1,1,1,11,11,22,6,1
2146,1,0,1,1,0,11,11,22,6,1
2147,0,2,0,0,0,11,11,22,6,1
2148,0,1,1,1,1,11,11,22,6,1
2149,1,0,1,1,0,11,11,22,6,1
2150,0,1,1,1,1,11,11,22,6,1
2151,1,1,0,0,1,11,11,22,6,1
2152,1,2,0,0,1,11,11,22,6,1
2153,1,2,0,0,1,11,11,22,6,1
2154,1,0,1,1,0,11,11,22,6,1
2155,0,2,0,0,0,11,11,22,6,1
2156,0,0,0,0,0,11,11,22,6,1
2157,0,2,0,0,0,11,11,22,6,1
2158,0,0,0,0,0,11,11,22,6,1
2159,0,2,0,0,0,11,11,22,6,1
2160,0,0,0,0,0,11,11,22,6,1
2161,0,2,0,0,0,11,11,22,6,1
2162,0,2,0,0,0,11,11,22,6,1
2163,0,2,0,0,0,11,11,22,6,1
2164,0,0,0,0,0,11,11,22,6,1
2165,0,1,1,1,1,11,11,22,6,1
2166,1,0,1,1,0,11,11,22,6,1
2167,0,2,0,0,0,11,11,22,6,1
2168,0,2,0,0,0,11,11,22,6,1
2169,0,1,1,1,1,11,11,22,6,1
2170,1,1,0,0,1,11,11,22,6,1
2171,1,2,0,0,1,11,11,22,6,1
2172,1,0,1,1,0,11,11,22,6,1
2173,0,1,1,1,1,11,11,22,6,1
2174,1,1,0,0,1,11,11,22,6,1
2175,1,2,0,0,1,11,11,22,6,1
2176,1,1,0,0,1,11,11,22,6,1
2177,1,1,0,0,1,11,11,22,6,1
2178,1,1,0,0,1,11,11,22,6,1
2179,1,0,1,1,0,11,11,22,6,1
2180,0,0,0,0,0,11,11,22,6,1
2181,0,0,0,0,0,11,11,22,6,1
2182,0,0,0,0,0,11,11,22,6,1
2183,0,2,0,0,0,11,11,22,6,1
2184,0,1,1,1,1,11,11,22,6,1
2185,1,1,0,0,1,11,11,22,6,1
2186,1,1,0,0,1,11,11,22,6,1
2187,1,0,1,1,0,11,11,22,6,1
2188,0,2,0,0,0,11,11,22,6,1
2189,0,2,0,0,0,11,11,22,6,1
2190,0,0,0,0,0,11,11,22,6,1
2191,0,1,1,1,1,11,11,22,6,1
2192,1,2,0,0,1,11,11,22,6,1
2193,1,1,0,0,1,11,11,22,6,1
2194,1,2,0,0,1,11,11,22,6,1
2195,1,2,0,0,1,11,11,22,6,1
2196,1,1,0,0,1,11,11,22,6,1
2197,1,2,0,0,1,11,11,22,6,1
2198,1,2,0,0,1,11,11,22,6,1
2199,1,1,0,0,1,11,11,22,6,1
2200,1,0,1,1,0,11,11,22,6,1
2201,0,1,1,1,1,11,11,22,6,1
2202,1,2,0,0,1,11,11,22,6,1
2203,1,1,0,0,1,11,11,22,6,1
2204,1,1,0,0,1,11,11,22,6,1
2205,1,1,0,0,1,11,11,22,6,1
2206,1,2,0,0,1,11,11,22,6,1
2207,1,0,1,1,0,11,11,22,6,1
2208,0,1,1,1,1,11,11,22,6,1
2209,1,1,0,0,1,11,11,22,6,1
2210,1,0,1,1,0,11,11,22,6,1
2211,0,0,0,0,0,11,11,22,6,1
2212,0,0,0,0,0,11,11,22,6,1
2213,0,0,0,0,0,11,11,22,6,1
2214,0,1,1,1,1,11,11,22,6,1
2215,1,0,1,1,0,11,11,22,6,1
2216,0,0,0,0,0,11,11,22,6,1
2217,0,2,0,0,0,11,11,22,6,1
2218,0,2,0,0,0,11,11,22,6,1
2219,0,1,1,1,1,11,11,22,6,1
2220,1,1,0,0,1,11,11,22,6,1
2221,1,1,0,0,1,11,11,22,6,1
2222,1,0,1,1,0,11,11,22,6,1
2223,0,1,1,1,1,11,11,22,6,1
2224,1,2,0,0,1,11,11,22,6,1
2225,1,2,0,0,1,11,11,22,6,1
2226,1,1,0,0,1,11,11,22,6,1
2227,1,1,0,0,1,11,11,22,6,1
2228,1,1,0,0,1,11,11,22,6,1
2229,1,2,0,0,1,11,11,22,6,1
2230,1,1,0,0,1,11,11,22,6,1
2231,1,1,0,0,1,11,11,22,6,1
2232,1,2,0,0,1,11,11,22,6,1
2233,1,1,0,0,1,11,11,22,6,1
2234,1,0,1,1,0,11,11,22,6,1
2235,0,1,1,1,1,11,11,22,6,1
2236,1,2,0,0,1,11,11,22,6,1
2237,1,1,0,0,1,11,11,22,6,1
2238,1,0,1,1,0,11,11,22,6,1
2239,0,0,0,0,0,11,11,22,6,1
2240,0,2,0,0,0,11,11,22,6,1
2241,0,0,0,0,0,11,11,22,6,1
2242,0,1,1,1,1,11,11,22,6,1
2243,1,0,1,1,0,11,11,22,6,1
2244,0,1,1,1,1,11,11,22,6,1
2245,1,2,0,0,1,11,11,22,6,1
2246,1,0,1,1,0,11,11,22,6,1
2247,0,0,0,0,0,11,11,22,6,1
2248,0,1,1,1,1,11,11,22,6,1
2249,1,1,0,0,1,11,11,22,6,1
2250,1,1,0,0,1,11,11,22,6,1
2251,1,1,0,0,1,11,11,22,6,1
2252,1,0,1,1,0,11,11,22,6,1
2253,0,1,1,1,1,11,11,22,6,1
2254,1,0,1,1,0,11,11,22,6,1
2255,0,1,1,1,1,11,11,22,6,1
2256,1,1,0,0,1,11,11,22,6,1
2257,1,0,1,1,0,11,11,22,6,1
2258,0,2,0,0,0,11,11,22,6,1
2259,0,0,0,0,0,11,11,22,6,1
2260,0,2,0,0,0,11,11,22,6,1
2261,0,1,1,1,1,11,11,22,6,1
2262,1,1,0,0,1,11,11,22,6,1
2263,1,0,1,1,0,11,11,22,6,1
2264,0,0,0,0,0,11,11,22,6,1
2265,0,2,0,0,0,11,11,22,6,1
2266,0,1,1,1,1,11,11,22,6,1
2267,1,1,0,0,1,11,11,22,6,1
2268,1,0,1,1,0,11,11,22,6,1
2269,0,1,1,1,1,11,11,22,6,1
2270,1,1,0,0,1,11,11,22,6,1
2271,1,2,0,0,1,11,11,22,6,1
2272,1,1,0,0,1,11,11,22,6,1
2273,1,1,0,0,1,11,11,22,6,1
2274,1,2,0,0,1,11,11,22,6,1
2275,1,1,0,0,1,11,11,22,6,1
2276,1,1,0,0,1,11,11,22,6,1
2277,1,1,0,0,1,11,11,22,6,1
2278,1,0,1,1,0,11,11,22,6,1
2279,0,0,0,0,0,11,11,22,6,1
2280,0,0,0,0,0,11,11,22,6,1
2281,0,2,0,0,0,11,11,22,6,1
2282,0,2,0,0,0,11,11,22,6,1
2283,0,2,0,0,0,11,11,22,6,1
2284,0,0,0,0,0,11,11,22,6,1
2285,0,2,0,0,0,11,11,22,6,1
2286,0,2,0,0,0,11,11,22,6,1
2287,0,1,1,1,1,11,11,22,6,1
2288,1,0,1,1,0,11,11,22,6,1
2289,0,0,0,0,0,11,11,22,6,1
2290,0,2,0,0,0,11,11,22,6,1
2291,0,2,0,0,0,11,11,22,6,1
2292,0,2,0,0,0,11,11,22,6,1
2293,0,1,1,1,1,11,11,22,6,1
2294,1,2,0,0,1,11,11,22,6,1
2295,1,2,0,0,1,11,11,22,6,1
2296,1,1,0,0,1,11,11,22,6,1
2297,1,0,1,1,0,11,11,22,6,1
2298,0,2,0,0,0,11,11,22,6,1
2299,0,1,1,1,1,11,11,22,6,1
2300,1,2,0,0,1,11,11,22,6,1
2301,1,1,0,0,1,11,11,22,6,1
2302,1,0,1,1,0,11,11,22,6,1
2303,0,1,1,1,1,11,11,22,6,1
2304,1,0,1,1,0,11,11,22,6,1
2305,0,0,0,0,0,11,11,22,6,1
2306,0,2,0,0,0,11,11,22,6,1
2307,0,2,0,0,0,11,11,22,6,1
2308,0,1,1,1,1,11,11,22,6,1
2309,1,0,1,1,0,11,11,22,6,1
2310,0,2,0,0,0,11,11,22,6,1
2311,0,1,1,1,1,11,11,22,6,1
2312,1,1,0,0,1,11,11,22,6,1
2313,1,2,0,0,1,11,11,22,6,1
2314,1,2,0,0,1,11,11,22,6,1
2315,1,1,0,0,1,11,11,22,6,1
2316,1,1,0,0,1,11,11,22,6,1
2317,1,1,0,0,1,11,11,22,6,1
2318,1,1,0,0,1,11,11,22,6,1
2319,1,2,0,0,1,11,11,22,6,1
2320,1,0,1,1,0,11,11,22,6,1
2321,0,0,0,0,0,11,11,22,6,1
2322,0,0,0,0,0,11,11,22,6,1
2323,0,0,0,0,0,11,11,22,6,1
2324,0,1,1,1,1,11,11,22,6,1
2325,1,0,1,1,0,11,11,22,6,1
2326,0,2,0,0,0,11,11,22,6,1
2327,0,0,0,0,0,11,11,22,6,1
2328,0,0,0,0,0,11,11,22,6,1
2329,0,2,0,0,0,11,11,22,6,1
2330,0,0,0,0,0,11,11,22,6,1
2331,0,1,1,1,1,11,11,22,6,1
2332,1,2,0,0,1,11,11,22,6,1
2333,1,1,0,0,1,11,11,22,6,1
2334,1,0,1,1,0,11,11,22,6,1
2335,0,0,0,0,0,11,11,22,6,1
2336,0,1,1,1,1,11,11,22,6,1
2337,1,0,1,1,0,11,11,22,6,1
2338,0,2,0,0,0,11,11,22,6,1
2339,0,0,0,0,0,11,11,22,6,1
2340,0,2,0,0,0,11,11,22,6,1
2341,0,0,0,0,0,11,11,22,6,1
2342,0,1,1,1,1,11,11,22,6,1
2343,1,0,1,1,0,11,11,22,6,1
2344,0,1,1,1,1,11,11,22,6,1
2345,1,1,0,0,1,11,11,22,6,1
2346,1,2,0,0,1,11,11,22,6,1
2347,1,0,1,1,0,11,11,22,6,1
2348,0,2,0,0,0,11,11,22,6,1
2349,0,0,0,0,0,11,11,22,6,1
2350,0,1,1,1,1,11,11,22,6,1
2351,1,2,0,0,1,11,11,22,6,1
2352,1,1,0,0,1,11,11,22,6,1
2353,1,2,0,0,1,11,11,22,6,1
2354,1,1,0,0,1,11,11,22,6,1
2355,1,1,0,0,1,11,11,22,6,1
2356,1,2,0,0,1,11,11,22,6,1
2357,1,2,0,0,1,11,11,22,6,1
2358,1,2,0,0,1,11,11,22,6,1
2359,1,0,1,1,0,11,11,22,6,1
2360,0,2,0,0,0,11,11,22,6,1
2361,0,1,1,1,1,11,11,22,6,1
2362,1,2,0,0,1,11,11,22,6,1
2363,1,0,1,1,0,11,11,22,6,1
2364,0,0,0,0,0,11,11,22,6,1
2365,0,0,0,0,0,11,11,22,6,1
2366,0,2,0,0,0,11,11,22,6,1
2367,0,2,0,0,0,11,11,22,6,1
2368,0,1,1,1,1,11,11,22,6,1
2369,1,0,1,1,0,11,11,22,6,1
2370,0,2,0,0,0,11,11,22,6,1
2371,0,2,0,0,0,11,11,22,6,1
2372,0,2,0,0,0,11,11,22,6,1
2373,0,0,0,0,0,11,11,22,6,1
2374,0,0,0,0,0,11,11,22,6,1
2375,0,2,0,0,0,11,11,22,6,1
2376,0,2,0,0,0,11,11,22,6,1
2377,0,2,0,0,0,11,11,22,6,1
2378,0,2,0,0,0,11,11,22,6,1
2379,0,2,0,0,0,11,11,22,6,1
2380,0,2,0,0,0,11,11,22,6,1
2381,0,1,1,1,1,11,11,22,6,1
2382,1,0,1,1,0,11,11,22,6,1
2383,0,2,0,0,0,11,11,22,6,1
2384,0,1,1,1,1,11,11,22,6,1
2385,1,2,0,0,1,11,11,22,6,1
2386,1,0,1,1,0,11,11,22,6,1
2387,0,2,0,0,0,11,11,22,6,1
2388,0,1,1,1,1,11,11,22,6,1
2389,1,2,0,0,1,11,11,22,6,1
2390,1,2,0,0,1,11,11,22,6,1
2391,1,1,0,0,1,11,11,22,6,1
2392,1,1,0,0,1,11,11,22,6,1
2393,1,0,1,1,0,11,11,22,6,1
2394,0,0,0,0,0,11,11,22,6,1
2395,0,1,1,1,1,11,11,22,6,1
2396,1,0,1,1,0,11,11,22,6,1
2397,0,1,1,1,1,11,11,22,6,1
2398,1,1,0,0,1,11,11,22,6,1
2399,1,1,0,0,1,11,11,22,6,1
2400,1,2,0,0,1,11,11,22,6,1
2401,1,1,0,0,1,11,11,22,6,1
2402,1,1,0,0,1,11,11,22,6,1
2403,1,1,0,0,1,11,11,22,6,1
2404,1,2,0,0,1,11,11,22,6,1
2405,1,1,0,0,1,11,11,22,6,1
2406,1,2,0,0,1,11,11,22,6,1
2407,1,0,1,1,0,11,11,22,6,1
2408,0,0,0,0,0,11,11,22,6,1
2409,0,0,0,0,0,11,11,22,6,1
2410,0,1,1,1,1,11,11,22,6,1
2411,1,1,0,0,1,11,11,22,6,1
2412,1,0,1,1,0,11,11,22,6,1
2413,0,0,0,0,0,11,11,22,6,1
2414,0,1,1,1,1,11,11,22,6,1
2415,1,0,1,1,0,11,11,22,6,1
2416,0,2,0,0,0,11,11,22,6,1
2417,0,0,0,0,0,11,11,22,6,1
2418,0,2,0,0,0,11,11,22,6,1
2419,0,0,0,0,0,11,11,22,6,1
2420,0,2,0,0,0,11,11,22,6,1
2421,0,2,0,0,0,11,11,22,6,1
2422,0,2,0,0,0,11,11,22,6,1
2423,0,2,0,0,0,11,11,22,6,1
2424,0,0,0,0,0,11,11,22,6,1
2425,0,1,1,1,1,11,11,22,6,1
2426,1,2,0,0,1,11,11,22,6,1
2427,1,2,0,0,1,11,11,22,6,1
2428,1,1,0,0,1,11,11,22,6,1
2429,1,2,0,0,1,11,11,22,6,1
2430,1,0,1,1,0,11,11,22,6,1
2431,0,2,0,0,0,11,11,22,6,1
2432,0,1,1,1,1,11,11,22,6,1
2433,1,2,0,0,1,11,11,22,6,1
2434,1,0,1,1,0,11,11,22,6,1
2435,0,1,1,1,1,11,11,22,6,1
2436,1,0,1,1,0,11,11,22,6,1
2437,0,2,0,0,0,11,11,22,6,1
2438,0,2,0,0,0,11,11,22,6,1
2439,0,1,1,1,1,11,11,22,6,1
2440,1,2,0,0,1,11,11,22,6,1
2441,1,0,1,1,0,11,11,22,6,1
2442,0,0,0,0,0,11,11,22,6,1
2443,0,2,0,0,0,11,11,22,6,1
2444,0,1,1,1,1,11,11,22,6,1
2445,1,0,1,1,0,11,11,22,6,1
2446,0,2,0,0,0,11,11,22,6,1
2447,0,2,0,0,0,11,11,22,6,1
2448,0,0,0,0,0,11,11,22,6,1
2449,0,1,1,1,1,11,11,22,6,1
2450,1,1,0,0,1,11,11,22,6,1
2451,1,0,1,1,0,11,11,22,6,1
2452,0,0,0,0,0,11,11,22,6,1
2453,0,0,0,0,0,11,11,22,6,1
2454,0,0,0,0,0,11,11,22,6,1
2455,0,0,0,0,0,11,11,22,6,1
2456,0,1,1,1,1,11,11,22,6,1
2457,1,1,0,0,1,11,11,22,6,1
2458,1,2,0,0,1,11,11,22,6,1
2459,1,2,0,0,1,11,11,22,6,1
2460,1,0,1,1,0,11,11,22,6,1
2461,0,1,1,1,1,11,11,22,6,1
2462,1,2,0,0,1,11,11,22,6,1
2463,1,0,1,1,0,11,11,22,6,1
2464,0,1,1,1,1,11,11,22,6,1
2465,1,2,0,0,1,11,11,22,6,1
2466,1,1,0,0,1,11,11,22,6,1
2467,1,2,0,0,1,11,11,22,6,1
2468,1,0,1,1,0,11,11,22,6,1
2469,0,2,0,0,0,11,11,22,6,1
2470,0,2,0,0,0,11,11,22,6,1
2471,0,0,0,0,0,11,11,22,6,1
2472,0,0,0,0,0,11,11,22,6,1
2473,0,0,0,0,0,11,11,22,6,1
2474,0,1,1,1,1,11,11,22,6,1
2475,1,2,0,0,1,11,11,22,6,1
2476,1,2,0,0,1,11,11,22,6,1
2477,1,0,1,1,0,11,11,22,6,1
2478,0,0,0,0,0,11,11,22,6,1
2479,0,0,0,0,0,11,11,22,6,1
2480,0,0,0,0,0,11,11,22,6,1
2481,0,0,0,0,0,11,11,22,6,1
2482,0,0,0,0,0,11,11,22,6,1
2483,0,1,1,1,1,11,11,22,6,1
2484,1,2,0,0,1,11,11,22,6,1
2485,1,2,0,0,1,11,11,22,6,1
2486,1,1,0,0,1,11,11,22,6,1
2487,1,0,1,1,0,11,11,22,6,1
2488,0,2,0,0,0,11,11,22,6,1
2489,0,0,0,0,0,11,11,22,6,1
2490,0,0,0,0,0,11,11,22,6,1
2491,0,0,0,0,0,11,11,22,6,1
2492,0,2,0,0,0,11,11,22,6,1
2493,0,2,0,0,0,11,11,22,6,1
2494,0,0,0,0,0,11,11,22,6,1
2495,0,0,0,0,0,11,11,22,6,1
2496,0,1,1,1,1,11,11,22,6,1
2497,1,1,0,0,1,11,11,22,6,1
2498,1,2,0,0,1,11,11,22,6,1
2499,1,1,0,0,1,11,11,22,6,1
2500,1,0,1,1,0,11,11,22,6,1
